 55.588001, 1.18 
 54.655998, 1.20 
 69.333000, 0.95 
 55.938000, 1.17 
 57.582001, 1.14 
 53.953999, 1.21 
 54.938999, 1.19 
 53.911999, 1.22 
 56.112999, 1.17 
 55.821999, 1.17 
 
 56.025002, 1.17 
 181.561005, 1.21 
 186.373993, 1.18 
 183.667999, 1.19 
 183.794006, 1.19 
 183.018997, 1.20 
 185.960999, 1.18 
 184.007004, 1.19 
 183.410995, 1.19 
 186.472000, 1.17 
 
 182.250000, 1.20 
 182.001999, 1.20 
 444.221985, 1.20 
 450.368988, 1.19 
 444.888000, 1.20 
 443.532013, 1.20 
 466.359009, 1.15 
 450.415009, 1.19 
 452.550995, 1.18 
 453.221985, 1.18 
 
 
 512.406982, 1.19 
 512.986023, 1.19 
 511.535004, 1.19 
 506.809998, 1.20 
 521.974976, 1.17 
 513.346985, 1.18 
 506.502991, 1.20 
 516.494019, 1.18 
 509.373993, 1.19 
 507.476013, 1.20 


