data/Experiment/1_cameraman.pgm
0
3
 0.087000, 753.29, 64.288002 
 0.083000, 789.59, 65.908997 
 0.084000, 780.19, 66.418999 
 0.083000, 789.59, 65.216003 
 0.083000, 789.59, 63.140999 
 0.082000, 799.22, 63.933998 
 0.090000, 728.18, 62.046001 
 0.083000, 789.59, 62.944000 
 0.083000, 789.59, 62.584000 
 0.082000, 799.22, 64.653000 
9
 0.453000, 144.67, 63.786999 
 0.419000, 156.41, 64.960999 
 0.419000, 156.41, 63.070000 
 0.469000, 139.74, 64.081001 
 0.419000, 156.41, 62.699001 
 0.428000, 153.12, 63.626999 
 0.419000, 156.41, 63.457001 
 0.425000, 154.20, 64.551994 
 0.419000, 156.41, 63.429001 
 0.420000, 156.04, 64.028000 
11
 0.609000, 107.61, 63.018997 
 0.608000, 107.79, 63.989998 
 0.609000, 107.61, 62.709999 
 0.608000, 107.79, 63.505997 
 0.609000, 107.61, 64.289001 
 0.610000, 107.44, 63.699997 
 0.607000, 107.97, 62.243000 
 0.609000, 107.61, 63.695000 
 0.609000, 107.61, 62.506001 
 0.609000, 107.61, 63.446999 
15
 1.102000, 59.47, 62.083000 
 1.099000, 59.63, 64.391998 
 1.099000, 59.63, 63.000000 
 1.104000, 59.36, 64.585007 
 1.099000, 59.63, 63.307999 
 1.101000, 59.52, 64.373001 
 1.101000, 59.52, 63.063999 
 1.103000, 59.42, 65.924004 
 1.097000, 59.74, 62.091999 
 1.102000, 59.47, 64.443001 
1
3
 0.082000, 799.22, 62.857998 
 0.084000, 780.19, 63.702000 
 0.081000, 809.09, 62.724998 
 0.082000, 799.22, 63.524998 
 0.082000, 799.22, 62.682999 
 0.083000, 789.59, 63.729000 
 0.083000, 789.59, 62.784000 
 0.083000, 789.59, 63.620998 
 0.082000, 799.22, 63.010998 
 0.083000, 789.59, 64.704002 
9
 0.432000, 151.70, 63.581001 
 0.454000, 144.35, 64.804001 
 0.424000, 154.57, 94.339996 
 0.453000, 144.67, 63.973003 
 0.418000, 156.78, 63.967003 
 0.421000, 155.67, 62.546997 
 0.419000, 156.41, 64.816002 
 0.420000, 156.04, 61.898003 
 0.425000, 154.20, 62.685001 
 0.423000, 154.93, 60.919998 
11
 0.611000, 107.26, 63.410004 
 0.608000, 107.79, 61.936996 
 0.609000, 107.61, 63.180000 
 0.608000, 107.79, 61.688999 
 0.608000, 107.79, 63.211998 
 0.609000, 107.61, 62.138000 
 0.609000, 107.61, 63.792000 
 0.609000, 107.61, 62.164997 
 0.611000, 107.26, 62.962002 
 0.608000, 107.79, 61.424999 
15
 1.098000, 59.69, 63.918999 
 1.100000, 59.58, 62.159000 
 1.099000, 59.63, 64.133003 
 1.101000, 59.52, 62.584999 
 1.102000, 59.47, 63.222996 
 1.100000, 59.58, 62.341003 
 1.104000, 59.36, 63.730999 
 1.105000, 59.31, 63.330997 
 1.098000, 59.69, 64.794998 
 1.100000, 59.58, 62.612003 
2
3
 0.083000, 789.59, 64.955002 
 0.082000, 799.22, 63.743999 
 0.083000, 789.59, 64.627998 
 0.083000, 789.59, 62.730000 
 0.083000, 789.59, 64.348999 
 0.082000, 799.22, 63.151001 
 0.083000, 789.59, 65.515999 
 0.082000, 799.22, 63.600998 
 0.082000, 799.22, 64.679001 
 0.082000, 799.22, 62.583000 


data/Experiment/2bird2.pgm
0
3
 0.222000, 1013.51, 71.092003 
 0.221000, 1018.10, 69.145996 
 0.227000, 991.19, 70.328003 
 0.221000, 1018.10, 68.726997 
 0.223000, 1008.97, 70.919998 
 0.221000, 1018.10, 68.264999 
 0.233000, 965.67, 70.841995 
 0.221000, 1018.10, 68.859001 
 0.222000, 1013.51, 70.660004 
 0.222000, 1013.51, 68.448997 
9
 1.501000, 149.90, 70.669998 
 1.503000, 149.70, 69.304001 
 1.462000, 153.90, 69.275002 
 1.361000, 165.32, 69.766998 
 1.364000, 164.96, 70.558998 
 1.368000, 164.47, 69.626999 
 1.547000, 145.44, 69.660004 
 1.366000, 164.71, 68.972000 
 1.360000, 165.44, 69.255997 
 1.364000, 164.96, 70.457001 
11
 2.002000, 112.39, 69.874001 
 2.004000, 112.28, 68.543999 
 2.036000, 110.51, 71.928993 
 2.002000, 112.39, 95.779999 
 2.005000, 112.22, 70.200005 
 2.003000, 112.33, 70.370003 
 2.005000, 112.22, 68.274002 
 2.007000, 112.11, 69.623001 
 2.005000, 112.22, 67.848000 
 2.006000, 112.16, 70.097000 
15
 3.660000, 61.48, 69.542999 
 3.661000, 61.46, 69.958000 
 3.660000, 61.48, 68.607994 
 3.664000, 61.41, 70.233002 
 3.662000, 61.44, 68.690994 
 3.661000, 61.46, 71.167000 
 3.661000, 61.46, 68.411995 
 3.759000, 59.86, 70.168999 
 3.721000, 60.47, 69.564003 
 3.660000, 61.48, 68.057999 
1
3
 0.224000, 1004.46, 70.404999 
 0.223000, 1008.97, 70.500000 
 0.222000, 1013.51, 68.948997 
 0.222000, 1013.51, 70.428001 
 0.221000, 1018.10, 68.426003 
 0.223000, 1008.97, 69.858002 
 0.224000, 1004.46, 68.423004 
 0.223000, 1008.97, 69.197998 
 0.222000, 1013.51, 68.772003 
 0.223000, 1008.97, 71.050003 
9
 1.360000, 165.44, 69.053001 
 1.361000, 165.32, 70.717003 
 1.366000, 164.71, 69.079002 
 1.386000, 162.34, 99.853996 
 1.361000, 165.32, 70.014999 
 1.365000, 164.84, 68.367004 
 1.369000, 164.35, 68.445999 
 1.366000, 164.71, 68.019005 
 1.363000, 165.08, 68.334000 
 1.385000, 162.45, 68.570999 
11
 2.004000, 112.28, 67.702003 
 2.145000, 104.90, 69.245003 
 2.004000, 112.28, 67.584000 
 2.006000, 112.16, 69.681000 
 2.000000, 112.50, 67.927002 
 2.005000, 112.22, 68.973999 
 2.006000, 112.16, 67.312004 
 2.005000, 112.22, 69.619003 
 2.185000, 102.97, 69.230003 
 2.049000, 109.81, 70.135994 
15
 3.661000, 61.46, 69.046997 
 3.662000, 61.44, 70.917000 
 3.665000, 61.39, 69.460999 
 3.659000, 61.49, 70.505005 
 3.658000, 61.51, 68.542000 
 3.837000, 58.64, 70.835999 
 3.661000, 61.46, 68.228996 
 3.664000, 61.41, 69.567001 
 3.664000, 61.41, 68.314995 
 3.665000, 61.39, 69.928001 
2
3
 0.221000, 1018.10, 68.721001 
 0.222000, 1013.51, 69.899002 
 0.222000, 1013.51, 68.148003 
 0.222000, 1013.51, 99.900002 
 0.222000, 1013.51, 70.817001 
 0.222000, 1013.51, 69.300003 
 0.221000, 1018.10, 69.431000 
 0.221000, 1018.10, 68.937996 
 0.221000, 1018.10, 68.401001 
 0.221000, 1018.10, 70.052002 


data/Experiment/3lena_bw.pgm
0
3
 0.257000, 1020.02, 71.534996 
 0.257000, 1020.02, 71.767998 
 0.257000, 1020.02, 68.954994 
 0.257000, 1020.02, 71.153000 
 0.258000, 1016.06, 69.181999 
 0.258000, 1016.06, 72.212997 
 0.257000, 1020.02, 70.296997 
 0.262000, 1000.55, 72.532997 
 0.257000, 1020.02, 69.770996 
 0.259000, 1012.14, 72.148994 
9
 1.605000, 163.33, 70.129997 
 1.741000, 150.57, 71.223000 
 1.602000, 163.64, 71.914001 
 1.724000, 152.06, 72.069000 
 1.601000, 163.74, 69.885002 
 1.708000, 153.48, 71.234001 
 1.604000, 163.43, 68.909004 
 1.602000, 163.64, 70.770004 
 1.739000, 150.74, 70.946999 
 1.607000, 163.13, 70.762001 
11
 2.359000, 111.13, 70.489998 
 2.489000, 105.32, 70.201004 
 2.361000, 111.03, 70.010002 
 2.459000, 106.61, 71.819000 
 2.358000, 111.17, 68.881996 
 2.356000, 111.27, 70.945000 
 2.356000, 111.27, 92.642998 
 2.462000, 106.48, 71.025002 
 2.365000, 110.84, 70.297005 
 2.361000, 111.03, 69.203003 
15
 4.317000, 60.72, 72.846001 
 4.419000, 59.32, 73.056000 
 4.318000, 60.71, 71.821999 
 4.467000, 58.68, 70.934998 
 4.314000, 60.77, 72.444000 
 5.091000, 51.49, 70.357994 
 5.109000, 51.31, 71.683998 
 4.312000, 60.79, 70.554001 
 4.314000, 60.77, 71.568001 
 4.314000, 60.77, 69.799995 
1
3
 0.255000, 1028.02, 69.987999 
 0.257000, 1020.02, 69.647995 
 0.256000, 1024.00, 71.064003 
 0.256000, 1024.00, 69.415001 
 0.259000, 1012.14, 71.668999 
 0.256000, 1024.00, 70.107002 
 0.257000, 1020.02, 71.936996 
 0.257000, 1020.02, 70.289993 
 0.258000, 1016.06, 71.927994 
 0.257000, 1020.02, 69.939995 
9
 1.604000, 163.43, 71.543007 
 1.613000, 162.52, 71.862999 
 1.605000, 163.33, 71.167000 
 1.741000, 150.57, 73.532005 
 1.607000, 163.13, 74.042000 
 1.751000, 149.71, 70.608002 
 1.604000, 163.43, 72.483002 
 1.604000, 163.43, 72.106003 
 1.706000, 153.66, 72.262001 
 1.603000, 163.53, 71.481003 
11
 2.463000, 106.43, 73.359001 
 2.362000, 110.98, 70.306000 
 2.360000, 111.08, 71.392998 
 2.359000, 111.13, 69.834000 
 2.361000, 111.03, 70.716003 
 2.358000, 111.17, 71.785995 
 2.359000, 111.13, 71.171997 
 2.360000, 111.08, 69.603996 
 2.356000, 111.27, 70.587997 
 2.360000, 111.08, 69.596001 
15
 4.312000, 60.79, 72.193001 
 4.319000, 60.70, 73.292999 
 4.318000, 60.71, 72.140999 
 5.050000, 51.91, 71.576996 
 4.315000, 60.75, 72.446999 
 4.317000, 60.72, 69.880997 
 4.323000, 60.64, 73.034004 
 4.426000, 59.23, 71.430000 
 4.321000, 60.67, 71.200005 
 4.317000, 60.72, 71.131996 
2
3
 0.258000, 1016.06, 73.222000 
 0.256000, 1024.00, 70.438004 
 0.257000, 1020.02, 71.410995 
 0.259000, 1012.14, 69.187996 
 0.259000, 1012.14, 70.445000 
 0.257000, 1020.02, 70.070999 
 0.258000, 1016.06, 92.280998 
 0.264000, 992.97, 71.597000 
 0.257000, 1020.02, 69.682999 
 0.258000, 1016.06, 70.737999 


data/Experiment/4zelda2.pgm
0
3
 0.389000, 1066.12, 75.795998 
 0.390000, 1063.38, 75.831001 
 0.389000, 1066.12, 76.582001 
 0.389000, 1066.12, 75.857002 
 0.390000, 1063.38, 76.150002 
 0.390000, 1063.38, 76.697998 
 0.389000, 1066.12, 76.008003 
 0.390000, 1063.38, 75.434998 
 0.402000, 1031.64, 76.355003 
 0.390000, 1063.38, 77.184998 
9
 2.523000, 164.38, 76.552994 
 2.515000, 164.90, 76.359001 
 2.522000, 164.44, 76.285995 
 2.525000, 164.25, 76.932999 
 3.089000, 134.26, 76.277000 
 2.492000, 166.42, 75.854004 
 2.529000, 163.99, 76.661003 
 3.120000, 132.92, 75.827995 
 2.525000, 164.25, 76.603996 
 2.497000, 166.09, 75.778000 
11
 3.936000, 105.37, 78.027000 
 4.443000, 93.34, 76.192001 
 3.668000, 113.06, 77.244003 
 4.513000, 91.89, 76.215996 
 3.667000, 113.10, 77.382004 
 3.704000, 111.97, 76.621994 
 4.575000, 90.65, 76.842003 
 3.668000, 113.06, 77.790001 
 3.670000, 113.00, 77.057999 
 3.670000, 113.00, 99.292999 
15
 7.856000, 52.79, 77.115997 
 6.903000, 60.08, 76.740997 
 6.728000, 61.64, 78.387001 
 10.457000, 39.66, 77.322998 
 11.130000, 37.26, 85.176003 
 8.283000, 50.07, 79.292000 
 6.725000, 61.67, 78.461998 
 6.827000, 60.75, 75.619995 
 7.554000, 54.90, 76.146996 
 6.906000, 60.05, 76.793999 
1
3
 0.389000, 1066.12, 77.668999 
 0.389000, 1066.12, 76.952003 
 0.390000, 1063.38, 76.390999 
 0.389000, 1066.12, 78.168999 
 0.392000, 1057.96, 86.942001 
 0.392000, 1057.96, 79.768005 
 0.390000, 1063.38, 77.355003 
 0.389000, 1066.12, 76.947998 
 0.390000, 1063.38, 78.723000 
 0.389000, 1066.12, 76.183998 
9
 2.525000, 164.25, 76.921997 
 3.085000, 134.43, 78.115997 
 2.523000, 164.38, 76.223999 
 2.525000, 164.25, 76.665001 
 3.110000, 133.35, 76.209999 
 2.529000, 163.99, 76.004997 
 2.522000, 164.44, 76.055000 
 3.077000, 134.78, 76.972000 
 2.526000, 164.18, 76.334999 
 2.499000, 165.95, 77.724998 
11
 3.672000, 112.94, 90.010002 
 4.490000, 92.37, 78.401001 
 3.772000, 109.95, 79.019997 
 4.512000, 91.91, 75.735001 
 4.431000, 93.60, 75.611000 
 3.812000, 108.79, 76.906006 
 4.433000, 93.55, 77.090004 
 3.677000, 112.79, 77.778999 
 3.669000, 113.03, 76.931999 
 4.448000, 93.24, 75.806999 
15
 6.903000, 60.08, 76.625999 
 7.636000, 54.31, 76.737999 
 6.896000, 60.14, 77.395996 
 7.557000, 54.88, 75.885002 
 6.716000, 61.75, 76.650993 
 6.900000, 60.10, 77.043999 
 7.919000, 52.37, 76.751999 
 6.898000, 60.12, 75.722000 
 7.533000, 55.05, 75.899002 
 6.907000, 60.04, 75.528000 
2
3
 0.390000, 1063.38, 77.330002 
 0.389000, 1066.12, 76.278000 
 0.389000, 1066.12, 77.509003 
 0.389000, 1066.12, 75.430000 
 0.390000, 1063.38, 76.487999 
 0.390000, 1063.38, 76.046997 
 0.391000, 1060.66, 77.565002 
 0.389000, 1066.12, 100.029999 
 0.390000, 1063.38, 77.052002 
 0.391000, 1060.66, 77.222000 


data/Experiment/5ultrasound.pgm
0
3
 0.496000, 1077.25, 81.057999 
 0.498000, 1072.92, 81.416000 
 0.497000, 1075.08, 80.200996 
 0.498000, 1072.92, 80.211998 
 0.496000, 1077.25, 79.175995 
 0.495000, 1079.42, 79.056999 
 0.496000, 1077.25, 78.892998 
 0.499000, 1070.77, 80.509003 
 0.495000, 1079.42, 80.384995 
 0.496000, 1077.25, 80.255997 
9
 3.216000, 166.14, 78.761993 
 3.812000, 140.17, 79.891006 
 3.325000, 160.70, 79.375000 
 3.826000, 139.65, 79.563004 
 3.465000, 154.20, 82.659004 
 3.219000, 165.99, 79.737000 
 3.814000, 140.09, 79.479996 
 3.223000, 165.78, 80.449997 
 3.814000, 140.09, 80.614998 
 3.318000, 161.04, 80.634003 
11
 5.518000, 96.83, 80.087006 
 4.743000, 112.65, 80.475998 
 4.744000, 112.63, 103.087997 
 4.980000, 107.29, 83.191994 
 4.853000, 110.10, 83.661003 
 4.845000, 110.28, 82.978996 
 4.741000, 112.70, 81.797005 
 5.483000, 97.45, 80.597000 
 5.698000, 93.77, 84.154999 
 4.849000, 110.19, 78.607002 
15
 9.669000, 55.26, 80.388000 
 8.689000, 61.49, 80.033997 
 9.516000, 56.15, 80.749001 
 10.870000, 49.16, 96.474998 
 10.873000, 49.14, 85.462997 
 8.933000, 59.81, 83.584000 
 10.170000, 52.54, 84.474998 
 10.014000, 53.36, 81.846001 
 8.691000, 61.48, 82.050995 
 8.800000, 60.72, 80.553993 
1
3
 0.496000, 1077.25, 80.351997 
 0.497000, 1075.08, 80.666000 
 0.497000, 1075.08, 81.396996 
 0.495000, 1079.42, 81.513000 
 0.496000, 1077.25, 103.056999 
 0.501000, 1066.50, 80.389999 
 0.496000, 1077.25, 80.499001 
 0.498000, 1072.92, 80.018997 
 0.495000, 1079.42, 78.449997 
 0.496000, 1077.25, 80.307999 
9
 3.215000, 166.19, 81.558006 
 3.218000, 166.04, 80.104996 
 3.812000, 140.17, 79.416000 
 3.241000, 164.86, 79.519005 
 3.792000, 140.91, 78.977997 
 3.224000, 165.73, 80.075005 
 3.835000, 139.33, 79.150002 
 3.220000, 165.94, 80.239998 
 3.812000, 140.17, 79.376007 
 3.320000, 160.94, 80.209999 
11
 5.518000, 96.83, 79.855003 
 4.738000, 112.77, 81.015999 
 4.845000, 110.28, 81.266998 
 4.742000, 112.68, 80.233002 
 5.404000, 98.87, 87.830002 
 5.512000, 96.94, 79.241997 
 4.852000, 110.12, 100.769005 
 4.747000, 112.56, 80.104996 
 4.751000, 112.46, 81.114998 
 4.878000, 109.54, 80.002998 
15
 8.805000, 60.68, 80.816002 
 8.797000, 60.74, 80.351006 
 8.767000, 60.95, 81.826004 
 9.416000, 56.75, 80.113998 
 8.689000, 61.49, 82.102997 
 9.504000, 56.22, 79.305000 
 8.684000, 61.53, 82.331001 
 8.701000, 61.41, 79.820999 
 8.692000, 61.47, 81.889999 
 8.805000, 60.68, 81.212997 
2
3
 0.498000, 1072.92, 81.589996 
 0.499000, 1070.77, 80.636002 
 0.496000, 1077.25, 82.137001 
 0.495000, 1079.42, 79.848999 
 0.495000, 1079.42, 79.986000 
 0.498000, 1072.92, 79.581001 
 0.505000, 1058.05, 79.084000 
 0.496000, 1077.25, 79.763000 
 0.497000, 1075.08, 104.805000 
 0.497000, 1075.08, 81.945000 


data/Experiment/6shoulderCR.pgm
0
3
 0.728000, 1091.77, 91.823006 
 0.726000, 1094.78, 91.012001 
 0.726000, 1094.78, 90.262001 
 0.727000, 1093.27, 89.139000 
 0.726000, 1094.78, 89.723999 
 0.729000, 1090.27, 89.739006 
 0.727000, 1093.27, 90.118004 
 0.728000, 1091.77, 89.981003 
 0.725000, 1096.29, 88.945000 
 0.725000, 1096.29, 89.445999 
9
 4.770000, 166.63, 89.249001 
 4.880000, 162.87, 91.324005 
 4.779000, 166.31, 88.342003 
 4.771000, 166.59, 89.276993 
 4.770000, 166.63, 89.135002 
 4.771000, 166.59, 88.996994 
 4.767000, 166.73, 88.272003 
 4.898000, 162.27, 88.096001 
 4.881000, 162.84, 88.324005 
 4.880000, 162.87, 88.142006 
11
 7.037000, 112.95, 89.501999 
 7.031000, 113.04, 110.547005 
 8.381000, 94.83, 88.170006 
 7.043000, 112.85, 96.663002 
 7.873000, 100.95, 88.511002 
 7.038000, 112.93, 89.070999 
 7.244000, 109.72, 89.397995 
 7.033000, 113.01, 89.370003 
 7.044000, 112.83, 89.272003 
 7.138000, 111.35, 88.760002 
15
 13.004000, 61.12, 88.813004 
 14.098000, 56.38, 88.361000 
 13.274000, 59.88, 88.140999 
 13.110000, 60.63, 87.473000 
 13.273000, 59.88, 87.227997 
 13.006000, 61.11, 87.753006 
 13.199000, 60.22, 90.356003 
 13.013000, 61.08, 87.367996 
 13.004000, 61.12, 89.528000 
 13.122000, 60.57, 89.181999 
1
3
 0.726000, 1094.78, 90.015999 
 0.725000, 1096.29, 89.718002 
 0.726000, 1094.78, 88.663002 
 0.725000, 1096.29, 111.313004 
 0.729000, 1090.27, 88.284004 
 0.727000, 1093.27, 89.106003 
 0.727000, 1093.27, 88.295006 
 0.725000, 1096.29, 89.070999 
 0.728000, 1091.77, 88.048004 
 0.725000, 1096.29, 88.063004 
9
 4.874000, 163.07, 89.661003 
 4.771000, 166.59, 87.837006 
 4.773000, 166.52, 88.843994 
 4.771000, 166.59, 88.132996 
 4.775000, 166.45, 88.929001 
 4.769000, 166.66, 88.827003 
 4.880000, 162.87, 88.507004 
 4.877000, 162.97, 89.097000 
 4.784000, 166.14, 88.800003 
 4.775000, 166.45, 89.081001 
11
 7.135000, 111.40, 88.544998 
 7.248000, 109.66, 89.447998 
 7.138000, 111.35, 88.043999 
 8.183000, 97.13, 88.557999 
 7.040000, 112.90, 88.261002 
 7.142000, 111.29, 111.199005 
 7.730000, 102.82, 88.767998 
 7.139000, 111.33, 88.411003 
 7.048000, 112.77, 87.838005 
 7.039000, 112.91, 88.436996 
15
 13.925000, 57.08, 88.223000 
 13.006000, 61.11, 87.782005 
 13.140000, 60.49, 89.876999 
 13.700000, 58.02, 88.183006 
 13.011000, 61.09, 88.742996 
 13.103000, 60.66, 88.360001 
 13.006000, 61.11, 89.003006 
 13.040000, 60.95, 88.140999 
 13.996000, 56.79, 88.615997 
 13.012000, 61.08, 88.220001 
2
3
 0.725000, 1096.29, 89.697998 
 0.725000, 1096.29, 90.094002 
 0.726000, 1094.78, 88.430000 
 0.726000, 1094.78, 88.417999 
 0.725000, 1096.29, 88.922005 
 0.726000, 1094.78, 88.430000 
 0.736000, 1079.90, 89.694000 
 0.730000, 1088.78, 89.280998 
 0.725000, 1096.29, 89.438004 
 0.726000, 1094.78, 87.929001 


data/Experiment/7airplaneU2.pgm
0
3
 0.946000, 1108.43, 95.650002 
 0.948000, 1106.09, 95.866005 
 0.947000, 1107.26, 96.003998 
 0.958000, 1094.55, 97.585999 
 0.960000, 1092.27, 97.348000 
 0.948000, 1106.09, 96.223000 
 0.956000, 1096.84, 96.858002 
 0.948000, 1106.09, 96.014999 
 0.948000, 1106.09, 96.585999 
 0.951000, 1102.60, 98.109001 
9
 7.484000, 140.11, 96.309998 
 6.376000, 164.46, 95.711998 
 7.035000, 149.05, 97.007996 
 6.379000, 164.38, 98.466003 
 6.267000, 167.32, 97.318001 
 6.405000, 163.71, 96.285004 
 6.473000, 161.99, 116.835999 
 6.374000, 164.51, 97.036003 
 6.396000, 163.94, 97.459000 
 6.376000, 164.46, 95.177002 
11
 10.209000, 102.71, 97.500999 
 10.311000, 101.69, 96.242004 
 10.220000, 102.60, 95.612000 
 10.714000, 97.87, 103.777000 
 11.574000, 90.60, 102.495003 
 10.425000, 100.58, 115.042999 
 10.592000, 99.00, 99.507996 
 9.955000, 105.33, 99.286995 
 10.456000, 100.28, 102.066002 
 9.251000, 113.35, 101.382004 
15
 18.339001, 57.18, 108.343002 
 17.947001, 58.43, 97.415001 
 18.546000, 56.54, 125.390007 
 19.464001, 53.87, 99.764999 
 18.955000, 55.32, 100.424995 
 17.940001, 58.45, 97.880997 
 18.231001, 57.52, 119.270004 
 18.153999, 57.76, 103.498001 
 18.441999, 56.86, 103.700996 
 18.009001, 58.23, 99.319000 
1
3
 0.947000, 1107.26, 97.558998 
 0.949000, 1104.93, 98.443001 
 0.954000, 1099.14, 97.698997 
 0.955000, 1097.99, 97.547997 
 0.955000, 1097.99, 100.808998 
 0.948000, 1106.09, 96.411003 
 0.954000, 1099.14, 107.034996 
 0.949000, 1104.93, 98.802002 
 0.956000, 1096.84, 97.172997 
 0.957000, 1095.69, 95.612000 
9
 6.395000, 163.97, 96.902000 
 6.360000, 164.87, 98.710999 
 7.505000, 139.72, 97.524002 
 6.505000, 161.20, 96.556999 
 6.692000, 156.69, 112.867996 
 6.401000, 163.81, 154.375992 
 7.037000, 149.01, 97.737000 
 6.364000, 164.77, 95.919998 
 7.142000, 146.82, 95.907005 
 6.496000, 161.42, 96.315994 
11
 9.337000, 112.30, 95.959000 
 10.373000, 101.09, 101.797997 
 9.389000, 111.68, 97.649002 
 9.487000, 110.53, 101.516998 
 9.976000, 105.11, 98.126999 
 10.157000, 103.24, 98.135002 
 10.113000, 103.69, 97.112999 
 10.094000, 103.88, 98.487999 
 10.062000, 104.21, 96.934998 
 10.059000, 104.24, 96.964005 
15
 18.063000, 58.05, 98.455002 
 18.584999, 56.42, 96.492004 
 18.226999, 57.53, 98.459000 
 17.138000, 61.18, 96.686996 
 17.474001, 60.01, 97.139999 
 18.235001, 57.50, 136.192993 
 17.238001, 60.83, 96.419998 
 18.327999, 57.21, 95.561005 
 17.908001, 58.55, 95.186996 
 18.155001, 57.76, 96.396004 
2
3
 0.951000, 1102.60, 98.650002 
 0.948000, 1106.09, 96.228004 
 0.949000, 1104.93, 97.871002 
 0.952000, 1101.45, 100.969994 
 0.948000, 1106.09, 96.746002 
 0.952000, 1101.45, 97.755997 
 0.948000, 1106.09, 95.401001 
 0.949000, 1104.93, 98.166000 
 0.948000, 1106.09, 96.585999 
 0.949000, 1104.93, 95.417000 


data/Experiment/8bone_scint.pgm
0
3
 1.875000, 1122.98, 129.561996 
 2.040000, 1032.15, 128.014999 
 1.876000, 1122.38, 129.046997 
 1.877000, 1121.78, 129.395004 
 1.878000, 1121.18, 164.147995 
 1.876000, 1122.38, 128.472992 
 2.327000, 904.85, 129.208008 
 1.883000, 1118.21, 127.969002 
 1.978000, 1064.50, 129.984009 
 1.878000, 1121.18, 130.433990 
9
 13.446000, 156.60, 128.684998 
 13.418000, 156.92, 131.227005 
 13.155000, 160.06, 132.300995 
 12.684000, 166.00, 133.459991 
 12.675000, 166.12, 129.371002 
 13.783000, 152.77, 148.640991 
 13.609000, 154.72, 131.434006 
 14.256000, 147.70, 145.792007 
 12.662000, 166.29, 149.222992 
 12.570000, 167.51, 128.329987 
11
 20.422001, 103.10, 142.330002 
 20.632999, 102.05, 130.621002 
 20.372999, 103.35, 194.401001 
 18.775000, 112.15, 136.883011 
 19.653999, 107.13, 140.128998 
 19.603001, 107.41, 136.587006 
 18.740999, 112.35, 137.486008 
 20.368000, 103.38, 165.189011 
 19.820000, 106.24, 133.670013 
 18.683001, 112.70, 133.203003 
15
 34.950001, 60.25, 130.434998 
 34.146999, 61.66, 134.351990 
 36.827000, 57.18, 155.042007 
 34.023998, 61.89, 139.143997 
 34.151001, 61.66, 133.147995 
 35.653999, 59.06, 136.882996 
 34.157001, 61.64, 131.960007 
 34.160000, 61.64, 133.863998 
 34.147999, 61.66, 134.899002 
 34.214001, 61.54, 132.933990 
1
3
 2.292000, 918.67, 132.667999 
 1.888000, 1115.25, 133.464005 
 1.880000, 1119.99, 132.052002 
 1.980000, 1063.43, 130.319000 
 1.877000, 1121.78, 130.227997 
 1.876000, 1122.38, 130.228989 
 1.879000, 1120.59, 155.708008 
 1.880000, 1119.99, 154.877991 
 1.875000, 1122.98, 134.369003 
 1.877000, 1121.78, 135.177994 
9
 12.691000, 165.91, 130.822006 
 13.390000, 157.25, 132.865005 
 12.675000, 166.12, 133.382004 
 12.668000, 166.21, 130.742996 
 12.685000, 165.99, 129.432007 
 12.677000, 166.09, 131.503998 
 13.279000, 158.57, 154.774994 
 12.565000, 167.58, 128.444000 
 12.671000, 166.17, 130.114990 
 12.672000, 166.16, 130.916000 
11
 18.652000, 112.89, 159.675995 
 18.541000, 113.56, 134.660995 
 18.641001, 112.95, 131.832993 
 18.656000, 112.86, 129.067001 
 18.641001, 112.95, 128.836990 
 19.392000, 108.58, 129.281998 
 18.686001, 112.68, 131.006989 
 18.639000, 112.97, 129.550995 
 19.243999, 109.42, 133.371994 
 18.546000, 113.53, 137.740997 
15
 34.035999, 61.86, 133.921997 
 34.123001, 61.71, 132.858002 
 34.915001, 60.31, 130.338989 
 34.141998, 61.67, 130.248001 
 34.933998, 60.27, 155.636017 
 34.033001, 61.87, 131.830002 
 34.152000, 61.65, 128.529999 
 35.027000, 60.11, 129.372986 
 34.806999, 60.49, 130.442993 
 34.202000, 61.56, 137.529999 
2
3
 1.878000, 1121.18, 129.698990 
 1.979000, 1063.96, 131.828995 
 1.878000, 1121.18, 129.087997 
 1.975000, 1066.12, 130.936996 
 1.875000, 1122.98, 129.684998 
 1.881000, 1119.40, 128.516006 
 2.024000, 1040.31, 128.535995 
 1.877000, 1121.78, 130.076004 
 1.876000, 1122.38, 153.550995 
 1.877000, 1121.78, 131.072006 


data/Experiment/9blackhole.pgm
0
3
 3.807000, 1134.75, 197.273987 
 3.809000, 1134.16, 199.205994 
 3.809000, 1134.16, 196.840988 
 3.976000, 1086.52, 210.294998 
 3.908000, 1105.42, 199.688995 
 3.813000, 1132.97, 193.261002 
 3.813000, 1132.97, 197.765991 
 3.963000, 1090.08, 195.751999 
 3.813000, 1132.97, 201.565002 
 3.813000, 1132.97, 203.169998 
9
 26.747000, 161.51, 195.460999 
 25.851999, 167.11, 200.616989 
 26.733000, 161.60, 196.244995 
 25.851999, 167.11, 224.414001 
 27.319000, 158.13, 195.942001 
 26.451000, 163.32, 197.019989 
 26.587999, 162.48, 197.419006 
 26.417999, 163.52, 198.714996 
 26.443001, 163.37, 194.846985 
 25.740999, 167.83, 195.298996 
11
 38.966999, 110.86, 198.274002 
 38.106998, 113.36, 199.368011 
 38.083000, 113.44, 199.574005 
 37.990002, 113.71, 198.358002 
 38.889999, 111.08, 195.391006 
 38.105000, 113.37, 199.190002 
 38.081001, 113.44, 195.964996 
 37.970001, 113.77, 198.151001 
 38.070999, 113.47, 195.124008 
 38.715000, 111.58, 193.839996 
15
 71.780998, 60.18, 194.395996 
 69.720001, 61.96, 193.277008 
 69.744003, 61.94, 196.871994 
 70.484001, 61.29, 197.368988 
 69.685997, 61.99, 239.100983 
 71.713997, 60.24, 195.602997 
 69.828003, 61.87, 194.906006 
 70.481003, 61.29, 204.195999 
 72.592003, 59.51, 197.882996 
 69.709999, 61.97, 196.804016 
1
3
 3.811000, 1133.56, 194.419998 
 3.814000, 1132.67, 194.154999 
 3.813000, 1132.97, 192.352997 
 3.812000, 1133.26, 193.298004 
 3.811000, 1133.56, 195.955994 
 3.811000, 1133.56, 195.054993 
 4.377000, 986.98, 195.128998 
 3.811000, 1133.56, 194.535995 
 4.417000, 978.04, 231.500000 
 3.908000, 1105.42, 196.016998 
9
 26.563000, 162.63, 197.767990 
 25.740999, 167.83, 193.143997 
 25.739000, 167.84, 194.253006 
 25.738001, 167.85, 194.164993 
 25.823000, 167.29, 200.955002 
 26.466999, 163.22, 194.896011 
 25.747000, 167.79, 194.304001 
 26.434000, 163.43, 194.550995 
 26.455000, 163.30, 194.938004 
 25.735001, 167.86, 195.419006 
11
 39.131001, 110.40, 194.162003 
 37.973999, 113.76, 195.014999 
 37.988998, 113.72, 222.775009 
 39.782001, 108.59, 194.291000 
 37.979000, 113.75, 194.498993 
 38.740002, 111.51, 195.026001 
 38.074001, 113.46, 194.730988 
 37.980000, 113.74, 193.919998 
 37.986000, 113.73, 195.300995 
 38.717999, 111.58, 194.641998 
15
 71.799004, 60.17, 194.770996 
 69.697998, 61.98, 196.212006 
 69.720001, 61.96, 194.345001 
 70.514000, 61.26, 196.983978 
 69.728996, 61.95, 192.770996 
 70.457001, 61.31, 194.813995 
 69.706001, 61.97, 244.106995 
 72.615997, 59.49, 194.645996 
 69.745003, 61.94, 198.010010 
 69.695999, 61.98, 193.169998 
2
3
 3.814000, 1132.67, 199.384003 
 3.812000, 1133.26, 194.860001 
 4.401000, 981.60, 193.598999 
 3.810000, 1133.86, 198.798996 
 4.414000, 978.70, 201.112000 
 3.824000, 1129.71, 204.667999 
 4.401000, 981.60, 216.996002 
 3.918000, 1102.60, 209.895004 
 3.814000, 1132.67, 200.755005 
 3.817000, 1131.78, 204.725006 


data/Experiment/z10_skull.pgm
0
3
 5.848000, 1111.03, 269.921021 
 5.719000, 1136.09, 264.908997 
 5.717000, 1136.48, 273.000000 
 5.728000, 1134.30, 279.505005 
 6.865000, 946.44, 283.207001 
 5.720000, 1135.89, 312.872009 
 5.722000, 1135.49, 275.856995 
 5.721000, 1135.69, 283.811005 
 5.814000, 1117.52, 304.110992 
 6.216000, 1045.25, 290.704987 
9
 42.056999, 154.49, 274.362000 
 38.667000, 168.03, 287.141998 
 38.688000, 167.94, 273.200012 
 38.676998, 167.99, 262.890991 
 38.702999, 167.88, 268.682983 
 41.465000, 156.69, 287.401001 
 38.695999, 167.91, 266.401978 
 38.701000, 167.88, 261.306000 
 40.429001, 160.71, 267.354004 
 38.696999, 167.90, 263.951019 
11
 58.291000, 111.46, 267.883972 
 57.136002, 113.72, 264.559021 
 57.132000, 113.72, 268.503021 
 58.959000, 110.20, 261.681030 
 57.119999, 113.75, 260.042999 
 58.098000, 111.83, 264.550995 
 57.085999, 113.82, 267.897003 
 57.090000, 113.81, 265.466003 
 63.369999, 102.53, 278.074005 
 57.134998, 113.72, 264.563995 
15
 107.573997, 60.40, 267.298981 
 107.653000, 60.35, 271.395020 
 91.850998, 70.74, 264.533997 
 93.889999, 69.20, 262.859985 
 92.817001, 70.00, 264.062988 
 93.121002, 69.77, 278.389008 
 93.443001, 69.53, 262.466003 
 91.929001, 70.68, 384.348999 
 94.399002, 68.83, 260.583984 
 93.891998, 69.20, 263.951996 
1
3
 5.717000, 1136.48, 264.802002 
 5.010000, 1296.86, 264.970001 
 5.708000, 1138.28, 261.031982 
 5.014000, 1295.83, 261.036987 
 5.014000, 1295.83, 264.061981 
 5.100000, 1273.98, 260.723999 
 5.016000, 1295.31, 265.316010 
 5.014000, 1295.83, 265.764008 
 5.820000, 1116.37, 265.173004 
 5.821000, 1116.18, 311.195984 
9
 38.708000, 167.85, 264.132996 
 39.747002, 163.47, 263.802979 
 38.907001, 167.00, 261.629974 
 40.619999, 159.95, 262.811005 
 38.722000, 167.79, 263.484009 
 38.905998, 167.00, 262.890991 
 38.825001, 167.35, 265.751984 
 38.728001, 167.77, 289.303009 
 38.713001, 167.83, 263.250977 
 38.703999, 167.87, 263.113983 
11
 58.008999, 112.00, 265.942993 
 57.243999, 113.50, 264.136017 
 58.310001, 111.43, 261.989990 
 57.104000, 113.78, 260.942993 
 58.240002, 111.56, 261.615021 
 57.119999, 113.75, 265.313019 
 59.832001, 108.59, 264.428986 
 59.553001, 109.10, 263.949005 
 57.127998, 113.73, 265.460999 
 58.123001, 111.79, 265.958008 
15
 107.144997, 60.64, 282.216003 
 104.892998, 61.94, 271.471008 
 98.348000, 66.06, 261.302002 
 91.936996, 70.67, 259.864014 
 94.318001, 68.89, 275.506012 
 91.799004, 70.78, 261.710999 
 93.900002, 69.19, 263.240021 
 93.797997, 69.27, 260.834991 
 91.861000, 70.73, 261.385010 
 93.676003, 69.36, 265.028015 
2
3
 5.230000, 1242.31, 263.259979 
 5.016000, 1295.31, 262.591003 
 5.026000, 1292.73, 261.332001 
 5.014000, 1295.83, 262.014984 
 5.015000, 1295.57, 261.868988 
 5.016000, 1295.31, 261.688019 
 5.016000, 1295.31, 260.539001 
 5.100000, 1273.98, 263.886993 
 5.012000, 1296.34, 263.515015 
 5.681000, 1143.69, 264.937988 


 579.000000, 0.45, 56.687012 
