data/Experiment/1_cameraman.pgm
0
3
 0.061000, 1074.36, 65.651001 
 0.060000, 1092.27, 68.206001 
 0.060000, 1092.27, 66.213005 
 0.060000, 1092.27, 64.593002 
 0.070000, 936.23, 64.692001 
 0.059000, 1110.78, 64.269005 
 0.060000, 1092.27, 64.632004 
 0.059000, 1110.78, 64.118004 
 0.064000, 1024.00, 64.995995 
 0.060000, 1092.27, 63.931000 
9
 0.173000, 378.82, 64.324005 
 0.174000, 376.64, 64.970993 
 0.174000, 376.64, 63.338001 
 0.180000, 364.09, 64.355003 
 0.174000, 376.64, 63.184002 
 0.174000, 376.64, 63.961002 
 0.174000, 376.64, 64.473000 
 0.175000, 374.49, 64.768997 
 0.173000, 378.82, 64.632004 
 0.173000, 378.82, 63.703999 
11
 0.242000, 270.81, 64.840004 
 0.242000, 270.81, 64.021004 
 0.241000, 271.93, 64.742004 
 0.243000, 269.70, 64.797005 
 0.246000, 266.41, 64.256996 
 0.250000, 262.14, 67.244003 
 0.245000, 267.49, 64.688995 
 0.243000, 269.70, 64.286003 
 0.245000, 267.49, 64.561996 
 0.246000, 266.41, 64.130997 
15
 0.405000, 161.82, 64.228004 
 0.406000, 161.42, 65.720001 
 0.406000, 161.42, 64.876999 
 0.407000, 161.02, 64.128006 
 0.404000, 162.22, 65.299004 
 0.408000, 160.63, 68.525002 
 0.411000, 159.45, 79.423996 
 0.409000, 160.23, 74.373001 
 0.412000, 159.07, 88.041000 
 0.411000, 159.45, 71.760994 
1
3
 0.061000, 1074.36, 70.813004 
 0.060000, 1092.27, 67.337006 
 0.060000, 1092.27, 68.400002 
 0.061000, 1074.36, 65.248001 
 0.061000, 1074.36, 64.700005 
 0.061000, 1074.36, 64.341003 
 0.079000, 829.57, 65.505997 
 0.060000, 1092.27, 67.153000 
 0.060000, 1092.27, 63.835999 
 0.061000, 1074.36, 71.499001 
9
 0.174000, 376.64, 65.389000 
 0.174000, 376.64, 64.807999 
 0.174000, 376.64, 64.122993 
 0.175000, 374.49, 62.898003 
 0.174000, 376.64, 61.941002 
 0.174000, 376.64, 62.533001 
 0.173000, 378.82, 61.814999 
 0.172000, 381.02, 62.160000 
 0.173000, 378.82, 61.826000 
 0.174000, 376.64, 65.352997 
11
 0.247000, 265.33, 63.726997 
 0.243000, 269.70, 64.309006 
 0.241000, 271.93, 63.403000 
 0.243000, 269.70, 63.290001 
 0.243000, 269.70, 63.035999 
 0.241000, 271.93, 64.078003 
 0.242000, 270.81, 62.855000 
 0.241000, 271.93, 64.603004 
 0.244000, 268.59, 63.139000 
 0.240000, 273.07, 64.693001 
15
 0.406000, 161.42, 62.856003 
 0.404000, 162.22, 64.279999 
 0.408000, 160.63, 64.213005 
 0.405000, 161.82, 64.801003 
 0.401000, 163.43, 64.320000 
 0.407000, 161.02, 65.986000 
 0.406000, 161.42, 66.026001 
 0.407000, 161.02, 68.640999 
 0.405000, 161.82, 77.260002 
 0.404000, 162.22, 66.425003 
2
3
 0.060000, 1092.27, 67.244003 
 0.060000, 1092.27, 66.197006 
 0.074000, 885.62, 66.817001 
 0.061000, 1074.36, 64.790001 
 0.067000, 978.15, 67.160995 
 0.059000, 1110.78, 64.437004 
 0.060000, 1092.27, 65.526001 
 0.062000, 1057.03, 63.931000 
 0.059000, 1110.78, 63.700001 
 0.059000, 1110.78, 63.919003 


data/Experiment/2bird2.pgm
0
3
 0.146000, 1541.10, 71.608994 
 0.154000, 1461.04, 70.256004 
 0.155000, 1451.61, 68.987999 
 0.146000, 1541.10, 70.340996 
 0.147000, 1530.61, 70.597000 
 0.146000, 1541.10, 69.191994 
 0.147000, 1530.61, 71.292000 
 0.145000, 1551.72, 70.636002 
 0.146000, 1541.10, 71.024994 
 0.147000, 1530.61, 70.578995 
9
 0.530000, 424.53, 82.136002 
 0.541000, 415.90, 79.926003 
 0.535000, 420.56, 82.825996 
 0.695000, 323.74, 74.181999 
 0.535000, 420.56, 75.306000 
 0.537000, 418.99, 78.665001 
 0.537000, 418.99, 74.142998 
 0.537000, 418.99, 72.416000 
 0.539000, 417.44, 72.555000 
 0.535000, 420.56, 74.232994 
11
 0.785000, 286.62, 74.290993 
 0.776000, 289.95, 73.057999 
 0.783000, 287.36, 83.005005 
 0.773000, 291.07, 72.529999 
 0.774000, 290.70, 72.123001 
 0.778000, 289.20, 72.675003 
 0.779000, 288.83, 71.911003 
 0.777000, 289.58, 71.277000 
 0.769000, 292.59, 73.389000 
 0.777000, 289.58, 73.003998 
15
 1.340000, 167.91, 72.544006 
 1.341000, 167.79, 72.574997 
 1.356000, 165.93, 71.756996 
 1.353000, 166.30, 71.165001 
 1.598000, 140.80, 74.081001 
 1.343000, 167.54, 71.948997 
 1.346000, 167.16, 77.128998 
 1.351000, 166.54, 74.737999 
 1.480000, 152.03, 74.119995 
 1.343000, 167.54, 72.946999 
1
3
 0.146000, 1541.10, 72.806999 
 0.147000, 1530.61, 73.713997 
 0.146000, 1541.10, 72.047997 
 0.147000, 1530.61, 72.036995 
 0.145000, 1551.72, 70.691002 
 0.147000, 1530.61, 70.422997 
 0.147000, 1530.61, 69.410995 
 0.146000, 1541.10, 71.224998 
 0.146000, 1541.10, 69.397995 
 0.149000, 1510.07, 69.725998 
9
 0.539000, 417.44, 69.475998 
 0.537000, 418.99, 70.938995 
 0.545000, 412.84, 68.707001 
 0.539000, 417.44, 70.210999 
 0.537000, 418.99, 68.258995 
 0.541000, 415.90, 70.281998 
 0.532000, 422.93, 67.467003 
 0.539000, 417.44, 70.450996 
 0.545000, 412.84, 68.130005 
 0.533000, 422.14, 72.394005 
11
 0.777000, 289.58, 70.867996 
 0.855000, 263.16, 73.920998 
 0.777000, 289.58, 74.402000 
 0.782000, 287.72, 74.732002 
 0.776000, 289.95, 73.551003 
 0.774000, 290.70, 74.073997 
 0.777000, 289.58, 68.740997 
 0.766000, 293.73, 69.735001 
 0.776000, 289.95, 70.544998 
 0.778000, 289.20, 70.719002 
15
 1.352000, 166.42, 70.122002 
 1.336000, 168.41, 69.928001 
 1.352000, 166.42, 68.832001 
 1.356000, 165.93, 70.826996 
 1.340000, 167.91, 69.740005 
 1.337000, 168.29, 70.709000 
 1.335000, 168.54, 69.586998 
 1.344000, 167.41, 70.778999 
 1.353000, 166.30, 70.634003 
 1.341000, 167.79, 70.572998 
2
3
 0.147000, 1530.61, 69.507996 
 0.146000, 1541.10, 71.380997 
 0.147000, 1530.61, 69.149994 
 0.147000, 1530.61, 70.625999 
 0.145000, 1551.72, 69.940002 
 0.146000, 1541.10, 70.905998 
 0.146000, 1541.10, 69.404999 
 0.146000, 1541.10, 70.167999 
 0.146000, 1541.10, 69.084000 
 0.147000, 1530.61, 70.354996 


data/Experiment/3lena_bw.pgm
0
3
 0.169000, 1551.15, 71.071999 
 0.167000, 1569.72, 71.206001 
 0.169000, 1551.15, 71.092003 
 0.168000, 1560.38, 72.072998 
 0.167000, 1569.72, 72.459000 
 0.168000, 1560.38, 71.618004 
 0.170000, 1542.02, 72.250000 
 0.169000, 1551.15, 71.387001 
 0.167000, 1569.72, 73.054001 
 0.168000, 1560.38, 71.917000 
9
 0.617000, 424.87, 71.309006 
 0.616000, 425.56, 70.734001 
 0.616000, 425.56, 71.117004 
 0.617000, 424.87, 73.103004 
 0.617000, 424.87, 71.412003 
 0.619000, 423.50, 71.995995 
 0.620000, 422.81, 71.158997 
 0.619000, 423.50, 72.283997 
 0.626000, 418.76, 70.723000 
 0.616000, 425.56, 71.811005 
11
 0.889000, 294.88, 71.512001 
 0.891000, 294.21, 73.511002 
 0.891000, 294.21, 71.039001 
 0.891000, 294.21, 73.779999 
 0.888000, 295.21, 70.940002 
 0.889000, 294.88, 73.726997 
 0.893000, 293.55, 71.639000 
 0.888000, 295.21, 72.957001 
 0.894000, 293.23, 72.491005 
 0.887000, 295.54, 99.417000 
15
 1.532000, 171.11, 72.200005 
 1.534000, 170.89, 71.063004 
 1.532000, 171.11, 72.708000 
 1.535000, 170.78, 72.418999 
 1.543000, 169.89, 72.579002 
 1.535000, 170.78, 70.279999 
 1.557000, 168.36, 72.744003 
 1.532000, 171.11, 72.246002 
 1.639000, 159.94, 71.072998 
 1.635000, 160.33, 72.448997 
1
3
 0.168000, 1560.38, 71.179001 
 0.168000, 1560.38, 71.442001 
 0.167000, 1569.72, 69.536003 
 0.168000, 1560.38, 72.460999 
 0.169000, 1551.15, 71.882004 
 0.168000, 1560.38, 72.694000 
 0.168000, 1560.38, 73.082001 
 0.167000, 1569.72, 71.997002 
 0.169000, 1551.15, 71.230003 
 0.168000, 1560.38, 71.953003 
9
 0.617000, 424.87, 71.481003 
 0.616000, 425.56, 71.878006 
 0.618000, 424.18, 71.779007 
 0.616000, 425.56, 72.223999 
 0.617000, 424.87, 72.740005 
 0.621000, 422.13, 72.136002 
 0.617000, 424.87, 71.661003 
 0.618000, 424.18, 71.094002 
 0.627000, 418.09, 72.470001 
 0.617000, 424.87, 71.727005 
11
 0.890000, 294.54, 72.031998 
 0.885000, 296.21, 72.356995 
 0.890000, 294.54, 70.568001 
 0.888000, 295.21, 71.241997 
 0.887000, 295.54, 70.449997 
 0.888000, 295.21, 71.905998 
 0.896000, 292.57, 71.427994 
 0.887000, 295.54, 71.525002 
 0.889000, 294.88, 71.058998 
 0.892000, 293.88, 71.556999 
15
 1.533000, 171.00, 70.884003 
 1.671000, 156.88, 71.358002 
 1.536000, 170.67, 70.942993 
 1.682000, 155.85, 71.332001 
 1.529000, 171.45, 72.009003 
 1.536000, 170.67, 72.211998 
 1.524000, 172.01, 70.081001 
 1.535000, 170.78, 71.068993 
 1.534000, 170.89, 69.661003 
 1.536000, 170.67, 70.864998 
2
3
 0.173000, 1515.28, 70.797005 
 0.167000, 1569.72, 71.398003 
 0.167000, 1569.72, 69.772003 
 0.168000, 1560.38, 71.139000 
 0.168000, 1560.38, 70.145004 
 0.169000, 1551.15, 71.971001 
 0.168000, 1560.38, 70.199997 
 0.171000, 1533.01, 71.295006 
 0.168000, 1560.38, 70.197998 
 0.168000, 1560.38, 71.333000 


data/Experiment/4zelda2.pgm
0
3
 0.256000, 1620.00, 77.460007 
 0.253000, 1639.21, 77.871002 
 0.254000, 1632.76, 78.257004 
 0.253000, 1639.21, 76.516998 
 0.255000, 1626.35, 77.902000 
 0.255000, 1626.35, 79.281006 
 0.255000, 1626.35, 77.603004 
 0.256000, 1620.00, 76.486000 
 0.254000, 1632.76, 77.082001 
 0.257000, 1613.70, 77.886993 
9
 0.959000, 432.45, 77.363998 
 0.957000, 433.35, 76.727997 
 0.958000, 432.90, 78.515999 
 0.958000, 432.90, 79.106003 
 0.955000, 434.26, 76.877998 
 0.956000, 433.81, 76.418999 
 0.958000, 432.90, 77.234001 
 0.955000, 434.26, 75.473999 
 0.959000, 432.45, 75.355003 
 0.953000, 435.17, 75.940994 
11
 1.378000, 300.96, 77.832001 
 1.382000, 300.09, 76.973007 
 1.381000, 300.30, 100.585007 
 1.384000, 299.65, 76.930000 
 1.385000, 299.44, 78.036995 
 1.392000, 297.93, 77.192001 
 1.385000, 299.44, 77.556999 
 1.377000, 301.18, 77.193001 
 1.379000, 300.74, 76.398003 
 1.379000, 300.74, 76.051003 
15
 2.454000, 169.00, 77.833000 
 2.448000, 169.41, 76.175003 
 2.452000, 169.14, 76.234993 
 2.456000, 168.86, 76.514000 
 2.471000, 167.83, 75.622002 
 2.862000, 144.91, 75.479004 
 2.453000, 169.07, 75.449997 
 2.442000, 169.83, 76.309998 
 2.452000, 169.14, 76.135994 
 2.448000, 169.41, 77.319000 
1
3
 0.255000, 1626.35, 77.417999 
 0.255000, 1626.35, 74.911003 
 0.257000, 1613.70, 77.115997 
 0.254000, 1632.76, 75.429001 
 0.254000, 1632.76, 77.286003 
 0.256000, 1620.00, 76.277000 
 0.253000, 1639.21, 77.390999 
 0.257000, 1613.70, 75.710999 
 0.255000, 1626.35, 77.204002 
 0.256000, 1620.00, 76.167000 
9
 0.953000, 435.17, 78.245995 
 0.956000, 433.81, 77.215996 
 0.959000, 432.45, 77.348999 
 0.960000, 432.00, 75.680000 
 0.954000, 434.72, 77.653999 
 0.957000, 433.35, 75.469002 
 0.956000, 433.81, 77.618996 
 0.961000, 431.55, 75.598000 
 0.958000, 432.90, 76.773003 
 0.958000, 432.90, 76.159996 
11
 1.380000, 300.52, 78.049004 
 1.380000, 300.52, 76.853004 
 1.380000, 300.52, 76.987000 
 1.385000, 299.44, 76.542000 
 1.380000, 300.52, 76.300003 
 1.381000, 300.30, 77.503006 
 1.384000, 299.65, 76.881996 
 1.392000, 297.93, 76.314003 
 1.377000, 301.18, 77.152000 
 1.380000, 300.52, 76.790001 
15
 2.459000, 168.65, 76.335999 
 2.456000, 168.86, 77.235001 
 2.463000, 168.38, 77.250000 
 2.878000, 144.10, 75.232002 
 2.457000, 168.79, 75.302002 
 2.447000, 169.48, 75.348000 
 2.447000, 169.48, 77.049004 
 2.446000, 169.55, 76.358002 
 2.465000, 168.24, 76.858002 
 2.568000, 161.50, 76.005997 
2
3
 0.253000, 1639.21, 77.651001 
 0.256000, 1620.00, 76.935005 
 0.256000, 1620.00, 78.476006 
 0.256000, 1620.00, 75.944000 
 0.256000, 1620.00, 77.740005 
 0.257000, 1613.70, 75.787994 
 0.254000, 1632.76, 78.531006 
 0.254000, 1632.76, 76.778000 
 0.254000, 1632.76, 78.363998 
 0.255000, 1626.35, 76.141006 


data/Experiment/5ultrasound.pgm
0
3
 0.324000, 1649.12, 82.072006 
 0.323000, 1654.23, 80.823006 
 0.324000, 1649.12, 83.634003 
 0.323000, 1654.23, 89.307999 
 0.321000, 1664.53, 85.084000 
 0.324000, 1649.12, 81.159004 
 0.326000, 1639.00, 80.460007 
 0.324000, 1649.12, 81.345001 
 0.323000, 1654.23, 81.282005 
 0.324000, 1649.12, 80.964005 
9
 1.207000, 442.68, 81.165001 
 1.306000, 409.12, 80.851997 
 1.204000, 443.78, 80.648994 
 1.307000, 408.81, 80.542999 
 1.213000, 440.49, 81.064003 
 1.206000, 443.05, 80.278999 
 1.207000, 442.68, 82.531998 
 1.205000, 443.41, 80.846001 
 1.206000, 443.05, 82.093002 
 1.206000, 443.05, 81.973999 
11
 1.735000, 307.96, 80.487000 
 1.845000, 289.60, 81.113998 
 1.744000, 306.37, 80.527000 
 1.735000, 307.96, 81.205002 
 1.736000, 307.79, 80.160004 
 1.839000, 290.55, 81.800003 
 1.731000, 308.67, 81.493996 
 1.735000, 307.96, 80.715996 
 1.733000, 308.32, 80.460999 
 1.737000, 307.61, 81.138000 
15
 3.070000, 174.04, 79.769997 
 3.058000, 174.73, 80.482002 
 3.068000, 174.16, 80.248001 
 3.072000, 173.93, 81.008003 
 3.117000, 171.42, 80.274002 
 3.075000, 173.76, 81.335007 
 3.220000, 165.94, 80.753998 
 3.085000, 173.20, 79.980003 
 3.081000, 173.42, 80.010002 
 3.083000, 173.31, 80.626999 
1
3
 0.323000, 1654.23, 81.070000 
 0.333000, 1604.55, 81.277000 
 0.323000, 1654.23, 80.653000 
 0.324000, 1649.12, 80.301003 
 0.325000, 1644.05, 81.267006 
 0.322000, 1659.36, 80.605003 
 0.323000, 1654.23, 80.136002 
 0.325000, 1644.05, 80.285004 
 0.324000, 1649.12, 79.605003 
 0.324000, 1649.12, 80.153999 
9
 1.204000, 443.78, 80.426994 
 1.209000, 441.95, 80.916000 
 1.202000, 444.52, 79.782997 
 1.204000, 443.78, 80.222000 
 1.206000, 443.05, 79.036995 
 1.212000, 440.85, 79.715004 
 1.206000, 443.05, 79.997002 
 1.204000, 443.78, 80.962997 
 1.214000, 440.13, 79.927002 
 1.206000, 443.05, 80.330002 
11
 1.737000, 307.61, 80.590004 
 1.735000, 307.96, 80.803001 
 1.734000, 308.14, 80.305000 
 1.745000, 306.20, 81.041000 
 1.732000, 308.50, 81.287994 
 1.739000, 307.25, 80.180000 
 1.743000, 306.55, 80.528000 
 1.733000, 308.32, 81.100998 
 1.736000, 307.79, 80.428001 
 1.734000, 308.14, 81.563995 
15
 3.088000, 173.03, 80.014000 
 3.080000, 173.48, 81.330002 
 3.176000, 168.24, 80.651001 
 3.090000, 172.92, 82.420006 
 3.082000, 173.37, 80.848000 
 3.084000, 173.25, 108.871002 
 3.068000, 174.16, 81.484001 
 3.178000, 168.13, 80.413002 
 3.063000, 174.44, 80.507996 
 3.087000, 173.09, 81.266998 
2
3
 0.324000, 1649.12, 81.355003 
 0.322000, 1659.36, 81.482002 
 0.322000, 1659.36, 80.148003 
 0.325000, 1644.05, 80.469002 
 0.325000, 1644.05, 79.381004 
 0.327000, 1633.99, 81.406998 
 0.322000, 1659.36, 80.164001 
 0.323000, 1654.23, 80.998001 
 0.324000, 1649.12, 79.167999 
 0.321000, 1664.53, 79.799004 


data/Experiment/6shoulderCR.pgm
0
3
 0.469000, 1694.69, 89.792000 
 0.469000, 1694.69, 91.539001 
 0.470000, 1691.08, 88.519997 
 0.467000, 1701.94, 89.959000 
 0.469000, 1694.69, 89.223000 
 0.469000, 1694.69, 88.869995 
 0.468000, 1698.31, 89.238998 
 0.469000, 1694.69, 89.134995 
 0.470000, 1691.08, 89.557999 
 0.470000, 1691.08, 89.847000 
9
 1.787000, 444.77, 90.974998 
 1.792000, 443.53, 90.305000 
 1.892000, 420.09, 90.567001 
 1.786000, 445.02, 90.926994 
 1.788000, 444.52, 89.525002 
 1.796000, 442.54, 89.519005 
 1.790000, 444.03, 89.431999 
 1.793000, 443.28, 89.160004 
 1.789000, 444.28, 91.562996 
 1.790000, 444.03, 88.697998 
11
 2.601000, 305.58, 89.604004 
 2.600000, 305.70, 89.136002 
 2.602000, 305.46, 89.280006 
 2.615000, 303.94, 88.534004 
 2.711000, 293.18, 90.271004 
 2.607000, 304.87, 88.350998 
 2.712000, 293.07, 88.482002 
 2.619000, 303.48, 87.970993 
 2.607000, 304.87, 88.976997 
 2.613000, 304.17, 89.029999 
15
 4.537000, 175.18, 90.062996 
 4.543000, 174.95, 89.808998 
 4.600000, 172.78, 90.411003 
 4.657000, 170.67, 89.907005 
 4.572000, 173.84, 89.116005 
 4.572000, 173.84, 89.264999 
 4.538000, 175.14, 90.605995 
 4.634000, 171.52, 89.748001 
 4.651000, 170.89, 89.362000 
 4.549000, 174.72, 91.529999 
1
3
 0.470000, 1691.08, 89.886002 
 0.468000, 1698.31, 89.405998 
 0.468000, 1698.31, 89.417000 
 0.467000, 1701.94, 89.632996 
 0.467000, 1701.94, 89.195000 
 0.468000, 1698.31, 88.849998 
 0.469000, 1694.69, 89.863998 
 0.478000, 1662.78, 88.935005 
 0.469000, 1694.69, 89.680000 
 0.469000, 1694.69, 90.323997 
9
 1.900000, 418.32, 90.673996 
 1.788000, 444.52, 90.855995 
 1.785000, 445.27, 89.898994 
 1.789000, 444.28, 89.338997 
 1.798000, 442.05, 90.031006 
 1.799000, 441.81, 89.365997 
 1.789000, 444.28, 89.821999 
 1.791000, 443.78, 90.553001 
 1.785000, 445.27, 117.925995 
 1.804000, 440.58, 89.469002 
11
 2.600000, 305.70, 89.956001 
 2.620000, 303.36, 89.426994 
 2.605000, 305.11, 89.687996 
 2.599000, 305.81, 89.344002 
 2.608000, 304.76, 91.185997 
 2.605000, 305.11, 89.653000 
 2.603000, 305.34, 88.868004 
 2.707000, 293.61, 88.636002 
 2.701000, 294.26, 88.502007 
 2.703000, 294.05, 88.988998 
15
 4.586000, 173.31, 89.517998 
 4.596000, 172.93, 89.247002 
 4.540000, 175.07, 89.003998 
 4.534000, 175.30, 89.256004 
 4.668000, 170.27, 89.761002 
 4.555000, 174.49, 89.106003 
 4.547000, 174.80, 89.422005 
 4.552000, 174.61, 90.757996 
 4.576000, 173.69, 88.537994 
 4.693000, 169.36, 89.454002 
2
3
 0.469000, 1694.69, 89.555000 
 0.469000, 1694.69, 89.248001 
 0.469000, 1694.69, 89.209999 
 0.468000, 1698.31, 89.999001 
 0.468000, 1698.31, 90.263000 
 0.471000, 1687.49, 89.593002 
 0.469000, 1694.69, 89.571999 
 0.470000, 1691.08, 89.645996 
 0.470000, 1691.08, 89.772995 
 0.468000, 1698.31, 89.875999 


data/Experiment/7airplaneU2.pgm
0
3
 0.609000, 1721.80, 98.236000 
 0.609000, 1721.80, 98.104996 
 0.612000, 1713.36, 98.070999 
 0.608000, 1724.63, 98.706001 
 0.612000, 1713.36, 97.577003 
 0.623000, 1683.11, 98.509003 
 0.610000, 1718.98, 98.603996 
 0.609000, 1721.80, 97.622002 
 0.610000, 1718.98, 98.305000 
 0.609000, 1721.80, 96.571999 
9
 2.341000, 447.92, 97.821999 
 2.323000, 451.39, 96.806000 
 2.321000, 451.78, 98.253998 
 2.326000, 450.81, 96.320007 
 2.323000, 451.39, 97.064003 
 2.322000, 451.58, 97.677002 
 2.431000, 431.34, 97.222000 
 2.332000, 449.65, 98.117996 
 2.322000, 451.58, 97.033005 
 2.322000, 451.58, 98.052002 
11
 3.371000, 311.06, 97.645996 
 3.488000, 300.62, 97.447998 
 3.371000, 311.06, 97.392998 
 3.373000, 310.87, 96.500000 
 3.393000, 309.04, 96.960999 
 3.400000, 308.40, 96.951996 
 3.471000, 302.10, 98.864998 
 3.371000, 311.06, 98.630997 
 3.369000, 311.24, 97.336998 
 3.470000, 302.18, 97.708000 
15
 5.879000, 178.36, 98.529999 
 5.883000, 178.24, 97.478996 
 5.980000, 175.35, 97.538994 
 5.985000, 175.20, 98.016998 
 5.979000, 175.38, 96.438995 
 5.878000, 178.39, 97.369003 
 5.879000, 178.36, 98.593002 
 5.884000, 178.21, 97.226997 
 5.968000, 175.70, 97.263000 
 5.871000, 178.60, 97.637001 
1
3
 0.610000, 1718.98, 96.777000 
 0.608000, 1724.63, 97.629997 
 0.610000, 1718.98, 98.179001 
 0.607000, 1727.47, 97.817001 
 0.607000, 1727.47, 100.045998 
 0.604000, 1736.05, 98.090004 
 0.609000, 1721.80, 97.451996 
 0.609000, 1721.80, 97.701996 
 0.606000, 1730.32, 98.100998 
 0.606000, 1730.32, 97.902000 
9
 2.321000, 451.78, 97.627998 
 2.321000, 451.78, 96.995003 
 2.320000, 451.97, 123.557999 
 2.323000, 451.39, 97.567001 
 2.420000, 433.30, 98.088005 
 2.321000, 451.78, 97.897003 
 2.325000, 451.00, 97.588005 
 2.320000, 451.97, 97.799004 
 2.321000, 451.78, 97.517998 
 2.327000, 450.61, 98.515999 
11
 3.372000, 310.97, 97.291000 
 3.470000, 302.18, 97.626999 
 3.369000, 311.24, 98.206993 
 3.364000, 311.71, 97.246002 
 3.386000, 309.68, 97.196999 
 3.370000, 311.15, 97.107994 
 3.471000, 302.10, 97.622002 
 3.367000, 311.43, 98.842003 
 3.367000, 311.43, 97.090004 
 3.488000, 300.62, 98.013000 
15
 5.963000, 175.85, 97.691002 
 5.883000, 178.24, 96.939995 
 5.873000, 178.54, 98.433998 
 5.971000, 175.61, 97.978996 
 6.002000, 174.70, 97.625999 
 5.918000, 177.18, 97.587997 
 5.872000, 178.57, 96.608002 
 5.880000, 178.33, 99.248001 
 5.991000, 175.03, 96.612000 
 5.990000, 175.05, 97.067001 
2
3
 0.614000, 1707.78, 97.612999 
 0.609000, 1721.80, 97.537003 
 0.607000, 1727.47, 96.944000 
 0.610000, 1718.98, 99.207001 
 0.609000, 1721.80, 97.002998 
 0.610000, 1718.98, 96.283997 
 0.607000, 1727.47, 98.713997 
 0.611000, 1716.16, 96.271004 
 0.610000, 1718.98, 97.294998 
 0.612000, 1713.36, 98.683998 


data/Experiment/8bone_scint.pgm
0
3
 1.198000, 1757.58, 133.731003 
 1.195000, 1762.00, 131.916992 
 1.196000, 1760.52, 130.542007 
 1.200000, 1754.65, 131.591003 
 1.199000, 1756.12, 136.470993 
 1.197000, 1759.05, 131.138000 
 1.195000, 1762.00, 131.712997 
 1.202000, 1751.73, 133.057999 
 1.202000, 1751.73, 132.225006 
 1.198000, 1757.58, 132.044998 
9
 4.675000, 450.39, 134.380997 
 4.673000, 450.59, 131.345993 
 4.716000, 446.48, 132.073990 
 4.676000, 450.30, 132.579010 
 4.681000, 449.82, 132.761002 
 4.676000, 450.30, 131.463013 
 4.672000, 450.68, 132.485001 
 4.726000, 445.53, 131.811996 
 4.673000, 450.59, 131.931000 
 4.674000, 450.49, 132.255997 
11
 6.802000, 309.55, 132.696991 
 6.779000, 310.60, 138.163986 
 6.791000, 310.06, 134.358002 
 6.776000, 310.74, 146.660004 
 6.780000, 310.56, 134.052002 
 6.817000, 308.87, 133.811005 
 6.796000, 309.83, 133.750992 
 6.782000, 310.47, 133.888000 
 6.783000, 310.42, 133.194992 
 6.777000, 310.70, 131.883011 
15
 12.513000, 168.27, 133.097992 
 11.996000, 175.52, 131.701004 
 11.953000, 176.16, 131.882996 
 11.910000, 176.79, 132.035004 
 12.520000, 168.18, 132.255997 
 11.941000, 176.33, 132.375000 
 11.966000, 175.96, 131.856003 
 12.012000, 175.29, 131.276001 
 11.931000, 176.48, 131.408005 
 11.913000, 176.75, 131.764008 
1
3
 1.199000, 1756.12, 133.029999 
 1.198000, 1757.58, 131.667999 
 1.194000, 1763.47, 137.300003 
 1.200000, 1754.65, 131.986008 
 1.198000, 1757.58, 132.089005 
 1.199000, 1756.12, 132.978989 
 1.202000, 1751.73, 131.872009 
 1.199000, 1756.12, 131.989990 
 1.201000, 1753.19, 132.500992 
 1.195000, 1762.00, 132.360992 
9
 4.680000, 449.91, 132.294006 
 4.678000, 450.10, 132.781006 
 4.671000, 450.78, 131.437988 
 4.674000, 450.49, 132.408005 
 4.678000, 450.10, 132.527008 
 4.680000, 449.91, 131.502014 
 4.671000, 450.78, 132.190994 
 4.678000, 450.10, 133.033005 
 4.671000, 450.78, 133.733994 
 4.676000, 450.30, 132.421005 
11
 6.785000, 310.33, 131.856995 
 6.784000, 310.38, 134.178009 
 6.771000, 310.97, 134.593002 
 6.772000, 310.93, 133.293991 
 6.786000, 310.28, 134.117004 
 6.776000, 310.74, 133.416000 
 6.774000, 310.83, 131.419998 
 6.788000, 310.19, 132.237000 
 6.767000, 311.15, 131.987000 
 6.839000, 307.88, 131.787994 
15
 11.933000, 176.45, 132.055008 
 11.931000, 176.48, 133.796997 
 12.005000, 175.39, 137.587997 
 12.090000, 174.16, 135.372009 
 11.934000, 176.44, 133.513992 
 12.133000, 173.54, 133.102005 
 12.014000, 175.26, 133.777008 
 11.916000, 176.70, 133.210007 
 12.058000, 174.62, 136.923004 
 11.925000, 176.57, 134.390991 
2
3
 1.195000, 1762.00, 133.010986 
 1.203000, 1750.28, 132.882004 
 1.200000, 1754.65, 133.188004 
 1.200000, 1754.65, 132.803009 
 1.200000, 1754.65, 132.402008 
 1.195000, 1762.00, 132.647995 
 1.198000, 1757.58, 133.738998 
 1.199000, 1756.12, 132.319992 
 1.199000, 1756.12, 133.209991 
 1.195000, 1762.00, 145.695999 


data/Experiment/9blackhole.pgm
0
3
 2.403000, 1797.75, 275.506989 
 2.576000, 1677.02, 205.353989 
 2.406000, 1795.51, 204.577988 
 2.402000, 1798.50, 202.559006 
 2.403000, 1797.75, 203.115997 
 2.408000, 1794.02, 201.899002 
 2.405000, 1796.26, 216.471008 
 2.508000, 1722.49, 203.370010 
 2.404000, 1797.00, 204.814987 
 2.408000, 1794.02, 204.399994 
9
 9.721000, 444.40, 204.978012 
 9.711000, 444.86, 204.565002 
 9.728000, 444.08, 214.238998 
 9.718000, 444.54, 204.410995 
 9.624000, 448.88, 203.010010 
 9.619000, 449.11, 233.867996 
 9.708000, 444.99, 204.195007 
 9.626000, 448.78, 202.972000 
 9.617000, 449.20, 202.362991 
 9.723000, 444.31, 201.708008 
11
 14.137000, 305.58, 202.102005 
 14.048000, 307.52, 205.455994 
 14.046000, 307.56, 206.214996 
 14.136000, 305.60, 202.201004 
 14.067000, 307.10, 204.334991 
 14.048000, 307.52, 203.916000 
 14.144000, 305.43, 211.557999 
 14.146000, 305.39, 202.074005 
 14.044000, 307.60, 204.804001 
 14.055000, 307.36, 205.157013 
15
 24.969999, 173.01, 202.699005 
 24.868000, 173.72, 201.940002 
 24.865000, 173.74, 207.162994 
 24.976999, 172.96, 202.138000 
 24.893000, 173.54, 206.804993 
 24.871000, 173.70, 202.145996 
 24.990000, 172.87, 206.378998 
 24.903999, 173.47, 205.575989 
 24.886000, 173.59, 203.395004 
 24.955999, 173.10, 201.947006 
1
3
 2.406000, 1795.51, 204.309998 
 2.407000, 1794.77, 205.098999 
 2.503000, 1725.93, 205.806000 
 2.404000, 1797.00, 205.575989 
 2.403000, 1797.75, 202.787994 
 2.505000, 1724.55, 205.304993 
 2.506000, 1723.86, 206.225998 
 2.406000, 1795.51, 202.608002 
 2.516000, 1717.01, 202.601990 
 2.408000, 1794.02, 203.330994 
9
 9.722000, 444.35, 204.643005 
 9.617000, 449.20, 202.628998 
 9.629000, 448.64, 205.994995 
 9.734000, 443.81, 203.905014 
 9.617000, 449.20, 202.793991 
 9.630000, 448.60, 204.784988 
 9.625000, 448.83, 204.102997 
 9.627000, 448.74, 228.725998 
 9.621000, 449.02, 205.949997 
 9.729000, 444.03, 207.416000 
11
 14.037000, 307.76, 204.569992 
 14.055000, 307.36, 204.092987 
 14.157000, 305.15, 202.585007 
 14.044000, 307.60, 201.737000 
 14.250000, 303.16, 203.612000 
 14.131000, 305.71, 204.800003 
 14.038000, 307.74, 208.230011 
 14.052000, 307.43, 202.729004 
 14.133000, 305.67, 201.895004 
 14.046000, 307.56, 204.560989 
15
 24.875999, 173.66, 207.523010 
 24.877001, 173.65, 204.147003 
 24.980000, 172.94, 206.854004 
 24.915001, 173.39, 202.731995 
 24.868000, 173.72, 203.770004 
 24.973000, 172.99, 204.889008 
 24.870001, 173.70, 202.682007 
 24.902000, 173.48, 205.226990 
 24.976999, 172.96, 205.966995 
 24.886999, 173.58, 204.084000 
2
3
 2.406000, 1795.51, 203.991989 
 2.555000, 1690.80, 205.314011 
 2.407000, 1794.77, 204.029999 
 2.406000, 1795.51, 202.551987 
 2.403000, 1797.75, 202.673004 
 2.405000, 1796.26, 202.322006 
 2.405000, 1796.26, 202.089996 
 2.412000, 1791.04, 203.216003 
 2.504000, 1725.24, 205.723999 
 2.505000, 1724.55, 205.767990 


data/Experiment/z10_skull.pgm
0
3
 3.728000, 1742.83, 387.079010 
 3.632000, 1788.90, 275.768005 
 3.630000, 1789.88, 280.613983 
 3.631000, 1789.39, 279.563995 
 3.726000, 1743.77, 280.329987 
 3.628000, 1790.87, 274.291016 
 3.630000, 1789.88, 279.457001 
 3.632000, 1788.90, 273.889008 
 3.630000, 1789.88, 276.186981 
 3.636000, 1786.93, 290.449005 
9
 14.731000, 441.06, 273.744019 
 14.639000, 443.83, 275.164001 
 14.634000, 443.99, 275.450989 
 14.627000, 444.20, 274.614990 
 14.629000, 444.14, 274.373993 
 14.643000, 443.71, 273.738983 
 14.653000, 443.41, 278.549011 
 14.592000, 445.26, 274.845001 
 14.512000, 447.72, 276.804016 
 14.652000, 443.44, 275.811005 
11
 21.204000, 306.42, 278.242004 
 21.115000, 307.71, 274.830017 
 21.968000, 295.76, 280.728027 
 21.114000, 307.72, 277.027985 
 21.875999, 297.00, 279.790985 
 21.125999, 307.55, 273.881989 
 21.226000, 306.10, 274.009979 
 21.115000, 307.71, 275.446014 
 21.146000, 307.26, 273.587006 
 21.122000, 307.61, 274.319977 
15
 37.424999, 173.61, 281.858002 
 37.441002, 173.53, 276.283997 
 37.442001, 173.53, 273.796997 
 37.460999, 173.44, 274.789001 
 37.449001, 173.50, 273.433990 
 37.408001, 173.69, 272.958008 
 38.002998, 170.97, 274.563019 
 37.445000, 173.52, 273.339996 
 37.563000, 172.97, 274.255005 
 37.417999, 173.64, 272.865997 
1
3
 3.632000, 1788.90, 315.904022 
 3.632000, 1788.90, 274.203003 
 3.636000, 1786.93, 275.344025 
 3.629000, 1790.38, 291.473999 
 3.632000, 1788.90, 275.050018 
 3.628000, 1790.87, 274.442017 
 3.729000, 1742.37, 276.691986 
 3.633000, 1788.41, 287.265015 
 3.634000, 1787.91, 275.404999 
 3.634000, 1787.91, 275.700989 
9
 15.301000, 424.63, 291.444000 
 14.642000, 443.74, 275.540009 
 14.736000, 440.91, 273.816010 
 14.652000, 443.44, 273.588989 
 14.731000, 441.06, 274.731018 
 14.651000, 443.47, 274.420013 
 14.713000, 441.60, 274.414978 
 14.643000, 443.71, 274.220001 
 14.893000, 436.26, 273.597992 
 14.623000, 444.32, 275.023010 
11
 21.226000, 306.10, 277.776978 
 21.131001, 307.48, 282.147980 
 21.225000, 306.11, 274.552002 
 21.100000, 307.93, 277.450989 
 21.087999, 308.10, 280.026978 
 21.108000, 307.81, 272.618988 
 21.103001, 307.88, 279.276001 
 21.118000, 307.67, 274.664978 
 21.113001, 307.74, 278.824005 
 21.063000, 308.47, 276.107025 
15
 37.493999, 173.29, 276.061005 
 37.444000, 173.52, 277.057007 
 37.431000, 173.58, 279.316010 
 37.436001, 173.56, 275.127991 
 38.130001, 170.40, 273.891998 
 37.457001, 173.46, 276.269012 
 37.549000, 173.03, 276.129974 
 37.411999, 173.67, 274.937012 
 37.436001, 173.56, 275.070007 
 37.459000, 173.45, 273.698975 
2
3
 3.629000, 1790.38, 277.826996 
 3.628000, 1790.87, 273.054016 
 3.642000, 1783.99, 274.037994 
 3.634000, 1787.91, 274.272003 
 3.628000, 1790.87, 276.602997 
 3.631000, 1789.39, 274.776978 
 3.628000, 1790.87, 276.394012 
 3.626000, 1791.86, 273.859985 
 3.628000, 1790.87, 273.826996 
 3.633000, 1788.41, 276.016998 


