data/Experiment/1_cameraman.pgm
0
3
 0.092000, 712.35, 91.237999 
 0.093000, 704.69, 65.824997 
 0.091000, 720.18, 64.233994 
 0.097000, 675.63, 65.314003 
 0.092000, 712.35, 63.520000 
 0.092000, 712.35, 63.947002 
 0.092000, 712.35, 63.840000 
 0.099000, 661.98, 65.138000 
 0.091000, 720.18, 63.445999 
 0.091000, 720.18, 64.946999 
9
 0.450000, 145.64, 64.624001 
 0.454000, 144.35, 64.380997 
 0.451000, 145.31, 63.968998 
 0.454000, 144.35, 63.803005 
 0.453000, 144.67, 64.330994 
 0.451000, 145.31, 64.058006 
 0.454000, 144.35, 63.862003 
 0.450000, 145.64, 64.534004 
 0.453000, 144.67, 63.971004 
 0.450000, 145.64, 64.047005 
11
 0.652000, 100.52, 63.267998 
 0.653000, 100.36, 65.220001 
 0.653000, 100.36, 64.220001 
 0.651000, 100.67, 64.378998 
 0.652000, 100.52, 63.355003 
 0.667000, 98.25, 64.653999 
 0.653000, 100.36, 63.786003 
 0.652000, 100.52, 64.709999 
 0.651000, 100.67, 64.390999 
 0.653000, 100.36, 64.257004 
15
 1.173000, 55.87, 64.843002 
 1.175000, 55.78, 65.667999 
 1.174000, 55.82, 63.771999 
 1.263000, 51.89, 63.795998 
 1.179000, 55.59, 63.860001 
 1.172000, 55.92, 64.193001 
 1.177000, 55.68, 63.785995 
 1.172000, 55.92, 64.083000 
 1.176000, 55.73, 63.480999 
 1.176000, 55.73, 64.475998 
1
3
 0.091000, 720.18, 63.913998 
 0.090000, 728.18, 63.819000 
 0.092000, 712.35, 63.756001 
 0.092000, 712.35, 64.375999 
 0.094000, 697.19, 63.186996 
 0.092000, 712.35, 63.825001 
 0.092000, 712.35, 63.336002 
 0.091000, 720.18, 64.947998 
 0.092000, 712.35, 63.934002 
 0.095000, 689.85, 64.889999 
9
 0.450000, 145.64, 65.179001 
 0.452000, 144.99, 64.692993 
 0.453000, 144.67, 64.737000 
 0.452000, 144.99, 64.303993 
 0.451000, 145.31, 64.265007 
 0.450000, 145.64, 64.383003 
 0.455000, 144.04, 63.787994 
 0.450000, 145.64, 64.623001 
 0.452000, 144.99, 63.381001 
 0.455000, 144.04, 63.950996 
11
 0.657000, 99.75, 63.921001 
 0.653000, 100.36, 65.124001 
 0.652000, 100.52, 63.779999 
 0.653000, 100.36, 65.552002 
 0.654000, 100.21, 64.430000 
 0.654000, 100.21, 65.308998 
 0.653000, 100.36, 63.874001 
 0.652000, 100.52, 64.629997 
 0.652000, 100.52, 63.597000 
 0.652000, 100.52, 64.449997 
15
 1.177000, 55.68, 64.722000 
 1.177000, 55.68, 64.426994 
 1.264000, 51.85, 64.047997 
 1.172000, 55.92, 64.750999 
 1.177000, 55.68, 63.783997 
 1.173000, 55.87, 65.281006 
 1.173000, 55.87, 64.533005 
 1.171000, 55.97, 65.104004 
 1.175000, 55.78, 63.779003 
 1.174000, 55.82, 65.318993 
2
3
 0.092000, 712.35, 64.688995 
 0.092000, 712.35, 65.292999 
 0.090000, 728.18, 63.787998 
 0.091000, 720.18, 64.823997 
 0.094000, 697.19, 63.773998 
 0.091000, 720.18, 64.947998 
 0.091000, 720.18, 63.444000 
 0.091000, 720.18, 63.374001 
 0.093000, 704.69, 63.669003 
 0.091000, 720.18, 64.479996 


data/Experiment/2bird2.pgm
0
3
 0.237000, 949.37, 68.930000 
 0.238000, 945.38, 70.299004 
 0.237000, 949.37, 70.094002 
 0.236000, 953.39, 69.410004 
 0.239000, 941.42, 69.868004 
 0.236000, 953.39, 68.510002 
 0.239000, 941.42, 69.192001 
 0.239000, 941.42, 69.339005 
 0.236000, 953.39, 68.697998 
 0.237000, 949.37, 70.011002 
9
 1.489000, 151.11, 69.426003 
 1.510000, 149.01, 69.659996 
 1.490000, 151.01, 68.955002 
 1.490000, 151.01, 69.653000 
 1.625000, 138.46, 68.985001 
 1.491000, 150.91, 69.054001 
 1.511000, 148.91, 69.109001 
 1.481000, 151.92, 68.644997 
 1.496000, 150.40, 69.216995 
 1.496000, 150.40, 68.692001 
11
 2.199000, 102.32, 69.323006 
 2.318000, 97.07, 70.031998 
 2.187000, 102.88, 68.910004 
 2.184000, 103.02, 69.721001 
 2.182000, 103.12, 69.789001 
 2.182000, 103.12, 69.995003 
 2.184000, 103.02, 70.073006 
 2.188000, 102.83, 70.551994 
 2.326000, 96.73, 70.461006 
 2.186000, 102.93, 69.686005 
15
 4.008000, 56.14, 69.282997 
 4.011000, 56.10, 68.605995 
 4.005000, 56.18, 70.216003 
 4.008000, 56.14, 68.419998 
 4.017000, 56.01, 69.149002 
 4.039000, 55.71, 68.890999 
 4.014000, 56.05, 68.623001 
 4.005000, 56.18, 69.417000 
 4.017000, 56.01, 69.575005 
 4.033000, 55.79, 69.649002 
1
3
 0.236000, 953.39, 70.150002 
 0.237000, 949.37, 69.737999 
 0.239000, 941.42, 70.264999 
 0.237000, 949.37, 68.708000 
 0.238000, 945.38, 70.058998 
 0.237000, 949.37, 69.327003 
 0.239000, 941.42, 70.441002 
 0.237000, 949.37, 69.241997 
 0.237000, 949.37, 70.142998 
 0.235000, 957.45, 68.461998 
9
 1.491000, 150.91, 71.327003 
 1.497000, 150.30, 71.387001 
 1.590000, 141.51, 70.281006 
 1.512000, 148.81, 69.985001 
 1.490000, 151.01, 69.813004 
 1.490000, 151.01, 69.246002 
 1.489000, 151.11, 69.564003 
 1.482000, 151.82, 69.237999 
 1.488000, 151.21, 70.827003 
 1.489000, 151.11, 69.203003 
11
 2.185000, 102.97, 69.770004 
 2.196000, 102.46, 69.613998 
 2.183000, 103.07, 68.889000 
 2.183000, 103.07, 69.681999 
 2.192000, 102.65, 69.371002 
 2.192000, 102.65, 70.069000 
 2.186000, 102.93, 69.181000 
 2.184000, 103.02, 69.861000 
 2.185000, 102.97, 68.809006 
 2.186000, 102.93, 69.971001 
15
 4.009000, 56.12, 70.126999 
 4.011000, 56.10, 70.247002 
 4.015000, 56.04, 69.417000 
 4.373000, 51.45, 68.702995 
 4.015000, 56.04, 68.924004 
 4.012000, 56.08, 69.248001 
 4.012000, 56.08, 68.618996 
 4.012000, 56.08, 86.803001 
 4.013000, 56.07, 68.801003 
 4.017000, 56.01, 69.794998 
2
3
 0.239000, 941.42, 70.591003 
 0.237000, 949.37, 69.229004 
 0.236000, 953.39, 68.157997 
 0.236000, 953.39, 69.408997 
 0.237000, 949.37, 69.314003 
 0.237000, 949.37, 70.003998 
 0.237000, 949.37, 69.153000 
 0.237000, 949.37, 70.425003 
 0.237000, 949.37, 67.902000 
 0.240000, 937.50, 70.249001 


data/Experiment/3lena_bw.pgm
0
3
 0.267000, 981.81, 69.541000 
 0.269000, 974.51, 72.036003 
 0.265000, 989.22, 70.003998 
 0.287000, 913.39, 71.695000 
 0.265000, 989.22, 69.594002 
 0.265000, 989.22, 71.086998 
 0.267000, 981.81, 69.638000 
 0.266000, 985.50, 71.478004 
 0.265000, 989.22, 69.431000 
 0.267000, 981.81, 71.872002 
9
 1.706000, 153.66, 70.168999 
 1.697000, 154.47, 72.017998 
 1.706000, 153.66, 70.399002 
 1.710000, 153.30, 71.511002 
 1.703000, 153.93, 69.858994 
 1.831000, 143.17, 71.305000 
 1.704000, 153.84, 69.822998 
 1.706000, 153.66, 73.187996 
 1.703000, 153.93, 69.516998 
 1.723000, 152.14, 71.875999 
11
 2.506000, 104.61, 69.984001 
 2.504000, 104.69, 71.602005 
 2.605000, 100.63, 71.177994 
 2.522000, 103.94, 71.749001 
 2.604000, 100.67, 71.516998 
 2.504000, 104.69, 70.755005 
 2.506000, 104.61, 70.178001 
 2.503000, 104.73, 71.306000 
 2.504000, 104.69, 69.723999 
 2.505000, 104.65, 71.457001 
15
 4.598000, 57.01, 70.624001 
 4.714000, 55.61, 71.468002 
 4.600000, 56.99, 69.612000 
 4.690000, 55.89, 72.526001 
 4.950000, 52.96, 70.233002 
 4.587000, 57.15, 72.325005 
 4.603000, 56.95, 69.877007 
 4.604000, 56.94, 72.688004 
 4.606000, 56.91, 70.148994 
 4.602000, 56.96, 71.098999 
1
3
 0.266000, 985.50, 70.410004 
 0.269000, 974.51, 72.803001 
 0.270000, 970.90, 70.326004 
 0.266000, 985.50, 71.395004 
 0.265000, 989.22, 71.481003 
 0.266000, 985.50, 72.153999 
 0.267000, 981.81, 70.307999 
 0.267000, 981.81, 71.995003 
 0.266000, 985.50, 72.876999 
 0.269000, 974.51, 71.041000 
9
 1.705000, 153.75, 70.911995 
 1.707000, 153.57, 71.044998 
 1.839000, 142.55, 69.711006 
 1.703000, 153.93, 71.376999 
 1.825000, 143.64, 70.923004 
 1.704000, 153.84, 70.736000 
 1.705000, 153.75, 72.240997 
 1.706000, 153.66, 71.216995 
 1.712000, 153.12, 70.635002 
 1.702000, 154.02, 71.566994 
11
 2.503000, 104.73, 70.112999 
 2.499000, 104.90, 71.114998 
 2.504000, 104.69, 70.041000 
 2.503000, 104.73, 71.449005 
 2.504000, 104.69, 69.753006 
 2.505000, 104.65, 71.578003 
 2.505000, 104.65, 70.368004 
 2.505000, 104.65, 71.339005 
 2.506000, 104.61, 70.604004 
 2.503000, 104.73, 72.099998 
15
 5.118000, 51.22, 70.020004 
 4.598000, 57.01, 71.444000 
 4.593000, 57.07, 70.572998 
 4.596000, 57.04, 71.923996 
 4.711000, 55.65, 71.553001 
 4.602000, 56.96, 71.237999 
 4.603000, 56.95, 71.774002 
 4.610000, 56.86, 71.433998 
 5.103000, 51.37, 95.257004 
 4.702000, 55.75, 70.608994 
2
3
 0.266000, 985.50, 72.125000 
 0.267000, 981.81, 71.400002 
 0.265000, 989.22, 70.094002 
 0.266000, 985.50, 70.056999 
 0.268000, 978.15, 70.779999 
 0.266000, 985.50, 70.400002 
 0.267000, 981.81, 70.769005 
 0.267000, 981.81, 71.403999 
 0.266000, 985.50, 71.289001 
 0.268000, 978.15, 71.239006 


data/Experiment/4zelda2.pgm
0
3
 0.411000, 1009.05, 76.941994 
 0.410000, 1011.51, 76.599998 
 0.411000, 1009.05, 76.550995 
 0.410000, 1011.51, 75.856995 
 0.409000, 1013.99, 77.353004 
 0.419000, 989.79, 77.413002 
 0.408000, 1016.47, 76.381004 
 0.411000, 1009.05, 76.416000 
 0.410000, 1011.51, 76.890999 
 0.409000, 1013.99, 77.102005 
9
 2.732000, 151.80, 76.939995 
 2.698000, 153.71, 76.686005 
 2.824000, 146.86, 77.716003 
 3.055000, 135.75, 76.551003 
 2.704000, 153.37, 78.405998 
 2.827000, 146.70, 77.615997 
 2.702000, 153.49, 78.931000 
 2.734000, 151.69, 76.484001 
 2.746000, 151.03, 77.609001 
 2.704000, 153.37, 76.290001 
11
 3.981000, 104.17, 76.467995 
 4.078000, 101.70, 76.334999 
 3.982000, 104.15, 77.153999 
 4.125000, 100.54, 78.007004 
 3.979000, 104.23, 77.759995 
 3.984000, 104.10, 76.899002 
 3.980000, 104.20, 77.757996 
 3.979000, 104.23, 76.886002 
 4.083000, 101.57, 75.856003 
 3.979000, 104.23, 76.957993 
15
 7.442000, 55.73, 77.028999 
 7.422000, 55.88, 76.317001 
 7.518000, 55.16, 76.202003 
 7.339000, 56.51, 77.028000 
 7.340000, 56.50, 77.031006 
 7.522000, 55.13, 76.149994 
 7.433000, 55.79, 77.785004 
 7.505000, 55.26, 77.081001 
 7.442000, 55.73, 77.341995 
 7.337000, 56.52, 77.057999 
1
3
 0.411000, 1009.05, 76.695999 
 0.410000, 1011.51, 78.093994 
 0.414000, 1001.74, 77.056000 
 0.409000, 1013.99, 75.740005 
 0.410000, 1011.51, 76.936996 
 0.409000, 1013.99, 76.579002 
 0.463000, 895.72, 77.005005 
 0.408000, 1016.47, 76.907005 
 0.408000, 1016.47, 77.545006 
 0.410000, 1011.51, 77.043999 
9
 2.704000, 153.37, 76.586998 
 2.703000, 153.43, 76.886993 
 2.697000, 153.77, 76.092003 
 2.701000, 153.54, 76.907005 
 2.825000, 146.80, 76.442001 
 2.702000, 153.49, 76.963997 
 2.697000, 153.77, 76.056000 
 2.731000, 151.86, 77.071999 
 2.702000, 153.49, 75.251999 
 2.704000, 153.37, 76.559998 
11
 4.132000, 100.37, 76.179993 
 4.071000, 101.87, 76.798004 
 3.984000, 104.10, 76.827995 
 4.029000, 102.93, 77.347000 
 3.980000, 104.20, 76.326996 
 4.083000, 101.57, 110.443001 
 4.507000, 92.02, 76.195007 
 4.117000, 100.73, 77.470001 
 3.980000, 104.20, 75.895996 
 3.980000, 104.20, 77.302994 
15
 7.387000, 56.14, 77.074997 
 7.436000, 55.77, 75.840004 
 7.333000, 56.56, 76.401001 
 7.437000, 55.76, 76.024002 
 7.347000, 56.45, 75.834000 
 7.443000, 55.72, 76.143997 
 7.331000, 56.57, 76.098000 
 7.342000, 56.49, 76.742996 
 7.440000, 55.74, 76.856995 
 7.419000, 55.90, 77.279999 
2
3
 0.410000, 1011.51, 76.790993 
 0.409000, 1013.99, 77.620003 
 0.412000, 1006.60, 76.541000 
 0.411000, 1009.05, 77.259995 
 0.412000, 1006.60, 76.959999 
 0.410000, 1011.51, 76.480995 
 0.411000, 1009.05, 76.334999 
 0.411000, 1009.05, 76.503998 
 0.410000, 1011.51, 77.033997 
 0.409000, 1013.99, 76.509003 


data/Experiment/5ultrasound.pgm
0
3
 0.513000, 1041.55, 80.609001 
 0.513000, 1041.55, 81.544998 
 0.513000, 1041.55, 81.144997 
 0.513000, 1041.55, 81.104996 
 0.515000, 1037.50, 80.653000 
 0.512000, 1043.58, 80.970001 
 0.513000, 1041.55, 79.552002 
 0.513000, 1041.55, 80.945000 
 0.511000, 1045.63, 80.627998 
 0.511000, 1045.63, 80.993996 
9
 3.414000, 156.51, 80.159996 
 3.412000, 156.60, 80.313995 
 3.412000, 156.60, 80.409996 
 3.533000, 151.24, 80.459999 
 3.416000, 156.42, 80.849998 
 3.408000, 156.78, 80.913002 
 3.507000, 152.36, 80.848999 
 3.410000, 156.69, 81.724998 
 3.424000, 156.05, 80.659996 
 3.414000, 156.51, 81.546997 
11
 5.041000, 105.99, 80.349998 
 5.036000, 106.10, 81.291000 
 5.131000, 104.13, 79.103004 
 5.020000, 106.44, 81.218002 
 5.027000, 106.29, 80.609001 
 5.140000, 103.95, 81.140999 
 5.029000, 106.25, 78.875000 
 5.037000, 106.08, 81.175995 
 5.088000, 105.01, 81.229004 
 5.131000, 104.13, 82.661003 
15
 9.385000, 56.93, 80.878998 
 9.418000, 56.73, 80.764999 
 9.418000, 56.73, 82.539001 
 9.380000, 56.96, 80.775002 
 9.366000, 57.05, 81.728004 
 9.366000, 57.05, 80.519005 
 9.376000, 56.99, 80.221001 
 9.375000, 56.99, 81.045998 
 9.380000, 56.96, 80.575005 
 9.434000, 56.64, 80.278000 
1
3
 0.512000, 1043.58, 80.146996 
 0.512000, 1043.58, 82.571999 
 0.513000, 1041.55, 80.389999 
 0.510000, 1047.68, 82.012001 
 0.513000, 1041.55, 81.703003 
 0.512000, 1043.58, 80.903000 
 0.514000, 1039.52, 79.958000 
 0.513000, 1041.55, 81.475998 
 0.515000, 1037.50, 80.652000 
 0.513000, 1041.55, 80.152000 
9
 3.412000, 156.60, 105.292999 
 3.415000, 156.46, 80.767998 
 3.410000, 156.69, 81.608994 
 3.414000, 156.51, 80.389000 
 3.412000, 156.60, 81.676994 
 3.456000, 154.61, 80.591995 
 3.411000, 156.64, 81.932999 
 3.411000, 156.64, 82.631996 
 3.473000, 153.85, 80.347000 
 3.413000, 156.55, 79.781998 
11
 5.028000, 106.27, 81.542999 
 5.155000, 103.65, 82.692001 
 5.132000, 104.11, 81.431000 
 5.048000, 105.85, 80.094002 
 5.039000, 106.04, 81.253998 
 5.134000, 104.07, 80.906998 
 5.020000, 106.44, 81.929001 
 5.035000, 106.12, 81.613007 
 5.045000, 105.91, 80.959999 
 5.146000, 103.83, 82.052002 
15
 9.381000, 56.96, 81.101006 
 9.375000, 56.99, 81.910004 
 9.363000, 57.07, 81.335999 
 9.352000, 57.13, 80.698006 
 9.350000, 57.15, 80.834999 
 9.383000, 56.95, 80.447998 
 9.276000, 57.60, 81.250999 
 9.380000, 56.96, 80.264999 
 9.427000, 56.68, 81.096001 
 9.380000, 56.96, 80.315002 
2
3
 0.512000, 1043.58, 81.306999 
 0.511000, 1045.63, 81.081001 
 0.512000, 1043.58, 80.808998 
 0.557000, 959.27, 81.174004 
 0.512000, 1043.58, 80.138000 
 0.522000, 1023.59, 81.120995 
 0.513000, 1041.55, 80.968002 
 0.510000, 1047.68, 79.674995 
 0.515000, 1037.50, 80.459999 
 0.512000, 1043.58, 80.726997 


data/Experiment/6shoulderCR.pgm
0
3
 0.763000, 1041.69, 98.023003 
 0.768000, 1034.91, 90.162003 
 0.757000, 1049.94, 88.846992 
 0.756000, 1051.33, 90.134003 
 0.757000, 1049.94, 90.201996 
 0.758000, 1048.56, 89.361000 
 0.755000, 1052.73, 90.837006 
 0.757000, 1049.94, 89.310997 
 0.758000, 1048.56, 90.047997 
 0.758000, 1048.56, 89.574997 
9
 5.230000, 151.97, 89.224998 
 5.130000, 154.93, 90.498001 
 5.133000, 154.84, 89.199997 
 5.149000, 154.36, 90.529999 
 5.349000, 148.59, 90.444000 
 5.130000, 154.93, 88.959999 
 5.133000, 154.84, 88.770996 
 5.134000, 154.81, 90.813995 
 5.334000, 149.01, 88.977997 
 5.139000, 154.66, 88.848999 
11
 7.675000, 103.56, 90.257996 
 7.809000, 101.78, 88.914001 
 7.560000, 105.13, 88.623001 
 7.675000, 103.56, 89.022995 
 7.781000, 102.15, 89.145004 
 7.680000, 103.49, 104.843002 
 7.571000, 104.98, 88.070999 
 7.785000, 102.09, 88.354004 
 7.674000, 103.57, 88.322998 
 7.681000, 103.48, 89.608002 
15
 14.245000, 55.80, 89.190994 
 14.663000, 54.21, 89.230995 
 14.481000, 54.89, 89.910995 
 14.072000, 56.48, 90.561005 
 14.091000, 56.41, 89.895996 
 14.201000, 55.97, 90.084000 
 14.734000, 53.94, 89.251999 
 14.763000, 53.84, 90.348000 
 14.644000, 54.28, 89.911003 
 14.089000, 56.41, 89.567001 
1
3
 0.802000, 991.03, 91.920998 
 0.758000, 1048.56, 88.547997 
 0.758000, 1048.56, 89.775993 
 0.802000, 991.03, 89.023994 
 0.802000, 991.03, 89.070000 
 0.757000, 1049.94, 89.273994 
 0.756000, 1051.33, 90.679001 
 0.803000, 989.80, 89.631996 
 0.758000, 1048.56, 91.001999 
 0.759000, 1047.18, 88.854996 
9
 5.175000, 153.59, 90.320000 
 5.249000, 151.42, 90.890999 
 5.246000, 151.51, 90.424995 
 5.361000, 148.26, 90.977997 
 5.128000, 154.99, 90.911003 
 5.234000, 151.85, 91.250999 
 5.232000, 151.91, 89.257996 
 5.131000, 154.90, 89.278000 
 5.132000, 154.87, 89.615005 
 5.129000, 154.96, 88.740005 
11
 7.787000, 102.07, 89.649994 
 7.681000, 103.48, 90.850998 
 7.668000, 103.65, 89.685997 
 7.806000, 101.82, 89.316002 
 7.672000, 103.60, 89.098000 
 7.789000, 102.04, 90.816002 
 7.679000, 103.50, 90.479996 
 7.671000, 103.61, 89.640999 
 7.777000, 102.20, 90.319000 
 7.714000, 103.03, 90.613007 
15
 14.188000, 56.02, 89.475006 
 14.636000, 54.31, 90.182999 
 14.655000, 54.23, 90.703003 
 14.160000, 56.13, 88.682007 
 14.123000, 56.28, 89.423996 
 14.204000, 55.96, 91.560997 
 14.734000, 53.94, 88.466995 
 14.781000, 53.77, 88.625999 
 14.251000, 55.77, 90.651001 
 14.154000, 56.15, 89.159004 
2
3
 0.757000, 1049.94, 88.473000 
 0.800000, 993.51, 90.277000 
 0.759000, 1047.18, 89.377998 
 0.800000, 993.51, 89.395996 
 0.758000, 1048.56, 92.002998 
 0.756000, 1051.33, 89.133003 
 0.760000, 1045.80, 88.886002 
 0.759000, 1047.18, 89.528999 
 0.800000, 993.51, 90.454994 
 0.756000, 1051.33, 90.141006 


data/Experiment/7airplaneU2.pgm
0
3
 0.967000, 1084.36, 98.934998 
 0.967000, 1084.36, 100.362999 
 0.965000, 1086.61, 98.237007 
 1.010000, 1038.19, 98.272995 
 1.021000, 1027.01, 97.699997 
 0.966000, 1085.48, 98.686996 
 0.967000, 1084.36, 100.343994 
 0.979000, 1071.07, 97.968002 
 1.004000, 1044.40, 98.592003 
 1.006000, 1042.32, 97.078003 
9
 6.845000, 153.19, 98.711998 
 6.633000, 158.08, 98.153000 
 6.749000, 155.37, 97.670998 
 6.623000, 158.32, 97.252998 
 7.155000, 146.55, 97.261002 
 7.163000, 146.39, 97.646996 
 6.949000, 150.90, 96.992004 
 6.660000, 157.44, 98.397003 
 6.667000, 157.28, 97.998001 
 6.624000, 158.30, 97.259003 
11
 10.338000, 101.43, 97.041000 
 9.922000, 105.68, 97.310005 
 10.348000, 101.33, 96.834000 
 10.343000, 101.38, 97.508995 
 10.316000, 101.65, 97.119995 
 9.926000, 105.64, 97.313995 
 10.317000, 101.64, 97.269997 
 9.818000, 106.80, 97.826996 
 9.779000, 107.23, 97.743004 
 9.881000, 106.12, 96.980003 
15
 18.680000, 56.13, 98.087997 
 18.681000, 56.13, 97.174004 
 18.761000, 55.89, 99.764000 
 18.962999, 55.30, 96.339005 
 18.657000, 56.20, 99.543999 
 18.743000, 55.94, 96.906006 
 18.629999, 56.28, 97.921005 
 18.672001, 56.16, 96.925003 
 18.761000, 55.89, 98.265999 
 18.591000, 56.40, 98.442001 
1
3
 0.968000, 1083.24, 118.481995 
 0.969000, 1082.12, 97.223000 
 1.004000, 1044.40, 96.970001 
 0.969000, 1082.12, 97.431000 
 0.970000, 1081.01, 98.152000 
 0.969000, 1082.12, 97.045998 
 0.967000, 1084.36, 99.932999 
 0.964000, 1087.73, 97.142006 
 0.967000, 1084.36, 96.866997 
 0.976000, 1074.36, 97.125000 
9
 6.953000, 150.81, 97.286995 
 6.817000, 153.82, 96.449997 
 6.660000, 157.44, 97.393005 
 6.738000, 155.62, 98.165001 
 7.114000, 147.40, 97.109001 
 7.128000, 147.11, 97.243004 
 7.084000, 148.02, 96.015999 
 6.671000, 157.18, 97.521004 
 6.660000, 157.44, 98.813004 
 6.659000, 157.47, 96.809006 
11
 9.886000, 106.07, 95.901001 
 9.822000, 106.76, 96.708000 
 9.831000, 106.66, 98.084999 
 9.886000, 106.07, 96.646996 
 10.452000, 100.32, 96.186005 
 9.917000, 105.74, 96.723000 
 9.814000, 106.84, 98.397995 
 10.347000, 101.34, 98.148003 
 9.781000, 107.21, 97.634003 
 9.877000, 106.16, 97.478004 
15
 18.584999, 56.42, 97.486000 
 18.952999, 55.33, 98.634003 
 18.847000, 55.64, 98.302002 
 18.775000, 55.85, 97.711998 
 18.584000, 56.42, 96.806999 
 18.913000, 55.44, 96.637001 
 18.733999, 55.97, 96.879997 
 19.049999, 55.04, 96.057999 
 18.621000, 56.31, 96.806999 
 18.948999, 55.34, 95.994003 
2
3
 0.977000, 1073.26, 96.184006 
 0.969000, 1082.12, 97.988998 
 0.980000, 1069.98, 97.548996 
 0.966000, 1085.48, 97.108994 
 0.985000, 1064.54, 96.081001 
 0.997000, 1051.73, 98.541000 
 1.020000, 1028.02, 97.380005 
 0.968000, 1083.24, 99.148994 
 0.967000, 1084.36, 100.829994 
 0.967000, 1084.36, 97.173996 


data/Experiment/8bone_scint.pgm
0
3
 1.944000, 1083.12, 133.662003 
 1.947000, 1081.45, 131.686996 
 1.943000, 1083.68, 134.628006 
 1.945000, 1082.56, 131.503998 
 1.943000, 1083.68, 131.388000 
 1.945000, 1082.56, 133.056992 
 1.944000, 1083.12, 131.694000 
 1.941000, 1084.79, 137.674011 
 1.943000, 1083.68, 133.860001 
 1.943000, 1083.68, 132.363007 
9
 13.552000, 155.37, 136.725998 
 13.550000, 155.39, 136.821991 
 13.553000, 155.36, 131.527008 
 13.634000, 154.44, 131.289001 
 13.538000, 155.53, 137.176010 
 13.551000, 155.38, 131.568008 
 13.583000, 155.02, 132.674988 
 13.544000, 155.46, 131.139999 
 14.060000, 149.76, 131.690002 
 13.555000, 155.34, 131.070007 
11
 19.988001, 105.34, 134.118988 
 19.993999, 105.31, 133.875000 
 19.993999, 105.31, 133.873001 
 19.993999, 105.31, 131.630997 
 20.009001, 105.23, 135.080994 
 20.002001, 105.27, 131.595001 
 19.997999, 105.29, 133.690994 
 19.990000, 105.33, 133.388992 
 19.987000, 105.35, 134.862000 
 19.990999, 105.33, 154.514999 
15
 36.992001, 56.92, 132.640991 
 37.009998, 56.89, 132.165009 
 36.993000, 56.92, 133.380997 
 37.004002, 56.90, 132.650009 
 37.000999, 56.91, 130.575989 
 37.028999, 56.86, 130.371002 
 37.798000, 55.71, 132.162003 
 37.127998, 56.71, 131.343994 
 37.000999, 56.91, 130.022003 
 37.110001, 56.74, 129.847000 
1
3
 1.944000, 1083.12, 132.065994 
 1.984000, 1061.28, 132.701004 
 1.944000, 1083.12, 132.615997 
 1.943000, 1083.68, 133.711014 
 1.940000, 1085.35, 133.095993 
 1.940000, 1085.35, 131.199997 
 1.942000, 1084.24, 132.472992 
 1.938000, 1086.47, 131.349991 
 1.941000, 1084.79, 131.754013 
 1.942000, 1084.24, 132.132004 
9
 13.548000, 155.42, 130.614990 
 13.553000, 155.36, 131.182999 
 13.552000, 155.37, 133.084991 
 13.553000, 155.36, 131.980011 
 13.553000, 155.36, 132.253006 
 13.553000, 155.36, 133.270004 
 13.548000, 155.42, 134.964996 
 13.566000, 155.21, 134.960999 
 13.549000, 155.41, 134.641998 
 13.566000, 155.21, 133.841003 
11
 20.004000, 105.26, 131.705002 
 20.011999, 105.22, 133.613007 
 20.013000, 105.21, 133.492004 
 20.291000, 103.77, 133.473007 
 20.018000, 105.18, 131.338989 
 20.003000, 105.26, 132.307999 
 20.059000, 104.97, 133.046997 
 20.533001, 102.55, 132.718994 
 20.011999, 105.22, 131.636002 
 19.996000, 105.30, 131.959991 
15
 37.011002, 56.89, 130.574997 
 37.012001, 56.89, 132.468994 
 37.043999, 56.84, 133.726990 
 37.007000, 56.90, 131.042999 
 37.685001, 55.87, 129.964005 
 37.023998, 56.87, 131.546997 
 37.001999, 56.90, 132.072998 
 37.025002, 56.87, 129.796997 
 37.110001, 56.74, 130.800995 
 37.004002, 56.90, 131.735001 
2
3
 1.942000, 1084.24, 137.434006 
 1.940000, 1085.35, 132.317001 
 1.942000, 1084.24, 133.125992 
 1.944000, 1083.12, 130.804001 
 1.945000, 1082.56, 131.522995 
 1.942000, 1084.24, 132.623001 
 1.943000, 1083.68, 135.425003 
 1.944000, 1083.12, 132.914993 
 1.943000, 1083.68, 131.416000 
 1.986000, 1060.21, 131.455002 


data/Experiment/9blackhole.pgm
0
3
 3.868000, 1116.86, 253.005997 
 3.864000, 1118.01, 200.794998 
 3.878000, 1113.98, 203.197998 
 3.865000, 1117.72, 201.651001 
 3.863000, 1118.30, 200.114990 
 3.868000, 1116.86, 199.330002 
 3.906000, 1105.99, 204.688995 
 3.865000, 1117.72, 221.964996 
 3.867000, 1117.15, 201.360992 
 3.907000, 1105.71, 199.298996 
9
 27.808001, 155.35, 205.097000 
 27.212999, 158.75, 198.886002 
 27.292000, 158.29, 201.362000 
 27.296000, 158.26, 199.095001 
 27.218000, 158.72, 200.091003 
 27.193001, 158.86, 199.851013 
 27.280001, 158.36, 199.149002 
 27.291000, 158.29, 199.550995 
 27.399000, 157.67, 200.177994 
 27.236000, 158.61, 202.351013 
11
 40.841999, 105.77, 202.785004 
 40.285000, 107.24, 201.947998 
 40.254002, 107.32, 201.654007 
 41.029999, 105.29, 202.384003 
 40.199001, 107.47, 205.901993 
 40.150002, 107.60, 202.967987 
 40.165001, 107.56, 199.610992 
 40.165001, 107.56, 203.819000 
 40.193001, 107.48, 199.511993 
 40.290001, 107.22, 200.057007 
15
 76.081001, 56.78, 202.781006 
 74.351997, 58.10, 203.523010 
 74.999001, 57.60, 202.636017 
 74.317001, 58.13, 201.438004 
 74.375999, 58.08, 199.987000 
 74.307999, 58.14, 200.138016 
 74.333000, 58.12, 198.484985 
 74.327003, 58.12, 199.522003 
 74.374001, 58.08, 199.270996 
 74.324997, 58.12, 202.582993 
1
3
 3.865000, 1117.72, 226.904999 
 3.902000, 1107.12, 204.119003 
 3.915000, 1103.45, 202.998001 
 3.967000, 1088.98, 202.470001 
 3.874000, 1115.13, 201.217010 
 3.968000, 1088.71, 200.921005 
 3.866000, 1117.43, 199.740005 
 3.864000, 1118.01, 200.483002 
 3.904000, 1106.56, 199.810989 
 3.977000, 1086.25, 200.759995 
9
 27.889999, 154.89, 198.514008 
 27.299999, 158.24, 202.059998 
 27.166000, 159.02, 204.341003 
 27.277000, 158.38, 201.851013 
 27.299999, 158.24, 211.097992 
 27.815001, 155.31, 202.584000 
 27.181999, 158.93, 202.070007 
 27.188000, 158.89, 203.560989 
 27.302000, 158.23, 197.994995 
 27.202999, 158.81, 204.964005 
11
 40.869999, 105.70, 199.243011 
 40.187000, 107.50, 210.612000 
 41.173000, 104.92, 198.226990 
 40.272999, 107.27, 198.556000 
 40.237000, 107.36, 198.882996 
 40.278999, 107.25, 201.868011 
 40.276001, 107.26, 199.268005 
 40.266998, 107.28, 199.334000 
 40.265999, 107.29, 200.653015 
 40.272999, 107.27, 200.447998 
15
 75.195999, 57.45, 199.938004 
 74.403999, 58.06, 200.826019 
 74.457001, 58.02, 238.027985 
 75.140999, 57.49, 199.867004 
 74.303001, 58.14, 200.619995 
 74.342003, 58.11, 198.938995 
 74.343002, 58.11, 200.344009 
 74.297997, 58.14, 201.231995 
 74.324997, 58.12, 199.815018 
 74.290001, 58.15, 205.862000 
2
3
 3.866000, 1117.43, 201.391006 
 3.865000, 1117.72, 200.925995 
 3.867000, 1117.15, 203.852997 
 3.864000, 1118.01, 206.570999 
 3.868000, 1116.86, 201.482010 
 3.866000, 1117.43, 201.413010 
 3.864000, 1118.01, 200.559998 
 3.913000, 1104.01, 201.792007 
 3.904000, 1106.56, 200.880997 
 3.968000, 1088.71, 199.580994 


data/Experiment/z10_skull.pgm
0
3
 5.832000, 1114.07, 365.881989 
 5.831000, 1114.27, 273.990021 
 5.833000, 1113.88, 271.350983 
 5.832000, 1114.07, 272.569000 
 5.829000, 1114.65, 288.098999 
 5.829000, 1114.65, 285.630981 
 5.829000, 1114.65, 272.438995 
 5.832000, 1114.07, 276.128998 
 5.826000, 1115.22, 275.417023 
 5.829000, 1114.65, 273.052979 
9
 41.186001, 157.75, 271.306000 
 41.182999, 157.77, 270.895020 
 41.174000, 157.80, 270.246979 
 41.165001, 157.84, 271.447998 
 41.148998, 157.90, 279.103027 
 41.161999, 157.85, 274.728027 
 41.168999, 157.82, 271.656006 
 41.166000, 157.83, 295.236023 
 41.869999, 155.18, 271.291992 
 41.171001, 157.81, 275.894012 
11
 60.826000, 106.82, 272.028015 
 60.827000, 106.82, 271.588989 
 60.830002, 106.81, 272.265015 
 60.820000, 106.83, 271.069000 
 60.839001, 106.79, 271.676025 
 61.582001, 105.51, 272.734985 
 60.814999, 106.84, 272.283997 
 60.823002, 106.82, 272.467987 
 60.824001, 106.82, 271.098999 
 60.841000, 106.79, 275.243011 
15
 112.594002, 57.71, 277.890015 
 112.702003, 57.65, 271.800018 
 102.984001, 63.09, 275.782990 
 102.987000, 63.09, 273.980988 
 98.471001, 65.98, 276.595978 
 98.634003, 65.87, 276.259003 
 98.470001, 65.98, 275.579010 
 98.474998, 65.98, 276.988983 
 99.235001, 65.47, 276.005981 
 98.473999, 65.98, 276.609009 
1
3
 5.124000, 1268.01, 271.774994 
 5.121000, 1268.75, 270.876984 
 5.123000, 1268.26, 269.511017 
 5.120000, 1269.00, 270.270020 
 5.119000, 1269.25, 272.671021 
 5.121000, 1268.75, 274.138000 
 5.834000, 1113.69, 273.470978 
 5.830000, 1114.46, 271.692017 
 6.071000, 1070.22, 271.050995 
 5.832000, 1114.07, 273.434998 
9
 41.216000, 157.64, 294.350983 
 41.167999, 157.82, 275.914001 
 41.165001, 157.84, 272.303986 
 41.176998, 157.79, 275.516998 
 41.179001, 157.78, 270.674988 
 41.178001, 157.79, 274.559998 
 41.172001, 157.81, 273.312988 
 41.181000, 157.77, 272.052002 
 41.166000, 157.83, 272.088989 
 41.192001, 157.73, 271.413025 
11
 60.853001, 106.77, 271.817017 
 61.384998, 105.84, 271.595978 
 60.826000, 106.82, 272.529999 
 60.799000, 106.86, 272.151001 
 60.841000, 106.79, 272.648010 
 60.840000, 106.79, 272.582001 
 60.832001, 106.81, 291.632996 
 60.847000, 106.78, 271.901001 
 61.351002, 105.90, 271.513000 
 60.777000, 106.90, 271.595978 
15
 112.614998, 57.69, 271.927002 
 113.474998, 57.26, 270.545990 
 112.706001, 57.65, 287.554993 
 103.043999, 63.05, 271.811981 
 103.166000, 62.98, 270.049011 
 103.009003, 63.07, 285.760986 
 99.105003, 65.56, 269.140991 
 98.466003, 65.99, 270.160004 
 98.471001, 65.98, 271.845001 
 98.484001, 65.97, 270.722992 
2
3
 5.129000, 1266.77, 273.631989 
 5.124000, 1268.01, 272.563019 
 5.127000, 1267.27, 271.783997 
 5.129000, 1266.77, 288.119995 
 5.119000, 1269.25, 271.597015 
 5.119000, 1269.25, 276.740997 
 5.128000, 1267.02, 271.109009 
 5.133000, 1265.79, 271.447998 
 5.121000, 1268.75, 270.958008 
 5.120000, 1269.00, 270.097015 


