data/Experiment/1_cameraman.pgm
0
3
 0.063000, 1040.25, 73.611000 
 0.064000, 1024.00, 67.978996 
 0.062000, 1057.03, 64.131004 
 0.076000, 862.32, 65.533005 
 0.062000, 1057.03, 64.439003 
 0.062000, 1057.03, 64.437004 
 0.062000, 1057.03, 64.066002 
 0.062000, 1057.03, 64.868004 
 0.062000, 1057.03, 63.520000 
 0.062000, 1057.03, 64.045006 
9
 0.273000, 240.06, 63.941998 
 0.272000, 240.94, 65.014999 
 0.271000, 241.83, 63.584999 
 0.283000, 231.58, 65.119003 
 0.273000, 240.06, 64.323997 
 0.270000, 242.73, 65.067001 
 0.274000, 239.18, 64.349998 
 0.271000, 241.83, 64.556000 
 0.271000, 241.83, 64.218994 
 0.272000, 240.94, 64.900993 
11
 0.369000, 177.60, 64.213997 
 0.374000, 175.23, 63.885002 
 0.375000, 174.76, 65.913002 
 0.366000, 179.06, 64.771004 
 0.380000, 172.46, 66.987999 
 0.374000, 175.23, 65.427002 
 0.371000, 176.65, 64.442001 
 0.369000, 177.60, 64.918999 
 0.373000, 175.70, 64.535995 
 0.364000, 180.04, 64.525002 
15
 0.639000, 102.56, 64.207001 
 0.637000, 102.88, 64.245003 
 0.658000, 99.60, 63.410999 
 0.646000, 101.45, 64.692993 
 0.652000, 100.52, 62.619999 
 0.642000, 102.08, 64.330002 
 0.639000, 102.56, 63.059002 
 0.672000, 97.52, 63.757000 
 0.651000, 100.67, 63.434998 
 0.657000, 99.75, 62.959000 
1
3
 0.064000, 1024.00, 66.070999 
 0.062000, 1057.03, 64.954002 
 0.062000, 1057.03, 63.999996 
 0.062000, 1057.03, 63.793999 
 0.062000, 1057.03, 63.644001 
 0.062000, 1057.03, 64.588005 
 0.063000, 1040.25, 63.900002 
 0.062000, 1057.03, 64.298004 
 0.064000, 1024.00, 63.972004 
 0.062000, 1057.03, 65.262001 
9
 0.275000, 238.31, 63.495998 
 0.272000, 240.94, 64.261993 
 0.271000, 241.83, 64.127998 
 0.272000, 240.94, 63.882999 
 0.271000, 241.83, 63.386002 
 0.274000, 239.18, 64.854996 
 0.273000, 240.06, 65.277000 
 0.272000, 240.94, 64.983994 
 0.270000, 242.73, 64.688004 
 0.272000, 240.94, 64.726997 
11
 0.378000, 173.38, 63.975998 
 0.377000, 173.84, 65.480003 
 0.365000, 179.55, 64.083000 
 0.371000, 176.65, 64.528999 
 0.375000, 174.76, 63.966003 
 0.368000, 178.09, 64.886002 
 0.379000, 172.92, 63.514999 
 0.368000, 178.09, 64.889008 
 0.371000, 176.65, 64.675995 
 0.367000, 178.57, 64.154007 
15
 0.637000, 102.88, 64.140999 
 0.638000, 102.72, 64.520996 
 0.639000, 102.56, 64.212997 
 0.847000, 77.37, 65.068001 
 0.640000, 102.40, 63.985001 
 0.664000, 98.70, 64.766998 
 0.641000, 102.24, 63.792000 
 0.638000, 102.72, 64.512001 
 0.643000, 101.92, 63.936001 
 0.645000, 101.61, 64.488007 
2
3
 0.062000, 1057.03, 63.554001 
 0.063000, 1040.25, 65.560997 
 0.062000, 1057.03, 63.216999 
 0.062000, 1057.03, 65.384003 
 0.063000, 1040.25, 63.848000 
 0.062000, 1057.03, 66.480003 
 0.063000, 1040.25, 64.212997 
 0.062000, 1057.03, 65.863007 
 0.062000, 1057.03, 63.969997 
 0.062000, 1057.03, 65.003006 


data/Experiment/2bird2.pgm
0
3
 0.155000, 1451.61, 69.549004 
 0.154000, 1461.04, 69.857002 
 0.153000, 1470.59, 70.294998 
 0.155000, 1451.61, 70.228004 
 0.154000, 1461.04, 70.007004 
 0.154000, 1461.04, 70.082001 
 0.153000, 1470.59, 70.820999 
 0.155000, 1451.61, 70.110001 
 0.155000, 1451.61, 69.869003 
 0.154000, 1461.04, 69.917999 
9
 0.871000, 258.32, 69.643997 
 0.868000, 259.22, 70.358002 
 0.875000, 257.14, 70.080002 
 0.870000, 258.62, 70.464996 
 0.869000, 258.92, 70.519997 
 0.867000, 259.52, 69.694000 
 0.869000, 258.92, 68.876999 
 0.875000, 257.14, 69.575996 
 0.871000, 258.32, 70.369995 
 0.870000, 258.62, 72.138000 
11
 1.140000, 197.37, 70.409004 
 1.125000, 200.00, 71.874001 
 1.128000, 199.47, 70.542999 
 1.147000, 196.16, 70.177994 
 1.162000, 193.63, 70.078995 
 1.140000, 197.37, 71.012001 
 1.174000, 191.65, 69.381996 
 1.147000, 196.16, 69.350998 
 1.150000, 195.65, 69.053001 
 1.153000, 195.14, 69.494003 
15
 2.099000, 107.19, 69.190002 
 2.081000, 108.12, 69.786995 
 2.171000, 103.64, 68.934006 
 2.073000, 108.54, 69.540001 
 2.150000, 104.65, 69.659996 
 2.099000, 107.19, 69.399002 
 2.107000, 106.79, 69.336998 
 2.103000, 106.99, 69.296005 
 2.128000, 105.73, 68.898003 
 2.167000, 103.83, 68.847000 
1
3
 0.154000, 1461.04, 69.803001 
 0.154000, 1461.04, 69.486000 
 0.154000, 1461.04, 68.994003 
 0.154000, 1461.04, 69.834000 
 0.153000, 1470.59, 69.036003 
 0.153000, 1470.59, 69.695999 
 0.154000, 1461.04, 69.764000 
 0.155000, 1451.61, 70.245003 
 0.154000, 1461.04, 69.212997 
 0.153000, 1470.59, 69.690002 
9
 0.872000, 258.03, 69.555000 
 0.873000, 257.73, 72.183998 
 0.871000, 258.32, 69.766998 
 0.868000, 259.22, 69.898003 
 0.869000, 258.92, 70.024994 
 0.869000, 258.92, 71.006996 
 0.875000, 257.14, 69.713997 
 0.869000, 258.92, 69.702995 
 0.884000, 254.52, 69.327995 
 0.871000, 258.32, 69.961998 
11
 1.144000, 196.68, 70.106003 
 1.147000, 196.16, 70.486000 
 1.163000, 193.47, 69.916000 
 1.133000, 198.59, 69.935997 
 1.111000, 202.52, 70.315002 
 1.123000, 200.36, 70.056999 
 1.135000, 198.24, 69.912994 
 1.128000, 199.47, 69.877998 
 1.141000, 197.20, 69.849998 
 1.133000, 198.59, 70.382996 
15
 2.092000, 107.55, 69.445999 
 2.101000, 107.09, 69.424004 
 2.078000, 108.28, 69.545998 
 2.133000, 105.49, 69.604996 
 2.407000, 93.48, 71.296005 
 2.121000, 106.08, 69.269997 
 2.102000, 107.04, 70.083000 
 2.081000, 108.12, 69.468002 
 2.172000, 103.59, 69.690002 
 2.099000, 107.19, 69.591003 
2
3
 0.154000, 1461.04, 70.000999 
 0.154000, 1461.04, 70.906998 
 0.154000, 1461.04, 69.201004 
 0.153000, 1470.59, 69.404999 
 0.154000, 1461.04, 69.471001 
 0.155000, 1451.61, 70.330002 
 0.155000, 1451.61, 69.562004 
 0.156000, 1442.31, 70.370003 
 0.154000, 1461.04, 69.777000 
 0.168000, 1339.29, 69.932999 


data/Experiment/3lena_bw.pgm
0
3
 0.179000, 1464.49, 71.056999 
 0.178000, 1472.72, 70.818001 
 0.184000, 1424.70, 70.706001 
 0.177000, 1481.04, 71.595001 
 0.178000, 1472.72, 70.491997 
 0.178000, 1472.72, 72.050995 
 0.179000, 1464.49, 71.131996 
 0.178000, 1472.72, 71.638000 
 0.179000, 1464.49, 72.613998 
 0.178000, 1472.72, 71.522995 
9
 1.007000, 260.32, 73.610992 
 1.004000, 261.10, 71.125000 
 1.006000, 260.58, 71.385002 
 1.010000, 259.55, 71.196999 
 1.008000, 260.06, 72.167000 
 1.006000, 260.58, 71.485001 
 1.002000, 261.62, 72.307999 
 1.016000, 258.02, 70.690002 
 1.005000, 260.84, 72.110001 
 1.003000, 261.36, 70.590004 
11
 1.327000, 197.55, 71.718994 
 1.299000, 201.80, 73.449997 
 1.304000, 201.03, 70.635002 
 1.330000, 197.10, 71.550995 
 1.291000, 203.05, 72.087997 
 1.512000, 173.38, 71.042000 
 1.328000, 197.40, 71.212997 
 1.300000, 201.65, 72.503998 
 1.466000, 178.82, 71.366997 
 1.318000, 198.90, 70.870003 
15
 2.443000, 107.30, 73.483002 
 2.416000, 108.50, 70.459000 
 2.406000, 108.95, 71.902000 
 2.452000, 106.91, 70.675995 
 2.611000, 100.40, 71.653999 
 2.427000, 108.01, 71.529999 
 2.601000, 100.79, 72.408005 
 2.494000, 105.11, 70.840996 
 2.557000, 102.52, 72.036003 
 2.398000, 109.32, 71.457001 
1
3
 0.178000, 1472.72, 72.305000 
 0.177000, 1481.04, 71.882996 
 0.177000, 1481.04, 73.254997 
 0.178000, 1472.72, 70.799995 
 0.180000, 1456.36, 71.457001 
 0.177000, 1481.04, 70.863998 
 0.178000, 1472.72, 72.544998 
 0.175000, 1497.97, 71.083000 
 0.179000, 1464.49, 74.011002 
 0.176000, 1489.45, 71.155998 
9
 1.008000, 260.06, 72.220993 
 1.005000, 260.84, 72.407005 
 1.005000, 260.84, 72.236000 
 1.006000, 260.58, 71.684006 
 1.009000, 259.81, 71.104996 
 1.012000, 259.04, 70.264999 
 1.009000, 259.81, 72.120995 
 1.008000, 260.06, 71.562996 
 1.006000, 260.58, 71.865005 
 1.005000, 260.84, 72.893005 
11
 1.342000, 195.34, 71.381996 
 1.314000, 199.50, 71.634995 
 1.341000, 195.48, 71.229996 
 1.335000, 196.36, 72.973999 
 1.298000, 201.96, 71.533005 
 1.360000, 192.75, 70.559998 
 1.304000, 201.03, 71.359001 
 1.316000, 199.20, 71.384995 
 1.316000, 199.20, 71.861000 
 1.292000, 202.90, 72.724998 
15
 2.392000, 109.59, 71.131004 
 2.461000, 106.52, 72.313004 
 2.633000, 99.56, 71.490997 
 2.409000, 108.82, 70.597000 
 2.793000, 93.86, 71.680000 
 2.421000, 108.28, 73.281006 
 2.422000, 108.23, 74.175003 
 2.408000, 108.86, 70.905006 
 2.460000, 106.56, 72.302002 
 2.421000, 108.28, 71.845001 
2
3
 0.179000, 1464.49, 72.357002 
 0.178000, 1472.72, 72.154999 
 0.178000, 1472.72, 72.900002 
 0.177000, 1481.04, 71.067001 
 0.179000, 1464.49, 72.435997 
 0.177000, 1481.04, 71.661995 
 0.179000, 1464.49, 72.387001 
 0.178000, 1472.72, 70.987000 
 0.179000, 1464.49, 71.028000 
 0.176000, 1489.45, 71.533997 


data/Experiment/4zelda2.pgm
0
3
 0.269000, 1541.71, 78.350006 
 0.269000, 1541.71, 76.440002 
 0.267000, 1553.26, 77.880005 
 0.267000, 1553.26, 77.602005 
 0.267000, 1553.26, 77.403999 
 0.267000, 1553.26, 76.807999 
 0.268000, 1547.46, 76.868004 
 0.269000, 1541.71, 77.339005 
 0.266000, 1559.10, 76.862000 
 0.269000, 1541.71, 78.332001 
9
 1.582000, 262.15, 76.643997 
 1.579000, 262.65, 77.418999 
 1.583000, 261.98, 77.560997 
 1.579000, 262.65, 77.076996 
 1.577000, 262.98, 77.175995 
 1.577000, 262.98, 77.273994 
 1.577000, 262.98, 76.040993 
 1.582000, 262.15, 77.645996 
 1.577000, 262.98, 78.117996 
 1.577000, 262.98, 77.806999 
11
 2.014000, 205.92, 78.190002 
 2.025000, 204.80, 77.337997 
 2.055000, 201.81, 78.403999 
 2.046000, 202.70, 76.498001 
 1.993000, 208.09, 76.636993 
 2.029000, 204.40, 76.424004 
 2.028000, 204.50, 103.732002 
 2.032000, 204.09, 76.034004 
 2.000000, 207.36, 78.925003 
 2.017000, 205.61, 76.487999 
15
 3.991000, 103.91, 75.587006 
 3.815000, 108.71, 75.346001 
 3.928000, 105.58, 77.462997 
 3.836000, 108.11, 75.312004 
 3.825000, 108.42, 76.397003 
 3.804000, 109.02, 76.363998 
 3.830000, 108.28, 76.487000 
 3.825000, 108.42, 75.534004 
 3.980000, 104.20, 77.424995 
 3.813000, 108.76, 77.174995 
1
3
 0.277000, 1497.18, 78.070999 
 0.269000, 1541.71, 75.105003 
 0.279000, 1486.45, 77.217003 
 0.268000, 1547.46, 75.375999 
 0.267000, 1553.26, 77.666000 
 0.266000, 1559.10, 74.461998 
 0.277000, 1497.18, 76.162003 
 0.266000, 1559.10, 74.623001 
 0.268000, 1547.46, 76.009003 
 0.266000, 1559.10, 75.428001 
9
 1.702000, 243.67, 77.196999 
 1.680000, 246.86, 75.282997 
 1.583000, 261.98, 76.745003 
 1.577000, 262.98, 75.348999 
 1.693000, 244.96, 76.856003 
 1.582000, 262.15, 77.184998 
 1.587000, 261.32, 76.831001 
 1.578000, 262.81, 75.799995 
 1.578000, 262.81, 78.050995 
 1.581000, 262.32, 75.390999 
11
 2.016000, 205.71, 78.187004 
 2.011000, 206.23, 77.001999 
 2.026000, 204.70, 78.307999 
 2.018000, 205.51, 76.335999 
 2.046000, 202.70, 77.409004 
 1.993000, 208.09, 76.873993 
 2.002000, 207.15, 77.606003 
 2.019000, 205.41, 76.215004 
 2.047000, 202.60, 78.669006 
 2.029000, 204.40, 76.445000 
15
 3.881000, 106.86, 78.437004 
 3.920000, 105.80, 76.389000 
 3.816000, 108.68, 78.202995 
 3.813000, 108.76, 76.637993 
 3.814000, 108.74, 78.448997 
 3.823000, 108.48, 76.897003 
 4.085000, 101.52, 77.281998 
 3.798000, 109.19, 76.207001 
 3.842000, 107.94, 77.653999 
 3.856000, 107.55, 76.002998 
2
3
 0.269000, 1541.71, 77.045006 
 0.267000, 1553.26, 75.808998 
 0.268000, 1547.46, 77.024002 
 0.269000, 1541.71, 75.903000 
 0.270000, 1536.00, 76.689003 
 0.268000, 1547.46, 77.753006 
 0.268000, 1547.46, 76.774002 
 0.267000, 1553.26, 75.449005 
 0.268000, 1547.46, 77.732002 
 0.267000, 1553.26, 75.872002 


data/Experiment/5ultrasound.pgm
0
3
 0.338000, 1580.81, 80.491005 
 0.340000, 1571.51, 82.828003 
 0.338000, 1580.81, 84.733002 
 0.339000, 1576.15, 80.430000 
 0.337000, 1585.50, 80.355003 
 0.339000, 1576.15, 82.202003 
 0.339000, 1576.15, 81.345001 
 0.340000, 1571.51, 80.930000 
 0.339000, 1576.15, 79.559006 
 0.338000, 1580.81, 81.106003 
9
 2.023000, 264.12, 80.083000 
 2.025000, 263.86, 79.733002 
 2.023000, 264.12, 80.888000 
 2.026000, 263.73, 79.835999 
 2.023000, 264.12, 80.125999 
 2.028000, 263.47, 81.848999 
 2.024000, 263.99, 80.129997 
 2.026000, 263.73, 80.037003 
 2.026000, 263.73, 82.047997 
 2.034000, 262.69, 82.550003 
11
 2.618000, 204.09, 80.766006 
 2.569000, 207.99, 81.041000 
 2.573000, 207.66, 80.724998 
 2.568000, 208.07, 81.226997 
 2.601000, 205.43, 80.418999 
 2.565000, 208.31, 81.782997 
 2.571000, 207.82, 79.939003 
 2.739000, 195.08, 80.276001 
 2.563000, 208.47, 81.639999 
 2.779000, 192.27, 79.372002 
15
 4.904000, 108.95, 79.792999 
 4.934000, 108.29, 80.547005 
 5.073000, 105.33, 80.213005 
 5.105000, 104.67, 81.166000 
 4.902000, 109.00, 81.153000 
 4.938000, 108.20, 89.530998 
 4.877000, 109.56, 83.369003 
 4.901000, 109.02, 80.422997 
 4.962000, 107.68, 79.611000 
 5.100000, 104.77, 80.510002 
1
3
 0.340000, 1571.51, 106.519005 
 0.339000, 1576.15, 79.994003 
 0.340000, 1571.51, 80.345001 
 0.340000, 1571.51, 80.168007 
 0.338000, 1580.81, 84.108002 
 0.339000, 1576.15, 81.930000 
 0.339000, 1576.15, 80.196007 
 0.340000, 1571.51, 79.194000 
 0.338000, 1580.81, 81.034004 
 0.339000, 1576.15, 79.919006 
9
 2.031000, 263.08, 83.890999 
 2.025000, 263.86, 80.186996 
 2.031000, 263.08, 80.875000 
 2.148000, 248.75, 80.448997 
 2.029000, 263.34, 81.104004 
 2.150000, 248.52, 79.585999 
 2.027000, 263.60, 81.153000 
 2.034000, 262.69, 81.338005 
 2.022000, 264.25, 80.857994 
 2.022000, 264.25, 80.009995 
11
 2.581000, 207.02, 80.211998 
 2.582000, 206.94, 80.108002 
 2.594000, 205.98, 80.985001 
 2.568000, 208.07, 81.136002 
 2.589000, 206.38, 80.341003 
 2.595000, 205.90, 80.530998 
 2.739000, 195.08, 81.481003 
 2.584000, 206.78, 80.411003 
 2.767000, 193.10, 79.903000 
 2.581000, 207.02, 80.038002 
15
 5.158000, 103.59, 80.203003 
 4.986000, 107.16, 82.235001 
 4.934000, 108.29, 80.548004 
 4.931000, 108.36, 80.620003 
 5.139000, 103.97, 81.364998 
 4.957000, 107.79, 82.139999 
 4.893000, 109.20, 81.851006 
 4.974000, 107.42, 79.653999 
 4.992000, 107.03, 78.883003 
 4.934000, 108.29, 80.535004 
2
3
 0.341000, 1566.91, 79.520996 
 0.338000, 1580.81, 81.181000 
 0.338000, 1580.81, 80.544006 
 0.338000, 1580.81, 81.250999 
 0.345000, 1548.74, 80.660995 
 0.340000, 1571.51, 80.676003 
 0.340000, 1571.51, 80.177002 
 0.339000, 1576.15, 80.054001 
 0.340000, 1571.51, 80.818001 
 0.338000, 1580.81, 81.281006 


data/Experiment/6shoulderCR.pgm
0
3
 0.493000, 1612.19, 89.774002 
 0.492000, 1615.46, 89.977005 
 0.493000, 1612.19, 89.092003 
 0.492000, 1615.46, 88.825005 
 0.492000, 1615.46, 88.385002 
 0.493000, 1612.19, 88.329002 
 0.491000, 1618.75, 88.693001 
 0.492000, 1615.46, 89.235001 
 0.491000, 1618.75, 89.582001 
 0.494000, 1608.92, 90.486000 
9
 3.121000, 254.66, 89.686996 
 3.000000, 264.94, 91.575996 
 3.002000, 264.76, 90.320000 
 3.007000, 264.32, 90.690002 
 2.994000, 265.47, 90.841995 
 2.993000, 265.56, 89.908997 
 3.124000, 254.42, 90.897003 
 2.996000, 265.29, 90.627998 
 3.011000, 263.97, 90.681999 
 2.997000, 265.20, 90.891998 
11
 4.135000, 192.21, 91.940994 
 3.736000, 212.74, 88.107002 
 3.776000, 210.49, 88.589996 
 3.801000, 209.10, 89.598000 
 3.785000, 209.99, 89.441994 
 3.810000, 208.61, 90.275002 
 3.986000, 199.40, 90.077003 
 3.773000, 210.66, 90.086998 
 3.783000, 210.10, 90.363007 
 3.764000, 211.16, 90.165001 
15
 7.612000, 104.42, 90.982002 
 7.460000, 106.54, 90.652000 
 7.923000, 100.32, 89.456001 
 7.568000, 105.02, 89.723999 
 7.248000, 109.66, 90.991997 
 7.507000, 105.88, 90.059998 
 7.459000, 106.56, 89.042000 
 7.665000, 103.69, 89.951996 
 7.452000, 106.66, 90.300995 
 7.489000, 106.13, 88.784004 
1
3
 0.491000, 1618.75, 89.692001 
 0.493000, 1612.19, 89.678001 
 0.493000, 1612.19, 89.359001 
 0.492000, 1615.46, 89.065002 
 0.488000, 1628.70, 89.515999 
 0.492000, 1615.46, 89.250000 
 0.491000, 1618.75, 89.964005 
 0.494000, 1608.92, 109.896996 
 0.491000, 1618.75, 90.500999 
 0.492000, 1615.46, 90.699005 
9
 3.007000, 264.32, 93.018005 
 2.996000, 265.29, 92.417999 
 2.997000, 265.20, 90.451996 
 3.117000, 254.99, 89.856003 
 2.995000, 265.38, 89.848000 
 2.997000, 265.20, 89.019997 
 3.009000, 264.14, 90.459000 
 2.998000, 265.11, 90.196999 
 2.996000, 265.29, 89.349998 
 2.998000, 265.11, 89.351997 
11
 3.968000, 200.30, 89.740997 
 3.766000, 211.05, 90.783005 
 3.751000, 211.89, 89.764000 
 3.753000, 211.78, 89.195000 
 3.720000, 213.66, 90.292000 
 3.961000, 200.66, 90.619003 
 3.780000, 210.27, 90.294998 
 3.818000, 208.17, 89.777000 
 3.823000, 207.90, 89.912003 
 3.729000, 213.14, 89.475006 
15
 7.613000, 104.40, 90.125999 
 7.268000, 109.36, 89.409004 
 7.459000, 106.56, 90.417999 
 7.580000, 104.86, 88.193001 
 7.269000, 109.34, 89.437004 
 7.683000, 103.45, 89.818001 
 7.525000, 105.62, 90.113998 
 7.250000, 109.63, 89.510002 
 7.860000, 101.12, 90.945999 
 7.530000, 105.55, 88.912003 
2
3
 0.501000, 1586.44, 89.514999 
 0.493000, 1612.19, 88.978004 
 0.494000, 1608.92, 91.038994 
 0.492000, 1615.46, 90.755005 
 0.493000, 1612.19, 92.084007 
 0.491000, 1618.75, 89.092003 
 0.493000, 1612.19, 88.927002 
 0.493000, 1612.19, 88.516006 
 0.496000, 1602.44, 89.520996 
 0.493000, 1612.19, 89.393005 


data/Experiment/7airplaneU2.pgm
0
3
 0.638000, 1643.54, 97.973000 
 0.639000, 1640.96, 97.503998 
 0.640000, 1638.40, 96.961998 
 0.642000, 1633.30, 99.081001 
 0.639000, 1640.96, 98.360001 
 0.638000, 1643.54, 101.625000 
 0.636000, 1648.70, 97.852997 
 0.646000, 1623.18, 98.417000 
 0.639000, 1640.96, 99.140999 
 0.639000, 1640.96, 97.476997 
9
 4.063000, 258.08, 98.378998 
 4.671000, 224.49, 97.547005 
 4.214000, 248.83, 97.880005 
 3.944000, 265.87, 98.313004 
 3.954000, 265.19, 96.530998 
 4.340000, 241.61, 97.222000 
 4.051000, 258.84, 98.093994 
 4.068000, 257.76, 97.556999 
 4.551000, 230.41, 98.575996 
 4.178000, 250.98, 97.212997 
11
 4.933000, 212.56, 97.939003 
 5.168000, 202.90, 97.096001 
 5.358000, 195.70, 98.223999 
 5.194000, 201.88, 96.691002 
 4.956000, 211.58, 98.532997 
 4.996000, 209.88, 98.142998 
 5.785000, 181.26, 98.069000 
 5.376000, 195.05, 98.079002 
 4.968000, 211.07, 99.000999 
 4.972000, 210.90, 99.058998 
15
 10.384000, 100.98, 97.446999 
 9.750000, 107.55, 98.054001 
 9.730000, 107.77, 98.945999 
 9.541000, 109.90, 97.793999 
 9.545000, 109.86, 98.444000 
 9.767000, 107.36, 96.972000 
 9.632000, 108.86, 97.725006 
 9.953000, 105.35, 98.674995 
 9.632000, 108.86, 98.811996 
 9.958000, 105.30, 98.620003 
1
3
 0.641000, 1635.84, 98.683998 
 0.637000, 1646.12, 97.679001 
 0.641000, 1635.84, 97.939003 
 0.642000, 1633.30, 99.895004 
 0.644000, 1628.22, 98.041000 
 0.639000, 1640.96, 97.251999 
 0.644000, 1628.22, 98.202003 
 0.638000, 1643.54, 96.973000 
 0.638000, 1643.54, 97.100998 
 0.639000, 1640.96, 96.667999 
9
 4.076000, 257.26, 97.033997 
 4.542000, 230.86, 98.371002 
 4.057000, 258.46, 97.017998 
 4.066000, 257.89, 97.959000 
 4.511000, 232.45, 99.278999 
 4.064000, 258.02, 97.408997 
 4.052000, 258.78, 99.031998 
 3.950000, 265.46, 97.912003 
 4.557000, 230.10, 96.844002 
 4.169000, 251.52, 96.821999 
11
 5.100000, 205.60, 97.625000 
 5.769000, 181.76, 97.869003 
 5.638000, 185.98, 97.441002 
 5.399000, 194.22, 97.075996 
 5.159000, 203.25, 97.968002 
 5.116000, 204.96, 97.822006 
 5.226000, 200.65, 123.693008 
 4.971000, 210.94, 96.517998 
 5.529000, 189.65, 96.378998 
 4.932000, 212.61, 97.754997 
15
 9.759000, 107.45, 97.672997 
 9.734000, 107.72, 98.077995 
 9.596000, 109.27, 97.348000 
 9.786000, 107.15, 96.733994 
 9.678000, 108.35, 97.267998 
 9.571000, 109.56, 97.143997 
 9.805000, 106.94, 99.279999 
 9.813000, 106.86, 99.410995 
 10.662000, 98.35, 99.090996 
 10.934000, 95.90, 100.229004 
2
3
 0.634000, 1653.91, 98.487999 
 0.640000, 1638.40, 98.994003 
 0.637000, 1646.12, 98.904999 
 0.637000, 1646.12, 97.462997 
 0.649000, 1615.68, 97.309998 
 0.637000, 1646.12, 98.262001 
 0.649000, 1615.68, 96.976997 
 0.639000, 1640.96, 97.047997 
 0.641000, 1635.84, 96.595001 
 0.642000, 1633.30, 97.709999 


data/Experiment/8bone_scint.pgm
0
3
 1.263000, 1667.13, 133.397003 
 1.260000, 1671.10, 133.912003 
 1.259000, 1672.43, 131.869995 
 1.259000, 1672.43, 132.533005 
 1.262000, 1668.45, 132.417999 
 1.260000, 1671.10, 131.637009 
 1.260000, 1671.10, 132.850998 
 1.256000, 1676.42, 131.928009 
 1.260000, 1671.10, 132.796005 
 1.262000, 1668.45, 132.348999 
9
 7.902000, 266.46, 133.035004 
 7.894000, 266.73, 133.486008 
 7.906000, 266.33, 135.409988 
 8.056000, 261.37, 132.544998 
 7.907000, 266.29, 132.600006 
 7.908000, 266.26, 131.957001 
 7.906000, 266.33, 132.660995 
 7.907000, 266.29, 133.093002 
 7.906000, 266.33, 134.011993 
 7.909000, 266.23, 132.330002 
11
 9.857000, 213.61, 133.110001 
 11.193000, 188.12, 132.594009 
 9.830000, 214.20, 135.352005 
 9.830000, 214.20, 134.007996 
 9.889000, 212.92, 134.510010 
 10.918000, 192.85, 134.246002 
 9.794000, 214.99, 134.631989 
 9.855000, 213.66, 131.975006 
 9.900000, 212.69, 134.125000 
 9.822000, 214.37, 131.856995 
15
 19.084000, 110.33, 134.878006 
 19.275999, 109.23, 138.503998 
 19.298000, 109.11, 135.488998 
 19.332001, 108.92, 133.356003 
 19.351000, 108.81, 135.158005 
 19.153000, 109.93, 132.214996 
 19.334000, 108.91, 133.533997 
 19.247999, 109.39, 133.664993 
 19.302000, 109.09, 132.455994 
 19.236000, 109.46, 132.549011 
1
3
 1.262000, 1668.45, 132.802002 
 1.260000, 1671.10, 132.967010 
 1.254000, 1679.09, 132.872009 
 1.258000, 1673.76, 133.820007 
 1.258000, 1673.76, 132.306000 
 1.254000, 1679.09, 133.145996 
 1.255000, 1677.76, 133.580994 
 1.259000, 1672.43, 132.828995 
 1.257000, 1675.09, 132.235001 
 1.255000, 1677.76, 132.381989 
9
 7.908000, 266.26, 133.545990 
 7.906000, 266.33, 137.990997 
 7.913000, 266.09, 133.021011 
 7.914000, 266.06, 133.123001 
 7.916000, 265.99, 133.839005 
 7.908000, 266.26, 134.075989 
 7.914000, 266.06, 135.313004 
 7.912000, 266.13, 133.576996 
 7.907000, 266.29, 133.594009 
 7.909000, 266.23, 131.264999 
11
 9.813000, 214.57, 133.326996 
 9.874000, 213.25, 133.959000 
 9.806000, 214.72, 131.817001 
 9.875000, 213.22, 133.104996 
 9.822000, 214.37, 132.071991 
 9.885000, 213.01, 132.479004 
 9.823000, 214.35, 133.559006 
 9.803000, 214.79, 133.174011 
 9.837000, 214.05, 132.013000 
 9.870000, 213.33, 132.858002 
15
 19.315001, 109.01, 162.834991 
 19.311001, 109.04, 133.546997 
 20.298000, 103.73, 133.019989 
 19.239000, 109.44, 132.819000 
 19.351000, 108.81, 133.203995 
 19.271000, 109.26, 133.957001 
 19.207001, 109.63, 133.149002 
 19.235001, 109.47, 132.483994 
 19.285999, 109.18, 134.076004 
 19.105000, 110.21, 134.100998 
2
3
 1.258000, 1673.76, 134.163010 
 1.257000, 1675.09, 132.531998 
 1.258000, 1673.76, 133.518997 
 1.259000, 1672.43, 133.339005 
 1.260000, 1671.10, 132.694000 
 1.262000, 1668.45, 133.177002 
 1.258000, 1673.76, 131.816010 
 1.258000, 1673.76, 132.826004 
 1.258000, 1673.76, 132.484009 
 1.260000, 1671.10, 132.945999 


data/Experiment/9blackhole.pgm
0
3
 2.519000, 1714.97, 274.072998 
 2.520000, 1714.29, 207.705002 
 2.519000, 1714.97, 202.988998 
 2.518000, 1715.65, 202.444000 
 2.523000, 1712.25, 203.335007 
 2.520000, 1714.29, 202.453995 
 2.522000, 1712.93, 206.380997 
 2.520000, 1714.29, 206.278992 
 2.521000, 1713.61, 203.925003 
 2.519000, 1714.97, 205.861008 
9
 16.438999, 262.79, 217.167999 
 17.164000, 251.69, 204.923996 
 16.197001, 266.72, 207.112000 
 16.195000, 266.75, 205.131989 
 16.194000, 266.77, 204.785004 
 16.191999, 266.80, 207.108994 
 16.195999, 266.73, 203.313995 
 16.308001, 264.90, 203.983002 
 16.305000, 264.95, 202.132996 
 16.195000, 266.75, 202.617004 
11
 21.400000, 201.87, 204.898010 
 20.166000, 214.22, 205.766006 
 21.365999, 202.19, 219.135010 
 21.361000, 202.24, 205.947998 
 20.343000, 212.36, 202.923996 
 20.396000, 211.81, 201.809998 
 20.264999, 213.18, 203.052002 
 20.302000, 212.79, 201.354996 
 20.197001, 213.89, 202.457001 
 20.187000, 214.00, 203.376999 
15
 40.571999, 106.48, 203.588989 
 39.512001, 109.33, 205.178009 
 39.631001, 109.01, 205.132004 
 39.499001, 109.37, 201.170013 
 39.291000, 109.95, 202.024994 
 40.676998, 106.20, 204.979004 
 39.333000, 109.83, 206.316010 
 41.143002, 105.00, 203.259995 
 39.431000, 109.56, 206.100006 
 39.404999, 109.63, 213.718994 
1
3
 2.518000, 1715.65, 204.599991 
 2.519000, 1714.97, 202.999008 
 2.622000, 1647.60, 202.838013 
 2.621000, 1648.23, 202.367004 
 2.524000, 1711.57, 203.947998 
 2.521000, 1713.61, 203.028000 
 2.518000, 1715.65, 204.666992 
 2.520000, 1714.29, 204.312988 
 2.520000, 1714.29, 203.744003 
 2.518000, 1715.65, 201.863998 
9
 16.306000, 264.93, 201.998993 
 16.195999, 266.73, 204.037994 
 16.306000, 264.93, 203.908997 
 16.304001, 264.97, 204.595993 
 16.194000, 266.77, 204.112000 
 16.194000, 266.77, 202.477005 
 16.283001, 265.31, 204.106003 
 16.302999, 264.98, 202.088013 
 16.197001, 266.72, 202.203995 
 16.198999, 266.68, 202.095993 
11
 20.509001, 210.64, 201.822998 
 20.358999, 212.19, 205.812012 
 20.219000, 213.66, 205.247009 
 20.128000, 214.63, 205.522995 
 20.193001, 213.94, 204.196991 
 20.261999, 213.21, 205.655014 
 20.253000, 213.30, 203.354996 
 20.230000, 213.54, 203.145004 
 20.209000, 213.77, 204.567001 
 20.233000, 213.51, 229.955002 
15
 41.084000, 105.15, 202.483002 
 39.702000, 108.81, 203.800003 
 39.479000, 109.43, 201.978989 
 39.833000, 108.45, 201.964996 
 39.262001, 110.03, 205.208008 
 39.446999, 109.51, 202.540009 
 40.599998, 106.40, 202.348999 
 39.778000, 108.60, 205.966995 
 39.661999, 108.92, 203.852997 
 39.327000, 109.85, 203.678009 
2
3
 2.518000, 1715.65, 208.136993 
 2.521000, 1713.61, 206.225998 
 2.519000, 1714.97, 202.404999 
 2.519000, 1714.97, 202.942001 
 2.518000, 1715.65, 204.712997 
 2.519000, 1714.97, 203.378006 
 2.522000, 1712.93, 203.584000 
 2.520000, 1714.29, 203.030991 
 2.523000, 1712.25, 207.059998 
 2.517000, 1716.33, 203.960999 


data/Experiment/z10_skull.pgm
0
3
 3.807000, 1706.67, 388.873993 
 4.043000, 1607.04, 272.843994 
 3.807000, 1706.67, 272.983978 
 3.803000, 1708.46, 273.914001 
 3.797000, 1711.16, 277.615997 
 3.816000, 1702.64, 274.535980 
 3.802000, 1708.91, 289.467987 
 3.801000, 1709.36, 273.513000 
 3.807000, 1706.67, 274.229004 
 3.809000, 1705.77, 278.016022 
9
 24.371000, 266.60, 271.940002 
 24.381001, 266.49, 276.908997 
 24.355000, 266.77, 274.058990 
 24.368999, 266.62, 275.016998 
 24.356001, 266.76, 275.179016 
 24.368999, 266.62, 280.056000 
 24.368000, 266.63, 276.192993 
 24.462000, 265.61, 273.230988 
 24.368000, 266.63, 277.660004 
 25.235001, 257.47, 273.093018 
11
 30.444000, 213.42, 274.579987 
 30.686001, 211.73, 276.618988 
 30.450001, 213.38, 291.651978 
 30.424000, 213.56, 273.084991 
 30.488001, 213.11, 273.877991 
 30.440001, 213.45, 278.703003 
 30.520000, 212.89, 277.589020 
 30.458000, 213.32, 278.397003 
 30.431000, 213.51, 274.347015 
 31.544001, 205.98, 273.566986 
15
 59.452000, 109.29, 305.057007 
 59.599998, 109.01, 271.946991 
 59.132999, 109.88, 273.911011 
 59.278999, 109.61, 272.714020 
 59.293999, 109.58, 275.804993 
 59.373001, 109.43, 272.765991 
 60.983002, 106.54, 272.329010 
 59.448002, 109.29, 274.393005 
 59.257999, 109.64, 276.085999 
 59.039001, 110.05, 276.770996 
1
3
 3.819000, 1701.30, 276.223999 
 3.803000, 1708.46, 273.786987 
 3.802000, 1708.91, 274.506989 
 3.801000, 1709.36, 276.209015 
 3.807000, 1706.67, 271.701996 
 3.804000, 1708.01, 272.879028 
 3.799000, 1710.26, 273.225983 
 3.805000, 1707.56, 273.382996 
 3.811000, 1704.88, 272.450989 
 3.803000, 1708.46, 274.776001 
9
 24.934999, 260.57, 283.460999 
 24.351000, 266.82, 273.947998 
 24.365000, 266.66, 277.696014 
 24.365000, 266.66, 276.101013 
 24.365999, 266.65, 275.636017 
 24.372999, 266.58, 276.950012 
 24.363001, 266.69, 272.712982 
 24.375000, 266.56, 274.988007 
 24.357000, 266.75, 275.619019 
 24.375999, 266.54, 276.173981 
11
 30.563999, 212.58, 275.623993 
 30.476000, 213.19, 272.339996 
 30.457001, 213.33, 277.984009 
 30.406000, 213.68, 276.424988 
 30.454000, 213.35, 276.240997 
 30.464001, 213.28, 276.657013 
 30.740999, 211.36, 293.329010 
 30.434999, 213.48, 272.902008 
 30.416000, 213.61, 276.461975 
 30.475000, 213.20, 276.828979 
15
 59.362000, 109.45, 275.664001 
 59.562000, 109.08, 276.453979 
 59.269001, 109.62, 276.903992 
 59.139000, 109.86, 275.024994 
 59.625999, 108.97, 279.406006 
 59.241001, 109.68, 276.649017 
 59.488998, 109.22, 275.749023 
 59.237000, 109.68, 276.125000 
 59.521999, 109.16, 274.626007 
 59.126999, 109.89, 274.726013 
2
3
 3.804000, 1708.01, 278.581024 
 3.807000, 1706.67, 275.735992 
 3.808000, 1706.22, 275.431000 
 3.800000, 1709.81, 276.401001 
 3.802000, 1708.91, 275.470001 
 3.795000, 1712.06, 276.335999 
 3.804000, 1708.01, 275.409027 
 3.806000, 1707.12, 277.196991 
 3.801000, 1709.36, 318.425995 
 3.806000, 1707.12, 274.615997 


