data/Experiment/1_cameraman.pgm
0
11
 0.253000, 259.04, 104.419998 
 0.254000, 258.02, 65.875000 
 0.253000, 259.04, 64.585999 
 0.250000, 262.14, 63.066002 
 0.253000, 259.04, 65.233002 
 0.253000, 259.04, 62.325001 
 0.252000, 260.06, 63.802002 
 0.254000, 258.02, 64.418999 
 0.253000, 259.04, 63.893005 
 0.250000, 262.14, 62.566002 
1
11
 0.253000, 259.04, 63.285000 
 0.253000, 259.04, 62.363003 
 0.251000, 261.10, 63.105999 
 0.254000, 258.02, 61.910999 
 0.253000, 259.04, 63.042000 
 0.252000, 260.06, 62.573002 
 0.251000, 261.10, 62.782001 
 0.251000, 261.10, 62.688999 
 0.252000, 260.06, 63.841003 
 0.254000, 258.02, 62.397999 


data/Experiment/2bird2.pgm
0
11
 0.732000, 307.38, 71.711998 
 0.746000, 301.61, 68.124001 
 0.746000, 301.61, 71.341995 
 0.738000, 304.88, 70.151001 
 0.749000, 300.40, 69.601997 
 0.734000, 306.54, 67.802002 
 0.750000, 300.00, 69.598999 
 0.734000, 306.54, 69.073997 
 0.742000, 303.23, 70.903000 
 0.744000, 302.42, 69.758995 
1
11
 0.740000, 304.05, 71.031006 
 0.743000, 302.83, 68.789001 
 0.732000, 307.38, 77.611000 
 0.749000, 300.40, 70.740997 
 0.745000, 302.01, 71.504997 
 0.731000, 307.80, 69.731995 
 0.754000, 298.41, 70.338005 
 0.738000, 304.88, 70.097000 
 0.744000, 302.42, 69.348999 
 0.745000, 302.01, 70.406998 


data/Experiment/3lena_bw.pgm
0
11
 0.845000, 310.23, 71.204002 
 0.827000, 316.98, 72.828995 
 0.828000, 316.60, 70.198997 
 0.837000, 313.19, 70.218002 
 0.837000, 313.19, 71.028999 
 0.835000, 313.94, 70.369003 
 0.838000, 312.82, 71.694000 
 0.836000, 313.57, 71.992004 
 0.839000, 312.45, 71.442001 
 0.811000, 323.24, 71.836006 
1
11
 0.826000, 317.37, 71.800003 
 0.838000, 312.82, 69.584000 
 0.837000, 313.19, 71.158005 
 0.828000, 316.60, 71.565994 
 0.830000, 315.84, 72.367996 
 0.838000, 312.82, 74.970001 
 0.850000, 308.40, 70.616005 
 0.830000, 315.84, 71.223000 
 0.834000, 314.32, 70.785004 
 0.824000, 318.14, 70.690002 


data/Experiment/4zelda2.pgm
0
11
 1.480000, 280.22, 76.243996 
 1.288000, 321.99, 79.071999 
 1.313000, 315.86, 78.195000 
 1.577000, 262.98, 77.320000 
 1.300000, 319.02, 78.467995 
 1.459000, 284.25, 77.326004 
 1.297000, 319.75, 76.374001 
 1.444000, 287.20, 76.514000 
 1.317000, 314.90, 77.486000 
 1.439000, 288.20, 77.292999 
1
11
 1.296000, 320.00, 76.020004 
 1.295000, 320.25, 76.346001 
 1.305000, 317.79, 75.496002 
 1.307000, 317.31, 75.583000 
 1.302000, 318.53, 76.272995 
 1.306000, 317.55, 76.637001 
 1.324000, 313.23, 75.945999 
 1.303000, 318.28, 75.913002 
 1.315000, 315.38, 75.623001 
 1.289000, 321.74, 76.625000 


data/Experiment/5ultrasound.pgm
0
11
 1.651000, 323.63, 80.783997 
 1.638000, 326.20, 82.467003 
 1.662000, 321.49, 81.057999 
 1.620000, 329.82, 80.071999 
 1.624000, 329.01, 80.116997 
 1.643000, 325.21, 80.815002 
 1.651000, 323.63, 80.906998 
 1.652000, 323.44, 80.057999 
 1.855000, 288.04, 81.465996 
 1.772000, 301.53, 80.911995 
1
11
 1.819000, 293.74, 79.800003 
 1.777000, 300.68, 80.334999 
 1.638000, 326.20, 79.725998 
 1.643000, 325.21, 80.385002 
 2.690000, 198.63, 80.096001 
 1.635000, 326.80, 80.666000 
 1.623000, 329.21, 80.098999 
 1.656000, 322.65, 79.427002 
 1.635000, 326.80, 80.088997 
 1.642000, 325.40, 80.594002 


data/Experiment/6shoulderCR.pgm
0
11
 2.463000, 322.70, 90.338005 
 2.454000, 323.88, 93.756996 
 2.431000, 326.95, 89.793999 
 2.633000, 301.86, 90.327995 
 2.601000, 305.58, 87.935005 
 2.477000, 320.88, 90.073006 
 2.471000, 321.65, 88.011002 
 2.408000, 330.07, 88.098000 
 2.477000, 320.88, 88.336006 
 2.451000, 324.28, 88.771004 
1
11
 2.448000, 324.68, 89.152000 
 2.423000, 328.03, 87.910004 
 2.468000, 322.05, 88.987999 
 2.475000, 321.13, 89.374001 
 2.452000, 324.15, 90.188995 
 2.440000, 325.74, 91.337997 
 2.460000, 323.09, 91.790001 
 2.622000, 303.13, 91.688995 
 2.624000, 302.90, 93.488998 
 2.422000, 328.16, 89.389999 


data/Experiment/7airplaneU2.pgm
0
11
 3.120000, 336.08, 99.346001 
 3.139000, 334.05, 99.649002 
 4.244000, 247.07, 96.636993 
 3.456000, 303.41, 99.928001 
 3.290000, 318.72, 96.964996 
 3.257000, 321.95, 97.328995 
 3.127000, 335.33, 102.175003 
 3.118000, 336.30, 97.839005 
 3.121000, 335.97, 103.943001 
 3.136000, 334.37, 99.411995 
1
11
 4.296000, 244.08, 97.117004 
 3.257000, 321.95, 98.617004 
 3.107000, 337.49, 97.792000 
 3.484000, 300.97, 97.980995 
 3.256000, 322.04, 100.554001 
 3.122000, 335.87, 97.469002 
 3.131000, 334.90, 97.890007 
 3.315000, 316.31, 100.750000 
 3.120000, 336.08, 99.328995 
 3.141000, 333.84, 97.252998 


data/Experiment/8bone_scint.pgm
0
11
 6.327000, 332.79, 133.074005 
 6.356000, 331.28, 130.931992 
 6.276000, 335.50, 131.729996 
 6.314000, 333.48, 134.766998 
 7.519000, 280.04, 134.318008 
 6.330000, 332.64, 133.617004 
 7.512000, 280.30, 134.486008 
 6.295000, 334.49, 131.781998 
 6.292000, 334.64, 133.968994 
 7.711000, 273.06, 133.473007 
1
11
 6.373000, 330.39, 135.003006 
 6.285000, 335.02, 137.910995 
 6.361000, 331.01, 130.269989 
 6.383000, 329.87, 131.152008 
 6.521000, 322.89, 132.320007 
 6.353000, 331.43, 130.130005 
 6.296000, 334.43, 131.261002 
 6.335000, 332.37, 132.384995 
 6.473000, 325.29, 135.893997 
 6.280000, 335.28, 130.514008 


data/Experiment/9blackhole.pgm
0
11
 12.572000, 343.62, 204.042999 
 14.060000, 307.25, 205.960007 
 12.625000, 342.18, 206.936005 
 12.754000, 338.72, 204.951004 
 12.819000, 337.00, 208.500000 
 12.943000, 333.77, 204.079010 
 12.532000, 344.72, 203.524002 
 12.560000, 343.95, 206.027008 
 12.818000, 337.03, 204.159012 
 12.507000, 345.41, 200.774994 
1
11
 12.773000, 338.21, 202.245010 
 12.756000, 338.66, 200.604004 
 12.591000, 343.10, 200.401993 
 12.953000, 333.51, 201.711990 
 12.529000, 344.80, 200.297989 
 12.747000, 338.90, 202.212006 
 12.703000, 340.08, 212.244995 
 13.285000, 325.18, 207.639999 
 15.530000, 278.17, 209.222000 
 12.557000, 344.03, 216.440994 


data/Experiment/z10_skull.pgm
0
11
 19.014999, 341.69, 284.734009 
 19.179001, 338.77, 278.093994 
 18.952999, 342.81, 274.093994 
 19.235001, 337.78, 278.377014 
 21.570000, 301.22, 276.227997 
 19.028999, 341.44, 276.121002 
 19.038000, 341.28, 275.975006 
 18.941999, 343.01, 280.023010 
 19.111000, 339.98, 279.335022 
 20.655001, 314.56, 281.791992 
1
11
 18.982000, 342.29, 275.049011 
 18.908001, 343.63, 279.516022 
 18.940001, 343.05, 275.395996 
 19.138000, 339.50, 276.885986 
 18.891001, 343.94, 274.149017 
 18.976000, 342.39, 272.531982 
 19.004999, 341.87, 275.368988 
 23.280001, 279.09, 279.911011 
 18.924999, 343.32, 272.261017 
 19.302999, 336.59, 276.901001 


