data/Experiment/1_cameraman.pgm
0
15
 1.137000, 57.64, 104.077995 
 1.134000, 57.79, 65.370995 
 1.137000, 57.64, 65.162003 
 1.136000, 57.69, 63.240997 
 1.134000, 57.79, 65.248001 
 1.135000, 57.74, 63.323002 
 1.136000, 57.69, 64.733002 
 1.137000, 57.64, 62.751999 
 1.133000, 57.84, 63.392002 
 1.134000, 57.79, 61.814003 
1
15
 1.132000, 57.89, 64.138000 
 1.148000, 57.09, 62.612000 
 1.135000, 57.74, 64.886002 
 1.136000, 57.69, 62.915001 
 1.137000, 57.64, 64.389999 
 1.130000, 58.00, 62.252998 
 1.135000, 57.74, 64.256996 
 1.134000, 57.79, 62.925999 
 1.135000, 57.74, 63.720005 
 1.131000, 57.95, 61.972000 


data/Experiment/2bird2.pgm
0
15
 3.908000, 57.57, 71.255005 
 3.887000, 57.89, 67.863998 
 3.903000, 57.65, 69.643997 
 3.880000, 57.99, 69.282005 
 3.888000, 57.87, 70.399002 
 3.916000, 57.46, 67.890999 
 4.464000, 50.40, 70.541000 
 3.885000, 57.92, 67.097000 
 3.907000, 57.59, 68.870003 
 3.899000, 57.71, 67.255997 
1
15
 3.909000, 57.56, 70.457001 
 4.063000, 55.38, 69.813995 
 3.898000, 57.72, 69.542999 
 3.882000, 57.96, 68.546997 
 4.007000, 56.15, 70.324997 
 3.888000, 57.87, 67.807999 
 3.903000, 57.65, 69.147003 
 3.901000, 57.68, 67.221001 
 3.892000, 57.81, 70.786003 
 3.916000, 57.46, 67.567001 


data/Experiment/3lena_bw.pgm
0
15
 5.071000, 51.69, 72.641998 
 4.460000, 58.78, 73.591003 
 4.451000, 58.90, 71.593002 
 4.458000, 58.80, 70.129997 
 4.560000, 57.49, 72.486000 
 4.601000, 56.98, 69.976006 
 4.453000, 58.87, 72.103996 
 4.461000, 58.76, 70.187004 
 4.458000, 58.80, 70.724998 
 5.059000, 51.82, 70.849998 
1
15
 4.456000, 58.83, 72.631996 
 4.458000, 58.80, 70.096001 
 5.069000, 51.72, 70.369003 
 4.461000, 58.76, 69.728004 
 4.458000, 58.80, 71.036003 
 4.460000, 58.78, 69.343002 
 4.461000, 58.76, 70.528999 
 4.465000, 58.71, 69.682999 
 4.451000, 58.90, 69.960999 
 4.461000, 58.76, 71.218002 


data/Experiment/4zelda2.pgm
0
15
 7.296000, 56.84, 76.264999 
 8.023000, 51.69, 74.791000 
 7.294000, 56.86, 75.798004 
 7.783000, 53.29, 74.825005 
 7.212000, 57.50, 75.458000 
 7.718000, 53.73, 75.280998 
 7.294000, 56.86, 75.649002 
 7.792000, 53.22, 75.526001 
 7.216000, 57.47, 76.917000 
 7.791000, 53.23, 74.349998 
1
15
 7.216000, 57.47, 76.417999 
 7.736000, 53.61, 75.600998 
 7.210000, 57.52, 76.804001 
 7.116000, 58.28, 75.378006 
 7.122000, 58.23, 76.538002 
 7.292000, 56.87, 76.706001 
 7.686000, 53.96, 77.764000 
 7.292000, 56.87, 76.231003 
 7.793000, 53.22, 76.651001 
 7.212000, 57.50, 75.717003 


data/Experiment/5ultrasound.pgm
0
15
 9.136000, 58.48, 79.950996 
 9.105000, 58.68, 80.945007 
 9.580000, 55.77, 79.833000 
 8.995000, 59.40, 79.975998 
 9.556000, 55.91, 81.160004 
 9.638000, 55.44, 81.760002 
 9.458000, 56.49, 80.659996 
 9.006000, 59.33, 80.624001 
 8.983000, 59.48, 80.678001 
 8.994000, 59.41, 79.417999 
1
15
 9.137000, 58.48, 79.576996 
 9.116000, 58.61, 82.075005 
 9.111000, 58.65, 81.547997 
 9.103000, 58.70, 81.102005 
 9.137000, 58.48, 79.901001 
 9.110000, 58.65, 110.272003 
 9.151000, 58.39, 81.167000 
 9.105000, 58.68, 81.175003 
 9.124000, 58.56, 80.875000 
 9.156000, 58.36, 79.848000 


data/Experiment/6shoulderCR.pgm
0
15
 13.706000, 57.99, 88.332001 
 13.847000, 57.40, 89.959999 
 13.871000, 57.30, 89.447998 
 13.856000, 57.36, 91.038994 
 14.546000, 54.64, 89.445999 
 13.869000, 57.31, 89.190994 
 13.670000, 58.14, 88.950005 
 13.798000, 57.60, 89.097000 
 14.321000, 55.50, 89.125000 
 13.647000, 58.24, 89.244995 
1
15
 13.828000, 57.48, 89.810997 
 14.466000, 54.94, 89.612000 
 13.817000, 57.52, 88.987999 
 13.691000, 58.05, 89.491997 
 13.873000, 57.29, 90.476997 
 14.525000, 54.72, 90.502998 
 14.450000, 55.00, 89.328003 
 13.729000, 57.89, 89.425003 
 13.934000, 57.04, 89.976006 
 13.805000, 57.57, 89.775002 


data/Experiment/7airplaneU2.pgm
0
15
 18.524000, 56.61, 96.840996 
 17.839001, 58.78, 97.705994 
 18.544001, 56.55, 96.845001 
 18.566000, 56.48, 96.734001 
 17.943001, 58.44, 97.115997 
 18.528000, 56.59, 95.368004 
 17.697001, 59.25, 96.859001 
 18.371000, 57.08, 98.059998 
 17.705000, 59.22, 95.729996 
 18.021999, 58.18, 98.074997 
1
15
 18.556999, 56.51, 98.134003 
 17.938999, 58.45, 98.033005 
 18.563999, 56.48, 97.425995 
 18.375000, 57.07, 97.277000 
 18.451000, 56.83, 97.787003 
 18.356001, 57.12, 97.329994 
 18.455999, 56.81, 98.642998 
 18.462000, 56.80, 97.293999 
 18.497000, 56.69, 98.047997 
 18.375000, 57.07, 97.705002 


data/Experiment/8bone_scint.pgm
0
15
 36.797001, 57.22, 132.873001 
 37.709000, 55.84, 130.585007 
 36.029999, 58.44, 130.328995 
 36.516998, 57.66, 129.962006 
 36.825001, 57.18, 131.038010 
 36.152000, 58.24, 130.580994 
 36.799000, 57.22, 130.494003 
 36.023998, 58.45, 131.195999 
 36.625999, 57.49, 131.315002 
 35.998001, 58.49, 130.897995 
1
15
 36.007999, 58.48, 165.891006 
 35.868000, 58.70, 133.324005 
 36.032001, 58.44, 129.546005 
 36.729000, 57.33, 131.908997 
 36.060001, 58.39, 137.007004 
 36.046001, 58.41, 130.886993 
 36.705002, 57.37, 131.121994 
 36.021000, 58.45, 130.983002 
 36.591000, 57.54, 130.731003 
 36.049000, 58.41, 132.143005 


data/Experiment/9blackhole.pgm
0
15
 72.089996, 59.93, 202.492004 
 73.039001, 59.15, 212.085999 
 73.813004, 58.53, 199.727982 
 72.101997, 59.92, 204.256012 
 73.681000, 58.63, 204.463989 
 73.834000, 58.51, 202.585007 
 73.987000, 58.39, 204.458008 
 73.887001, 58.47, 203.138000 
 72.040001, 59.97, 201.436981 
 72.121002, 59.90, 202.419006 
1
15
 73.671997, 58.64, 204.484009 
 72.042000, 59.97, 203.977997 
 72.169998, 59.86, 201.966995 
 72.180000, 59.85, 201.428009 
 72.203003, 59.83, 201.660004 
 72.212997, 59.82, 200.923996 
 72.221001, 59.82, 200.248993 
 72.210999, 59.82, 200.860016 
 72.058998, 59.95, 202.207001 
 72.394997, 59.67, 202.124023 


data/Experiment/z10_skull.pgm
0
15
 110.719002, 58.68, 270.802002 
 99.940002, 65.01, 272.682007 
 99.900002, 65.04, 271.338013 
 99.985001, 64.98, 301.689026 
 95.612999, 67.95, 273.729004 
 95.613998, 67.95, 274.846985 
 95.610001, 67.96, 277.723022 
 95.537003, 68.01, 271.507019 
 95.597000, 67.97, 277.325012 
 95.599998, 67.96, 276.773987 
1
15
 95.603996, 67.96, 276.272003 
 95.601997, 67.96, 274.527008 
 95.597000, 67.97, 277.469971 
 95.629997, 67.94, 275.291992 
 95.642998, 67.93, 271.089996 
 95.629997, 67.94, 275.354980 
 95.620003, 67.95, 276.520020 
 95.615997, 67.95, 275.308014 
 95.592003, 67.97, 271.815979 
 95.625999, 67.94, 271.424988 


 4.608000, 56.89, 2435.765137 
 4.792000, 54.70, 30.959999 
 4.467000, 58.68, 41.412003 
 2853.300049, 0.09, 40.328857 
 4316.291016, 0.06, 39.937012 
 91200.429688, 0.07, 253.070312 
 2792.499023, 0.09, 40.078857 
