 0.196000, 1337.47, 98.494003 
data/Experiment/1_cameraman.pgm
0
3
 0.074000, 885.62, 65.300003 
 0.075000, 873.81, 65.851006 
 0.074000, 885.62, 65.067001 
 0.076000, 862.32, 64.500000 
 0.073000, 897.75, 63.473999 
 0.074000, 885.62, 64.400002 
 0.075000, 873.81, 62.681000 
 0.073000, 897.75, 64.222000 
 0.078000, 840.21, 63.334999 
 0.075000, 873.81, 65.447006 
9
 0.385000, 170.22, 63.405003 
 0.383000, 171.11, 65.277000 
 0.384000, 170.67, 63.370003 
 0.361000, 181.54, 64.320000 
 0.382000, 171.56, 62.902000 
 0.386000, 169.78, 65.276001 
 0.384000, 170.67, 63.185001 
 0.390000, 168.04, 65.395004 
 0.384000, 170.67, 63.116001 
 0.387000, 169.34, 64.584999 
11
 0.555000, 118.08, 63.742996 
 0.557000, 117.66, 64.974998 
 0.556000, 117.87, 63.470001 
 0.557000, 117.66, 65.522003 
 0.555000, 118.08, 63.597000 
 0.554000, 118.30, 65.497002 
 0.555000, 118.08, 62.862999 
 0.560000, 117.03, 64.203003 
 0.556000, 117.87, 62.734001 
 0.557000, 117.66, 63.904999 
15
 0.989000, 66.26, 63.300003 
 0.992000, 66.06, 66.309006 
 0.994000, 65.93, 63.504002 
 0.992000, 66.06, 66.500000 
 0.994000, 65.93, 63.677998 
 0.992000, 66.06, 64.744003 
 0.993000, 66.00, 63.309002 
 1.003000, 65.34, 65.394005 
 0.998000, 65.67, 62.957001 
 0.993000, 66.00, 65.193001 
1
3
 0.074000, 885.62, 63.980000 
 0.073000, 897.75, 64.688004 
 0.074000, 885.62, 62.634998 
 0.074000, 885.62, 63.823997 
 0.074000, 885.62, 63.264000 
 0.074000, 885.62, 64.075005 
 0.074000, 885.62, 63.668999 
 0.074000, 885.62, 66.150002 
 0.074000, 885.62, 63.730000 
 0.073000, 897.75, 65.313004 
9
 0.385000, 170.22, 63.108002 
 0.386000, 169.78, 65.195000 
 0.383000, 171.11, 63.586002 
 0.386000, 169.78, 66.473000 
 0.381000, 172.01, 63.262001 
 0.387000, 169.34, 66.324997 
 0.385000, 170.22, 62.844002 
 0.386000, 169.78, 66.025002 
 0.360000, 182.04, 62.890999 
 0.384000, 170.67, 65.397995 
11
 0.556000, 117.87, 64.267998 
 0.555000, 118.08, 64.987999 
 0.555000, 118.08, 63.148998 
 0.556000, 117.87, 64.698997 
 0.554000, 118.30, 63.313999 
 0.555000, 118.08, 66.306999 
 0.556000, 117.87, 63.559998 
 0.557000, 117.66, 65.039001 
 0.556000, 117.87, 63.779999 
 0.556000, 117.87, 64.944000 
15
 0.993000, 66.00, 63.949001 
 1.000000, 65.54, 65.042000 
 0.993000, 66.00, 64.145004 
 1.001000, 65.47, 65.071999 
 1.001000, 65.47, 63.816002 
 0.992000, 66.06, 65.128006 
 0.998000, 65.67, 63.931999 
 0.996000, 65.80, 65.422997 
 0.997000, 65.73, 64.458000 
 0.995000, 65.87, 65.389999 
2
3
 0.072000, 910.22, 63.063000 
 0.084000, 780.19, 65.379997 
 0.073000, 897.75, 63.302998 
 0.074000, 885.62, 64.168999 
 0.075000, 873.81, 63.233997 
 0.073000, 897.75, 66.487000 
 0.073000, 897.75, 63.346996 
 0.074000, 885.62, 67.144005 
 0.075000, 873.81, 63.043999 
 0.074000, 885.62, 66.527000 


data/Experiment/2bird2.pgm
0
3
 0.175000, 1285.71, 70.805000 
 0.172000, 1308.14, 69.303001 
 0.173000, 1300.58, 69.165001 
 0.174000, 1293.10, 71.134995 
 0.174000, 1293.10, 67.701996 
 0.182000, 1236.26, 69.893997 
 0.220000, 1022.73, 68.654999 
 0.174000, 1293.10, 71.296997 
 0.174000, 1293.10, 80.264999 
 0.196000, 1147.96, 79.412003 
9
 1.176000, 191.33, 71.095001 
 1.179000, 190.84, 88.734001 
 1.177000, 191.16, 72.986000 
 1.176000, 191.33, 71.305000 
 1.177000, 191.16, 71.311996 
 1.175000, 191.49, 69.543999 
 1.178000, 191.00, 68.647995 
 1.172000, 191.98, 68.867004 
 1.174000, 191.65, 69.046997 
 1.175000, 191.49, 69.278000 
11
 1.745000, 128.94, 69.341995 
 1.739000, 129.38, 69.330002 
 1.743000, 129.09, 75.339005 
 1.740000, 129.31, 68.662003 
 1.743000, 129.09, 69.755997 
 1.739000, 129.38, 68.574005 
 1.741000, 129.24, 70.693001 
 1.739000, 129.38, 68.125000 
 1.942000, 115.86, 69.637001 
 1.741000, 129.24, 68.332001 
15
 3.810000, 59.06, 91.869003 
 3.205000, 70.20, 72.089996 
 3.330000, 67.57, 76.715996 
 3.206000, 70.18, 77.018997 
 3.924000, 57.34, 72.250000 
 3.195000, 70.42, 70.848000 
 3.200000, 70.31, 72.978004 
 3.212000, 70.05, 72.027000 
 3.318000, 67.81, 70.468002 
 3.194000, 70.44, 70.400002 
1
3
 0.174000, 1293.10, 70.928993 
 0.172000, 1308.14, 69.268005 
 0.174000, 1293.10, 69.790993 
 0.172000, 1308.14, 70.110001 
 0.174000, 1293.10, 73.901993 
 0.174000, 1293.10, 70.581993 
 0.175000, 1285.71, 84.499001 
 0.174000, 1293.10, 72.038994 
 0.178000, 1264.04, 79.737999 
 0.175000, 1285.71, 72.917000 
9
 1.197000, 187.97, 74.108002 
 1.177000, 191.16, 73.973999 
 1.282000, 175.51, 74.239006 
 1.283000, 175.37, 73.438004 
 1.221000, 184.28, 76.828003 
 1.179000, 190.84, 74.500000 
 1.178000, 191.00, 88.049995 
 1.179000, 190.84, 79.625000 
 1.180000, 190.68, 79.473000 
 1.189000, 189.23, 83.676994 
11
 1.739000, 129.38, 73.053001 
 1.740000, 129.31, 71.121002 
 1.740000, 129.31, 70.113998 
 1.743000, 129.09, 69.960007 
 1.743000, 129.09, 71.617996 
 1.742000, 129.16, 71.552002 
 1.740000, 129.31, 69.928001 
 1.742000, 129.16, 70.954002 
 1.737000, 129.53, 69.473999 
 1.738000, 129.46, 70.072998 
15
 3.211000, 70.07, 67.945999 
 3.204000, 70.22, 71.382996 
 3.197000, 70.38, 70.306000 
 3.215000, 69.98, 71.942001 
 3.209000, 70.12, 68.496002 
 3.212000, 70.05, 70.229004 
 3.210000, 70.09, 68.962997 
 3.322000, 67.73, 71.839005 
 3.212000, 70.05, 72.323006 
 3.214000, 70.01, 70.854004 
2
3
 1.283000, 175.37, 98.304001 
 0.177000, 1271.19, 79.153000 
 0.178000, 1264.04, 77.963997 
 0.175000, 1285.71, 75.830994 
 0.176000, 1278.41, 82.968994 
 0.176000, 1278.41, 78.784996 
 0.174000, 1293.10, 74.015999 
 0.175000, 1285.71, 71.834000 
 0.173000, 1300.58, 74.225006 
 0.175000, 1285.71, 72.893997 


data/Experiment/3lena_bw.pgm
0
3
 0.194000, 1351.26, 72.620003 
 0.194000, 1351.26, 76.619003 
 0.193000, 1358.26, 84.953003 
 0.193000, 1358.26, 73.486000 
 0.192000, 1365.33, 73.455002 
 0.238000, 1101.45, 72.987000 
 0.193000, 1358.26, 74.976997 
 0.194000, 1351.26, 72.219002 
 0.193000, 1358.26, 71.818001 
 0.194000, 1351.26, 72.421997 
9
 1.355000, 193.46, 72.051994 
 1.356000, 193.32, 72.214996 
 1.357000, 193.18, 71.790001 
 1.357000, 193.18, 72.403000 
 1.355000, 193.46, 72.424995 
 1.359000, 192.89, 72.188995 
 1.351000, 194.04, 72.396004 
 1.356000, 193.32, 73.310997 
 1.355000, 193.46, 73.325996 
 1.356000, 193.32, 71.653999 
11
 2.005000, 130.75, 73.707001 
 2.013000, 130.23, 72.764999 
 2.004000, 130.81, 72.096001 
 2.010000, 130.42, 74.817001 
 2.166000, 121.03, 73.227997 
 2.006000, 130.68, 73.241005 
 2.004000, 130.81, 71.710999 
 2.005000, 130.75, 72.704002 
 2.122000, 123.54, 72.905998 
 2.009000, 130.48, 72.695000 
15
 3.703000, 70.79, 72.788994 
 3.700000, 70.85, 79.031006 
 3.693000, 70.98, 74.678001 
 3.920000, 66.87, 73.465004 
 4.463000, 58.74, 73.386002 
 4.623000, 56.70, 73.273003 
 3.704000, 70.77, 73.292000 
 3.828000, 68.48, 72.670998 
 4.438000, 59.07, 74.951996 
 4.632000, 56.59, 72.985992 
1
3
 0.193000, 1358.26, 71.789001 
 0.194000, 1351.26, 72.811996 
 0.192000, 1365.33, 72.784996 
 0.193000, 1358.26, 72.736000 
 0.247000, 1061.31, 73.300995 
 0.192000, 1365.33, 73.924995 
 0.193000, 1358.26, 73.315002 
 0.194000, 1351.26, 73.054001 
 0.230000, 1139.76, 74.895996 
 0.192000, 1365.33, 72.942001 
9
 1.360000, 192.75, 74.997002 
 1.354000, 193.61, 71.599007 
 1.357000, 193.18, 73.465996 
 1.358000, 193.04, 72.409996 
 1.368000, 191.63, 71.115005 
 1.356000, 193.32, 71.389000 
 1.358000, 193.04, 72.806000 
 1.356000, 193.32, 72.170998 
 1.357000, 193.18, 71.895996 
 1.355000, 193.46, 72.001999 
11
 2.009000, 130.48, 72.579994 
 2.010000, 130.42, 73.100998 
 2.007000, 130.61, 73.022995 
 2.006000, 130.68, 72.092003 
 2.008000, 130.55, 72.863998 
 2.008000, 130.55, 71.454994 
 2.009000, 130.48, 71.918999 
 2.010000, 130.42, 72.328995 
 2.010000, 130.42, 73.398994 
 2.010000, 130.42, 72.376999 
15
 3.823000, 68.57, 72.214005 
 3.697000, 70.91, 75.251999 
 3.696000, 70.93, 72.721001 
 3.693000, 70.98, 71.834999 
 3.699000, 70.87, 71.263000 
 3.859000, 67.93, 72.846001 
 3.694000, 70.96, 71.634003 
 3.694000, 70.96, 76.225998 
 3.701000, 70.83, 72.295006 
 3.701000, 70.83, 71.547005 
2
3
 0.191000, 1372.48, 72.486000 
 0.194000, 1351.26, 72.747002 
 0.192000, 1365.33, 73.091995 
 0.194000, 1351.26, 73.491997 
 0.199000, 1317.31, 71.234001 
 0.193000, 1358.26, 75.546997 
 0.192000, 1365.33, 71.403999 
 0.195000, 1344.33, 73.342003 
 0.191000, 1372.48, 71.511002 
 0.194000, 1351.26, 74.336998 


data/Experiment/4zelda2.pgm
0
3
 0.301000, 1377.81, 76.280998 
 0.300000, 1382.40, 79.053993 
 0.308000, 1346.49, 82.003998 
 0.297000, 1396.36, 77.902000 
 0.299000, 1387.02, 77.160995 
 0.300000, 1382.40, 77.844994 
 0.300000, 1382.40, 78.622993 
 0.300000, 1382.40, 76.992996 
 0.301000, 1377.81, 76.987000 
 0.302000, 1373.25, 78.335999 
9
 2.137000, 194.07, 91.271996 
 2.131000, 194.61, 77.011002 
 2.131000, 194.61, 78.533005 
 2.240000, 185.14, 76.389999 
 2.117000, 195.90, 77.201004 
 2.132000, 194.52, 77.143005 
 2.123000, 195.35, 77.906998 
 2.142000, 193.61, 76.961998 
 2.127000, 194.98, 77.997002 
 2.124000, 195.25, 76.764999 
11
 3.160000, 131.24, 79.597000 
 3.290000, 126.05, 81.238998 
 3.164000, 131.07, 77.980995 
 3.286000, 126.21, 77.191994 
 3.165000, 131.03, 78.395996 
 3.164000, 131.07, 76.687996 
 3.284000, 126.29, 76.869003 
 3.159000, 131.28, 77.344002 
 3.159000, 131.28, 79.157005 
 3.816000, 108.68, 78.233002 
15
 6.156000, 67.37, 78.398003 
 5.863000, 70.74, 79.752998 
 6.766000, 61.29, 86.941002 
 11.285000, 36.75, 81.645996 
 5.859000, 70.78, 79.813995 
 6.736000, 61.57, 79.025002 
 6.588000, 62.95, 79.235001 
 6.011000, 68.99, 80.639999 
 6.798000, 61.01, 78.910004 
 5.864000, 70.72, 77.743004 
1
3
 0.326000, 1272.15, 76.884003 
 0.300000, 1382.40, 78.426994 
 0.301000, 1377.81, 79.655998 
 0.303000, 1368.71, 83.125999 
 0.299000, 1387.02, 78.398994 
 0.301000, 1377.81, 77.881996 
 0.299000, 1387.02, 77.425995 
 0.300000, 1382.40, 78.537994 
 0.309000, 1342.14, 77.427002 
 0.300000, 1382.40, 77.480995 
9
 2.131000, 194.61, 76.421005 
 2.138000, 193.98, 77.884003 
 2.123000, 195.35, 76.523003 
 2.135000, 194.25, 77.158997 
 2.128000, 194.89, 77.685005 
 2.126000, 195.07, 79.729004 
 2.128000, 194.89, 79.470001 
 2.129000, 194.80, 80.074005 
 2.135000, 194.25, 78.480995 
 2.132000, 194.52, 81.876999 
11
 3.182000, 130.33, 81.321999 
 4.978000, 83.31, 82.445000 
 3.441000, 120.52, 78.895996 
 3.153000, 131.53, 78.942001 
 3.939000, 105.29, 78.598999 
 3.165000, 131.03, 80.013000 
 3.855000, 107.58, 80.349998 
 3.162000, 131.16, 78.417000 
 3.788000, 109.48, 79.928001 
 3.154000, 131.49, 78.074997 
15
 6.744000, 61.49, 78.696999 
 6.622000, 62.63, 78.031998 
 6.475000, 64.05, 76.208000 
 5.985000, 69.29, 75.732002 
 5.829000, 71.15, 77.390999 
 5.981000, 69.34, 76.805000 
 5.856000, 70.82, 76.724998 
 6.304000, 65.79, 77.594002 
 5.847000, 70.93, 88.456001 
 6.691000, 61.98, 78.848999 
2
3
 0.300000, 1382.40, 83.438995 
 0.303000, 1368.71, 76.945999 
 0.301000, 1377.81, 77.612000 
 0.298000, 1391.68, 77.068001 
 0.299000, 1387.02, 76.455994 
 0.300000, 1382.40, 78.131996 
 0.303000, 1368.71, 76.070000 
 0.299000, 1387.02, 76.928993 
 0.300000, 1382.40, 76.645996 
 0.301000, 1377.81, 76.641998 


data/Experiment/5ultrasound.pgm
0
3
 0.381000, 1402.40, 79.698006 
 0.382000, 1398.73, 80.917000 
 0.382000, 1398.73, 83.993996 
 0.381000, 1402.40, 86.103004 
 0.381000, 1402.40, 81.251007 
 0.381000, 1402.40, 86.745003 
 0.494000, 1081.61, 86.882996 
 0.383000, 1395.08, 83.293999 
 0.380000, 1406.09, 81.139999 
 0.382000, 1398.73, 83.714996 
9
 3.214000, 166.25, 82.418007 
 2.725000, 196.08, 91.300003 
 2.890000, 184.88, 83.034004 
 2.713000, 196.95, 83.739006 
 2.718000, 196.58, 81.547997 
 2.729000, 195.79, 80.384003 
 2.713000, 196.95, 82.416000 
 2.725000, 196.08, 82.971001 
 2.717000, 196.66, 82.559998 
 2.707000, 197.38, 80.444000 
11
 4.056000, 131.73, 81.073997 
 4.151000, 128.72, 81.556000 
 4.055000, 131.77, 80.902000 
 4.035000, 132.42, 81.701996 
 4.034000, 132.45, 80.878006 
 4.189000, 127.55, 81.042999 
 4.059000, 131.64, 80.198006 
 4.051000, 131.90, 80.584000 
 4.048000, 131.99, 80.724007 
 4.056000, 131.73, 81.715004 
15
 7.486000, 71.38, 81.334999 
 7.611000, 70.20, 80.939003 
 7.619000, 70.13, 80.645996 
 7.630000, 70.03, 80.498001 
 7.677000, 69.60, 80.386002 
 7.491000, 71.33, 80.671005 
 7.487000, 71.37, 80.996002 
 7.482000, 71.41, 80.678001 
 7.612000, 70.19, 81.809998 
 7.629000, 70.04, 79.832001 
1
3
 0.380000, 1406.09, 80.159004 
 0.383000, 1395.08, 80.836998 
 0.383000, 1395.08, 80.843994 
 0.382000, 1398.73, 80.998993 
 0.383000, 1395.08, 82.340996 
 0.383000, 1395.08, 81.173996 
 0.383000, 1395.08, 81.081993 
 0.380000, 1406.09, 81.630005 
 0.380000, 1406.09, 80.598000 
 0.380000, 1406.09, 81.231003 
9
 2.720000, 196.44, 80.796997 
 2.727000, 195.94, 80.221001 
 2.711000, 197.09, 79.736000 
 2.713000, 196.95, 81.553001 
 2.710000, 197.16, 80.051003 
 2.836000, 188.40, 81.558998 
 2.711000, 197.09, 80.056000 
 2.722000, 196.30, 81.634003 
 2.730000, 195.72, 82.186996 
 2.729000, 195.79, 80.212006 
11
 4.167000, 128.23, 81.163002 
 4.055000, 131.77, 80.529999 
 4.047000, 132.03, 81.406006 
 4.161000, 128.41, 81.505997 
 4.060000, 131.60, 80.439003 
 4.052000, 131.86, 80.421997 
 4.160000, 128.44, 80.138000 
 4.053000, 131.83, 81.309998 
 4.051000, 131.90, 79.859001 
 4.053000, 131.83, 83.062996 
15
 10.113000, 52.83, 85.669998 
 8.984000, 59.47, 86.962997 
 7.990000, 66.87, 92.632004 
 10.241000, 52.17, 83.678001 
 7.452000, 71.70, 81.580994 
 7.478000, 71.45, 80.875999 
 7.611000, 70.20, 80.785004 
 7.631000, 70.02, 79.918007 
 7.638000, 69.95, 80.276001 
 7.483000, 71.40, 81.610001 
2
3
 0.382000, 1398.73, 80.561996 
 0.379000, 1409.80, 82.176003 
 0.516000, 1035.49, 81.506004 
 0.382000, 1398.73, 81.451996 
 0.380000, 1406.09, 82.656006 
 0.381000, 1402.40, 79.507004 
 0.382000, 1398.73, 80.700996 
 0.399000, 1339.14, 80.203995 
 0.381000, 1402.40, 81.106003 
 0.381000, 1402.40, 83.669006 


data/Experiment/6shoulderCR.pgm
0
3
 0.577000, 1377.48, 98.417000 
 0.560000, 1419.30, 90.859001 
 0.591000, 1344.85, 95.450996 
 0.600000, 1324.68, 93.821999 
 0.551000, 1442.48, 112.448997 
 0.554000, 1434.67, 90.252998 
 0.551000, 1442.48, 90.804001 
 0.602000, 1320.28, 89.508003 
 0.554000, 1434.67, 90.492996 
 0.599000, 1326.89, 89.020004 
9
 4.042000, 196.64, 92.165001 
 4.581000, 173.50, 91.993996 
 4.285000, 185.49, 91.753998 
 4.048000, 196.35, 90.188004 
 4.042000, 196.64, 92.017998 
 4.044000, 196.54, 90.480003 
 4.639000, 171.33, 92.262001 
 4.163000, 190.92, 94.007996 
 4.154000, 191.34, 90.263000 
 4.212000, 188.70, 92.334999 
11
 6.012000, 132.20, 90.033997 
 6.156000, 129.11, 92.068001 
 6.638000, 119.74, 91.657997 
 6.163000, 128.96, 92.113998 
 6.207000, 128.05, 90.315002 
 6.118000, 129.91, 90.865005 
 6.263000, 126.91, 91.139000 
 6.809000, 116.73, 92.257004 
 6.263000, 126.91, 92.670998 
 6.173000, 128.76, 90.692001 
15
 11.528000, 68.95, 93.299004 
 11.311000, 70.27, 90.141006 
 11.361000, 69.96, 88.827003 
 12.089000, 65.75, 92.463005 
 11.663000, 68.15, 91.636002 
 11.304000, 70.31, 90.214996 
 11.446000, 69.44, 91.228004 
 12.191000, 65.20, 90.478996 
 11.193000, 71.01, 91.486000 
 11.324000, 70.19, 90.362000 
1
3
 0.555000, 1432.09, 90.084999 
 0.553000, 1437.27, 89.609001 
 0.555000, 1432.09, 90.073997 
 0.557000, 1426.94, 91.040001 
 0.566000, 1404.25, 91.786995 
 0.555000, 1432.09, 92.495003 
 0.553000, 1437.27, 90.980995 
 0.553000, 1437.27, 90.722000 
 0.554000, 1434.67, 92.912003 
 0.556000, 1429.51, 104.444000 
9
 4.043000, 196.59, 93.274002 
 4.172000, 190.51, 89.241005 
 4.097000, 194.00, 88.948997 
 4.048000, 196.35, 90.141006 
 4.046000, 196.44, 90.214005 
 4.042000, 196.64, 90.975998 
 4.154000, 191.34, 90.563004 
 4.042000, 196.64, 89.906998 
 4.034000, 197.03, 89.486000 
 4.523000, 175.73, 93.430000 
11
 6.300000, 126.16, 90.742996 
 6.020000, 132.03, 92.003006 
 7.593000, 104.68, 96.430000 
 6.149000, 129.26, 91.478996 
 6.290000, 126.36, 89.849998 
 6.138000, 129.49, 88.698997 
 6.027000, 131.87, 90.060997 
 6.289000, 126.38, 91.534996 
 6.021000, 132.01, 88.498001 
 6.024000, 131.94, 90.305000 
15
 11.467000, 69.31, 90.990997 
 12.028000, 66.08, 89.356003 
 11.296000, 70.36, 89.422005 
 12.190000, 65.20, 90.506996 
 13.159000, 60.40, 106.643997 
 12.393000, 64.13, 105.267006 
 12.059000, 65.91, 91.202003 
 12.162000, 65.35, 89.599998 
 11.299000, 70.34, 88.785004 
 13.271000, 59.89, 95.688995 
2
3
 0.607000, 1309.40, 92.250000 
 0.556000, 1429.51, 94.188004 
 0.688000, 1155.24, 93.486000 
 0.554000, 1434.67, 89.679001 
 0.556000, 1429.51, 89.177002 
 0.554000, 1434.67, 89.568001 
 0.691000, 1150.23, 94.762001 
 0.554000, 1434.67, 90.955002 
 0.556000, 1429.51, 90.248001 
 0.554000, 1434.67, 89.471001 


data/Experiment/7airplaneU2.pgm
0
3
 0.759000, 1381.52, 97.487000 
 0.729000, 1438.38, 98.394005 
 0.717000, 1462.45, 100.021996 
 0.717000, 1462.45, 101.733994 
 0.721000, 1454.34, 104.839996 
 0.714000, 1468.59, 102.226006 
 0.756000, 1387.01, 102.989006 
 0.715000, 1466.54, 99.130005 
 0.723000, 1450.31, 97.723000 
 0.765000, 1370.69, 97.127998 
9
 5.321000, 197.06, 100.112000 
 5.311000, 197.43, 97.542000 
 5.929000, 176.86, 97.915001 
 5.465000, 191.87, 98.102005 
 5.357000, 195.74, 97.653000 
 5.349000, 196.03, 97.886002 
 5.957000, 176.02, 96.894997 
 5.535000, 189.44, 97.830994 
 5.430000, 193.11, 97.529999 
 5.357000, 195.74, 97.797997 
11
 8.917000, 117.59, 97.836998 
 8.701000, 120.51, 96.968994 
 8.873000, 118.18, 97.477997 
 8.740000, 119.97, 96.561005 
 8.211000, 127.70, 98.044998 
 8.072000, 129.90, 97.807999 
 8.537000, 122.83, 97.073997 
 8.046000, 130.32, 97.182999 
 7.971000, 131.55, 97.431999 
 8.733000, 120.07, 96.130997 
15
 15.489000, 67.70, 98.514000 
 15.281000, 68.62, 97.931000 
 15.718000, 66.71, 96.773994 
 15.681000, 66.87, 99.642998 
 15.392000, 68.12, 98.357002 
 15.718000, 66.71, 98.632996 
 15.107000, 69.41, 98.814995 
 15.626000, 67.10, 98.181000 
 15.449000, 67.87, 98.924004 
 15.483000, 67.72, 98.277000 
1
3
 0.714000, 1468.59, 97.377007 
 0.729000, 1438.38, 96.647003 
 0.716000, 1464.49, 98.423996 
 0.721000, 1454.34, 116.638000 
 0.713000, 1470.65, 98.519005 
 0.718000, 1460.41, 96.245995 
 0.719000, 1458.38, 99.370995 
 0.714000, 1468.59, 96.956001 
 0.716000, 1464.49, 96.972000 
 0.780000, 1344.33, 96.650002 
9
 5.418000, 193.54, 98.250999 
 5.449000, 192.43, 97.281006 
 5.613000, 186.81, 96.868004 
 5.355000, 195.81, 97.529999 
 5.435000, 192.93, 97.281006 
 5.412000, 193.75, 97.310997 
 5.461000, 192.01, 97.464005 
 5.360000, 195.63, 98.706001 
 5.421000, 193.43, 97.677002 
 6.050000, 173.32, 96.685997 
11
 8.980000, 116.77, 97.313004 
 8.713000, 120.35, 96.459000 
 8.662000, 121.05, 97.577995 
 8.741000, 119.96, 97.748001 
 8.342000, 125.70, 97.514000 
 7.940000, 132.06, 97.923996 
 8.012000, 130.88, 96.751999 
 8.040000, 130.42, 96.398003 
 8.038000, 130.45, 97.858002 
 8.762000, 119.67, 96.903000 
15
 15.678000, 66.88, 97.905998 
 14.920000, 70.28, 97.548004 
 15.736000, 66.64, 97.242996 
 15.663000, 66.95, 98.070999 
 15.274000, 68.65, 99.291000 
 15.505000, 67.63, 98.169006 
 15.639000, 67.05, 97.205002 
 15.392000, 68.12, 97.407005 
 15.735000, 66.64, 98.609001 
 15.634000, 67.07, 97.022995 
2
3
 0.715000, 1466.54, 99.455002 
 0.716000, 1464.49, 97.786995 
 0.718000, 1460.41, 97.264000 
 0.720000, 1456.36, 96.713997 
 0.776000, 1351.26, 97.435997 
 0.717000, 1462.45, 97.798996 
 0.717000, 1462.45, 97.662994 
 0.753000, 1392.53, 96.987000 
 0.766000, 1368.90, 98.237000 
 0.715000, 1466.54, 97.655006 


data/Experiment/8bone_scint.pgm
0
3
 1.405000, 1498.64, 132.878998 
 1.401000, 1502.92, 132.442001 
 1.402000, 1501.84, 132.377014 
 1.409000, 1494.38, 135.426010 
 1.405000, 1498.64, 132.522995 
 1.401000, 1502.92, 132.770004 
 1.407000, 1496.51, 133.063995 
 1.407000, 1496.51, 132.923996 
 1.402000, 1501.84, 132.196014 
 1.443000, 1459.17, 132.648010 
9
 10.682000, 197.12, 132.835999 
 10.730000, 196.23, 131.957001 
 10.747000, 195.92, 133.032013 
 10.686000, 197.04, 133.666000 
 10.690000, 196.97, 132.336990 
 10.703000, 196.73, 131.839005 
 10.721000, 196.40, 131.475006 
 10.671000, 197.32, 132.524994 
 10.683000, 197.10, 131.455002 
 10.676000, 197.23, 132.723999 
11
 15.980000, 131.76, 133.097000 
 15.989000, 131.69, 136.615005 
 15.993000, 131.66, 134.072006 
 15.991000, 131.67, 133.589996 
 15.974000, 131.81, 133.238007 
 15.974000, 131.81, 130.546005 
 16.002001, 131.58, 133.044998 
 15.982000, 131.75, 132.172012 
 16.063999, 131.07, 133.143005 
 15.980000, 131.76, 134.118011 
15
 30.558001, 68.90, 134.927002 
 29.790001, 70.68, 133.016998 
 29.736000, 70.81, 131.783997 
 29.805000, 70.65, 133.958008 
 29.789000, 70.68, 132.362991 
 29.783001, 70.70, 162.695999 
 29.771999, 70.72, 130.966003 
 29.833000, 70.58, 133.889008 
 29.778000, 70.71, 132.587997 
 29.792000, 70.68, 132.854004 
1
3
 1.463000, 1439.22, 133.253006 
 1.402000, 1501.84, 132.485001 
 1.406000, 1497.57, 135.957001 
 1.405000, 1498.64, 132.248001 
 1.407000, 1496.51, 133.541000 
 1.405000, 1498.64, 133.776001 
 1.405000, 1498.64, 133.345001 
 1.396000, 1508.30, 132.264999 
 1.401000, 1502.92, 133.360001 
 1.406000, 1497.57, 133.487000 
9
 10.716000, 196.49, 134.289993 
 10.689000, 196.99, 134.112000 
 10.688000, 197.00, 132.045990 
 10.686000, 197.04, 132.565002 
 10.740000, 196.05, 133.375992 
 10.704000, 196.71, 133.259003 
 10.688000, 197.00, 132.595001 
 10.676000, 197.23, 132.197006 
 10.693000, 196.91, 132.574005 
 10.695000, 196.88, 138.433990 
11
 15.989000, 131.69, 135.404007 
 15.993000, 131.66, 132.526001 
 15.970000, 131.85, 131.819000 
 15.988000, 131.70, 131.862000 
 15.976000, 131.80, 133.679001 
 15.968000, 131.86, 132.806992 
 15.965000, 131.89, 133.272003 
 15.989000, 131.69, 133.378006 
 16.122000, 130.60, 132.050003 
 15.975000, 131.81, 132.475998 
15
 29.768999, 70.73, 132.841995 
 29.768000, 70.73, 131.830002 
 29.788000, 70.69, 133.751999 
 29.783001, 70.70, 132.481995 
 29.797001, 70.66, 131.122009 
 29.756001, 70.76, 132.809006 
 29.778999, 70.71, 133.437988 
 29.766001, 70.74, 132.434998 
 29.796000, 70.67, 132.511002 
 30.808001, 68.35, 131.796005 
2
3
 1.463000, 1439.22, 132.912003 
 1.404000, 1499.70, 132.832993 
 1.408000, 1495.44, 131.924988 
 1.405000, 1498.64, 135.022995 
 1.408000, 1495.44, 131.134995 
 1.446000, 1456.14, 133.209000 
 1.400000, 1503.99, 133.112000 
 1.405000, 1498.64, 134.104996 
 1.403000, 1500.77, 132.438004 
 1.410000, 1493.32, 131.188995 


data/Experiment/9blackhole.pgm
0
3
 2.871000, 1504.70, 201.966995 
 2.936000, 1471.39, 202.067001 
 2.863000, 1508.91, 205.875000 
 2.870000, 1505.23, 206.426010 
 2.937000, 1470.89, 202.108002 
 2.928000, 1475.41, 202.495010 
 2.831000, 1525.96, 204.529999 
 2.929000, 1474.91, 201.673996 
 2.825000, 1529.20, 203.126007 
 2.826000, 1528.66, 204.920990 
9
 21.958000, 196.74, 207.334015 
 21.726999, 198.83, 205.248993 
 22.636000, 190.85, 205.477997 
 22.611000, 191.06, 200.963013 
 21.822001, 197.97, 202.200989 
 21.820000, 197.98, 202.587006 
 21.809000, 198.08, 202.336990 
 21.856001, 197.66, 202.125000 
 21.851999, 197.69, 200.720001 
 21.837999, 197.82, 206.124008 
11
 33.669998, 128.30, 203.087006 
 32.550999, 132.71, 204.523010 
 33.376999, 129.43, 202.548996 
 32.398998, 133.34, 201.586990 
 32.556000, 132.69, 200.860001 
 32.432999, 133.20, 201.471008 
 32.516998, 132.85, 203.348999 
 32.551998, 132.71, 201.656998 
 32.403000, 133.32, 204.654999 
 32.424000, 133.23, 200.542999 
15
 61.681000, 70.04, 202.433014 
 60.480999, 71.43, 214.391983 
 61.564999, 70.17, 202.759003 
 60.574001, 71.32, 229.057007 
 61.527000, 70.21, 203.847992 
 60.619999, 71.26, 205.151001 
 60.487000, 71.42, 202.766998 
 60.682999, 71.19, 202.201004 
 61.412998, 70.34, 203.462006 
 60.602001, 71.28, 201.284988 
1
3
 2.858000, 1511.55, 204.645996 
 2.863000, 1508.91, 207.097992 
 2.831000, 1525.96, 202.007004 
 2.871000, 1504.70, 202.403992 
 2.929000, 1474.91, 205.507004 
 2.934000, 1472.39, 205.509995 
 2.863000, 1508.91, 203.306992 
 2.866000, 1507.33, 205.162003 
 2.932000, 1473.40, 201.623993 
 2.829000, 1527.04, 202.227005 
9
 21.981001, 196.53, 201.651001 
 21.806999, 198.10, 205.398987 
 21.743000, 198.68, 206.013000 
 21.746000, 198.66, 207.039001 
 21.669001, 199.36, 203.267990 
 21.851999, 197.69, 202.501999 
 21.816000, 198.02, 203.741013 
 21.827999, 197.91, 202.427994 
 21.829000, 197.90, 205.395004 
 21.757000, 198.56, 202.457001 
11
 33.582001, 128.64, 202.011002 
 32.546001, 132.74, 201.621994 
 32.445999, 133.14, 204.707001 
 32.424000, 133.23, 211.315002 
 33.508999, 128.92, 200.226990 
 32.457001, 133.10, 206.065002 
 32.456001, 133.10, 204.816010 
 32.551998, 132.71, 204.033005 
 32.441002, 133.16, 203.846008 
 32.361000, 133.49, 200.915985 
15
 61.671001, 70.05, 208.379990 
 61.528999, 70.21, 205.309998 
 60.451000, 71.46, 202.060989 
 61.155998, 70.64, 206.225006 
 60.535999, 71.36, 203.828995 
 60.471001, 71.44, 201.476990 
 60.563999, 71.33, 201.514008 
 60.480999, 71.43, 202.680008 
 60.667999, 71.21, 206.601013 
 61.637001, 70.09, 203.742004 
2
3
 2.827000, 1528.12, 204.391006 
 2.826000, 1528.66, 206.121002 
 2.926000, 1476.42, 202.327011 
 2.826000, 1528.66, 201.976990 
 2.829000, 1527.04, 203.773010 
 2.824000, 1529.75, 205.645996 
 2.928000, 1475.41, 216.024002 
 2.825000, 1529.20, 206.432999 
 2.830000, 1526.50, 202.949997 
 2.825000, 1529.20, 205.416000 


data/Experiment/z10_skull.pgm
0
3
 4.238000, 1533.10, 275.406982 
 4.226000, 1537.45, 294.957001 
 4.344000, 1495.69, 274.459015 
 4.241000, 1532.02, 279.587006 
 4.235000, 1534.19, 297.741028 
 4.230000, 1536.00, 273.203003 
 4.235000, 1534.19, 274.088013 
 4.231000, 1535.64, 273.493011 
 4.243000, 1531.29, 274.863983 
 4.234000, 1534.55, 273.039978 
9
 32.735001, 198.48, 277.841003 
 32.693001, 198.74, 275.720001 
 32.658001, 198.95, 271.761017 
 32.650002, 199.00, 272.096008 
 32.632000, 199.11, 273.520020 
 32.705002, 198.66, 273.624023 
 32.722000, 198.56, 273.116028 
 32.722000, 198.56, 275.640015 
 32.702000, 198.68, 295.795013 
 32.703999, 198.67, 275.436005 
11
 49.717999, 130.68, 278.518005 
 48.948002, 132.74, 274.019012 
 48.958000, 132.71, 274.632996 
 48.839001, 133.03, 275.166016 
 48.851002, 133.00, 275.362000 
 48.944000, 132.75, 274.618988 
 48.882000, 132.92, 274.217010 
 48.867001, 132.96, 274.286987 
 48.814999, 133.10, 275.726990 
 48.848999, 133.01, 277.153015 
15
 91.308998, 71.16, 274.972015 
 92.296997, 70.40, 277.912994 
 91.320000, 71.15, 275.173981 
 91.390999, 71.09, 274.817017 
 91.404999, 71.08, 274.541016 
 91.360001, 71.12, 273.091003 
 91.388000, 71.10, 274.117004 
 91.356003, 71.12, 272.697998 
 91.320000, 71.15, 273.114990 
 92.433998, 70.29, 271.563019 
1
3
 4.129000, 1573.57, 291.993988 
 4.133000, 1572.05, 290.487000 
 4.138000, 1570.15, 275.777985 
 4.669000, 1391.58, 274.380981 
 4.121000, 1576.63, 273.786011 
 4.238000, 1533.10, 276.285980 
 4.440000, 1463.35, 279.662994 
 4.234000, 1534.55, 277.291992 
 4.136000, 1570.91, 282.831024 
 4.323000, 1502.96, 277.186005 
9
 32.713001, 198.61, 275.185974 
 33.549999, 193.66, 276.787018 
 32.716000, 198.60, 275.235992 
 32.720001, 198.57, 276.122986 
 32.722000, 198.56, 274.500977 
 32.652000, 198.99, 292.627991 
 32.748001, 198.40, 273.841980 
 32.698002, 198.71, 278.536987 
 32.722000, 198.56, 298.629028 
 32.759998, 198.33, 279.574005 
11
 51.712002, 125.64, 281.734985 
 51.620998, 125.87, 276.302002 
 51.761002, 125.52, 278.646973 
 51.306000, 126.64, 279.076996 
 49.816002, 130.43, 278.432983 
 51.242001, 126.80, 276.165009 
 49.622002, 130.94, 291.407990 
 53.769001, 120.84, 280.722992 
 48.875000, 132.94, 276.973999 
 49.875000, 130.27, 285.835999 
15
 91.346001, 71.13, 277.416992 
 91.363998, 71.11, 280.450012 
 91.478996, 71.02, 277.752991 
 91.518997, 70.99, 275.960022 
 91.300003, 71.16, 277.226990 
 91.320000, 71.15, 278.431000 
 91.329002, 71.14, 277.803986 
 92.362000, 70.35, 278.496002 
 91.321999, 71.15, 277.690002 
 91.294998, 71.17, 279.580017 
2
3
 4.234000, 1534.55, 276.292999 
 4.242000, 1531.65, 275.535004 
 4.238000, 1533.10, 274.242981 
 4.237000, 1533.46, 273.630005 
 4.236000, 1533.82, 276.036011 
 4.224000, 1538.18, 274.639008 
 4.235000, 1534.19, 275.695007 
 4.237000, 1533.46, 273.817993 
 4.238000, 1533.10, 273.406006 
 4.241000, 1532.02, 273.597992 


