data/Experiment/1_cameraman.pgm
0
3
 0.093000, 704.69, 65.716995 
 0.214000, 306.24, 68.178001 
 0.093000, 704.69, 65.321999 
 0.092000, 712.35, 65.247993 
 0.092000, 712.35, 62.992001 
 0.092000, 712.35, 64.134995 
 0.091000, 720.18, 62.802002 
 0.092000, 712.35, 63.819000 
 0.093000, 704.69, 64.430000 
 0.096000, 682.67, 65.135002 
1
3
 0.093000, 704.69, 63.805000 
 0.091000, 720.18, 64.825996 
 0.092000, 712.35, 64.575996 
 0.093000, 704.69, 64.303001 
 0.092000, 712.35, 62.827000 
 0.092000, 712.35, 65.991997 
 0.093000, 704.69, 64.357994 
 0.091000, 720.18, 64.803993 
 0.092000, 712.35, 63.768002 
 0.091000, 720.18, 64.828995 
2
3
 0.093000, 704.69, 65.309998 
 0.093000, 704.69, 65.567001 
 0.091000, 720.18, 63.088001 
 0.092000, 712.35, 63.276001 
 0.092000, 712.35, 64.551994 
 0.092000, 712.35, 66.497993 
 0.092000, 712.35, 64.129997 
 0.093000, 704.69, 64.190994 
 0.092000, 712.35, 63.813999 
 0.097000, 675.63, 64.443001 


data/Experiment/2bird2.pgm
0
3
 0.262000, 858.78, 68.880997 
 0.258000, 872.09, 69.916000 
 0.261000, 862.07, 69.836998 
 0.258000, 872.09, 69.628998 
 0.258000, 872.09, 68.620995 
 0.258000, 872.09, 69.605995 
 0.259000, 868.73, 68.667000 
 0.259000, 868.73, 69.483994 
 0.259000, 868.73, 69.813995 
 0.261000, 862.07, 70.038002 
1
3
 0.259000, 868.73, 68.161995 
 0.257000, 875.49, 70.354996 
 0.257000, 875.49, 69.980995 
 0.261000, 862.07, 69.794998 
 0.258000, 872.09, 69.258995 
 0.257000, 875.49, 69.557999 
 0.259000, 868.73, 69.377998 
 0.258000, 872.09, 73.834999 
 0.259000, 868.73, 69.211998 
 0.259000, 868.73, 68.787994 
2
3
 0.260000, 865.38, 68.540001 
 0.259000, 868.73, 70.652000 
 0.259000, 868.73, 69.253998 
 0.259000, 868.73, 69.202995 
 0.258000, 872.09, 68.210999 
 0.262000, 858.78, 70.139999 
 0.259000, 868.73, 68.277000 
 0.257000, 875.49, 69.016998 
 0.259000, 868.73, 67.528999 
 0.260000, 865.38, 68.264000 


data/Experiment/3lena_bw.pgm
0
3
 0.291000, 900.84, 70.903999 
 0.291000, 900.84, 72.462997 
 0.291000, 900.84, 70.967003 
 0.297000, 882.64, 70.806999 
 0.295000, 888.62, 70.205002 
 0.290000, 903.94, 70.985001 
 0.291000, 900.84, 70.774002 
 0.292000, 897.75, 71.389000 
 0.292000, 897.75, 69.274002 
 0.291000, 900.84, 70.989998 
1
3
 0.293000, 894.69, 70.777000 
 0.292000, 897.75, 71.301003 
 0.292000, 897.75, 70.253998 
 0.291000, 900.84, 72.607002 
 0.291000, 900.84, 69.963997 
 0.292000, 897.75, 71.269997 
 0.292000, 897.75, 70.218002 
 0.291000, 900.84, 71.804001 
 0.292000, 897.75, 70.366997 
 0.292000, 897.75, 71.934998 
2
3
 0.292000, 897.75, 70.241997 
 0.291000, 900.84, 71.586998 
 0.293000, 894.69, 71.490997 
 0.291000, 900.84, 72.256996 
 0.295000, 888.62, 71.456001 
 0.293000, 894.69, 94.968002 
 0.293000, 894.69, 70.986000 
 0.302000, 868.03, 71.102997 
 0.291000, 900.84, 70.086998 
 0.292000, 897.75, 71.343002 


data/Experiment/4zelda2.pgm
0
3
 0.457000, 907.48, 76.165001 
 0.457000, 907.48, 76.401001 
 0.457000, 907.48, 76.181999 
 0.457000, 907.48, 75.175003 
 0.460000, 901.57, 75.744003 
 0.458000, 905.50, 75.718002 
 0.459000, 903.53, 75.951004 
 0.456000, 909.47, 75.211998 
 0.464000, 893.79, 76.755005 
 0.457000, 907.48, 75.890999 
1
3
 0.456000, 909.47, 76.561996 
 0.457000, 907.48, 77.279999 
 0.457000, 907.48, 75.459000 
 0.457000, 907.48, 76.476997 
 0.456000, 909.47, 76.435997 
 0.456000, 909.47, 76.667000 
 0.456000, 909.47, 75.595001 
 0.458000, 905.50, 76.289001 
 0.457000, 907.48, 76.172997 
 0.456000, 909.47, 75.709000 
2
3
 0.458000, 905.50, 78.281998 
 0.456000, 909.47, 76.267998 
 0.456000, 909.47, 76.003998 
 0.457000, 907.48, 76.959000 
 0.458000, 905.50, 75.588997 
 0.456000, 909.47, 76.319000 
 0.458000, 905.50, 75.894997 
 0.458000, 905.50, 76.345001 
 0.458000, 905.50, 75.196999 
 0.456000, 909.47, 76.865997 


data/Experiment/5ultrasound.pgm
0
3
 0.583000, 916.49, 79.747002 
 0.576000, 927.63, 81.732002 
 0.577000, 926.02, 80.525993 
 0.578000, 924.42, 81.634995 
 0.577000, 926.02, 80.148994 
 0.577000, 926.02, 80.209999 
 0.577000, 926.02, 79.613998 
 0.576000, 927.63, 80.088005 
 0.578000, 924.42, 78.272995 
 0.577000, 926.02, 85.003998 
1
3
 0.576000, 927.63, 80.801003 
 0.579000, 922.82, 81.173996 
 0.580000, 921.23, 80.339996 
 0.581000, 919.65, 80.989998 
 0.580000, 921.23, 79.975998 
 0.577000, 926.02, 80.066994 
 0.580000, 921.23, 80.573997 
 0.575000, 929.24, 80.203003 
 0.579000, 922.82, 79.901001 
 0.578000, 924.42, 80.045998 
2
3
 0.580000, 921.23, 79.431000 
 0.577000, 926.02, 80.175995 
 0.578000, 924.42, 80.149994 
 0.576000, 927.63, 79.987007 
 0.578000, 924.42, 78.714996 
 0.576000, 927.63, 80.265007 
 0.576000, 927.63, 78.978004 
 0.581000, 919.65, 80.820000 
 0.578000, 924.42, 79.493996 
 0.576000, 927.63, 79.770004 


data/Experiment/6shoulderCR.pgm
0
3
 0.857000, 927.43, 88.395996 
 0.858000, 926.35, 90.265999 
 0.858000, 926.35, 88.629997 
 0.859000, 925.27, 89.524002 
 0.860000, 924.20, 88.572998 
 0.861000, 923.12, 120.681000 
 0.862000, 922.05, 88.454002 
 0.859000, 925.27, 88.876999 
 0.864000, 919.92, 88.863998 
 0.861000, 923.12, 89.387001 
1
3
 0.863000, 920.98, 90.006004 
 0.862000, 922.05, 88.094002 
 0.862000, 922.05, 88.663002 
 0.863000, 920.98, 87.944000 
 0.860000, 924.20, 89.421997 
 0.863000, 920.98, 88.000000 
 0.860000, 924.20, 89.448997 
 0.865000, 918.85, 90.491005 
 0.860000, 924.20, 89.056999 
 0.858000, 926.35, 88.891998 
2
3
 0.862000, 922.05, 90.538002 
 0.864000, 919.92, 88.678001 
 0.860000, 924.20, 89.512001 
 0.859000, 925.27, 89.162003 
 0.859000, 925.27, 89.310997 
 0.857000, 927.43, 88.245995 
 0.864000, 919.92, 88.040001 
 0.859000, 925.27, 89.713997 
 0.859000, 925.27, 88.820999 
 0.860000, 924.20, 90.096001 


data/Experiment/7airplaneU2.pgm
0
3
 1.097000, 955.86, 98.327003 
 1.196000, 876.74, 98.958000 
 1.098000, 954.99, 97.820999 
 1.199000, 874.54, 97.694000 
 1.194000, 878.20, 96.998001 
 1.206000, 869.47, 97.770996 
 1.206000, 869.47, 97.705002 
 1.101000, 952.39, 97.032005 
 1.097000, 955.86, 96.731003 
 1.101000, 952.39, 98.629005 
1
3
 1.101000, 952.39, 98.437004 
 1.202000, 872.36, 98.343994 
 1.115000, 940.43, 98.958000 
 1.106000, 948.08, 98.478996 
 1.197000, 876.00, 96.560005 
 1.096000, 956.73, 96.820999 
 1.196000, 876.74, 97.376999 
 1.105000, 948.94, 96.662994 
 1.100000, 953.25, 98.486000 
 1.245000, 842.23, 98.055000 
2
3
 1.194000, 878.20, 98.148003 
 1.198000, 875.27, 97.873001 
 1.196000, 876.74, 98.821999 
 1.111000, 943.81, 98.487999 
 1.201000, 873.09, 98.747002 
 1.202000, 872.36, 125.286995 
 1.095000, 957.60, 98.389999 
 1.194000, 878.20, 98.506996 
 1.209000, 867.31, 98.054001 
 1.202000, 872.36, 101.042000 


data/Experiment/8bone_scint.pgm
0
3
 2.232000, 943.36, 133.332001 
 2.236000, 941.67, 132.221008 
 2.326000, 905.24, 171.028992 
 2.230000, 944.21, 132.165009 
 2.230000, 944.21, 132.453003 
 2.373000, 887.31, 133.026993 
 2.233000, 942.94, 133.238998 
 2.426000, 867.92, 132.733002 
 2.325000, 905.63, 132.751999 
 2.230000, 944.21, 133.225998 
1
3
 2.841000, 741.14, 132.386993 
 2.229000, 944.63, 133.681000 
 2.230000, 944.21, 133.104004 
 2.825000, 745.34, 133.919006 
 2.232000, 943.36, 133.269012 
 2.235000, 942.10, 133.317993 
 2.231000, 943.79, 132.272003 
 2.229000, 944.63, 134.050003 
 2.234000, 942.52, 132.569000 
 2.377000, 885.82, 133.341995 
2
3
 2.227000, 945.48, 132.761002 
 2.388000, 881.74, 138.266006 
 2.849000, 739.06, 133.022995 
 2.328000, 904.46, 132.323990 
 2.236000, 941.67, 132.292999 
 2.845000, 740.10, 175.076004 
 2.226000, 945.91, 132.464996 
 2.366000, 889.93, 132.214005 
 2.228000, 945.06, 132.471008 
 2.879000, 731.36, 131.744995 


data/Experiment/9blackhole.pgm
0
3
 4.544000, 950.70, 204.349991 
 4.451000, 970.57, 206.841003 
 4.449000, 971.00, 204.873993 
 4.446000, 971.66, 201.936996 
 4.450000, 970.79, 202.609009 
 4.455000, 969.70, 201.673004 
 4.451000, 970.57, 201.949997 
 4.545000, 950.50, 201.014999 
 4.543000, 950.91, 201.311996 
 4.443000, 972.32, 200.484009 
1
3
 4.440000, 972.97, 203.057999 
 4.451000, 970.57, 204.304001 
 4.446000, 971.66, 203.427002 
 4.547000, 950.08, 202.714005 
 4.560000, 947.37, 202.718002 
 4.449000, 971.00, 204.209000 
 4.448000, 971.22, 202.625000 
 4.448000, 971.22, 201.619995 
 4.442000, 972.53, 201.048996 
 4.443000, 972.32, 241.831009 
2
3
 4.547000, 950.08, 201.033997 
 4.449000, 971.00, 200.580002 
 4.451000, 970.57, 200.953995 
 4.443000, 972.32, 202.512009 
 4.451000, 970.57, 201.692993 
 4.445000, 971.88, 199.772995 
 4.444000, 972.10, 201.507004 
 4.449000, 971.00, 202.244995 
 4.447000, 971.44, 202.307999 
 4.544000, 950.70, 201.938995 


data/Experiment/z10_skull.pgm
0
3
 7.538000, 861.94, 271.554993 
 6.718000, 967.15, 272.730011 
 6.710000, 968.30, 272.184998 
 6.714000, 967.72, 271.436005 
 6.718000, 967.15, 288.150024 
 6.709000, 968.44, 272.697998 
 6.716000, 967.43, 276.862000 
 6.709000, 968.44, 274.932983 
 6.717000, 967.29, 273.066986 
 6.723000, 966.43, 313.886017 
1
3
 6.714000, 967.72, 273.717010 
 6.714000, 967.72, 279.540009 
 6.711000, 968.15, 274.130005 
 6.713000, 967.87, 273.875977 
 6.708000, 968.59, 272.483978 
 6.718000, 967.15, 274.993011 
 6.710000, 968.30, 272.912994 
 6.710000, 968.30, 279.359009 
 6.710000, 968.30, 272.460022 
 6.715000, 967.58, 271.449005 
2
3
 6.716000, 967.43, 274.544006 
 6.713000, 967.87, 273.655975 
 6.716000, 967.43, 274.328003 
 6.706000, 968.88, 273.307007 
 6.716000, 967.43, 273.954987 
 6.710000, 968.30, 272.897003 
 6.716000, 967.43, 280.570984 
 6.715000, 967.58, 300.100006 
 6.717000, 967.29, 272.731995 
 6.719000, 967.00, 275.468018 


