data/Experiment/1_cameraman.pgm
0
11
 0.635000, 103.21, 106.707001 
 0.634000, 103.37, 66.134995 
 0.634000, 103.37, 65.546997 
 0.632000, 103.70, 62.530998 
 0.632000, 103.70, 65.332993 
 0.633000, 103.53, 61.688000 
 0.635000, 103.21, 64.897995 
 0.631000, 103.86, 62.908001 
 0.633000, 103.53, 63.827000 
 0.678000, 96.66, 63.105999 
1
11
 0.631000, 103.86, 64.582001 
 0.634000, 103.37, 62.699001 
 0.634000, 103.37, 64.946999 
 0.633000, 103.53, 62.601002 
 0.632000, 103.70, 65.039993 
 0.632000, 103.70, 62.105999 
 0.633000, 103.53, 64.309998 
 0.634000, 103.37, 62.808002 
 0.633000, 103.53, 64.718994 
 0.633000, 103.53, 62.973999 


data/Experiment/2bird2.pgm
0
11
 2.165000, 103.93, 71.031998 
 2.136000, 105.34, 70.241997 
 2.146000, 104.85, 70.587997 
 2.318000, 97.07, 69.981003 
 2.162000, 104.07, 68.967995 
 2.137000, 105.29, 69.025002 
 2.137000, 105.29, 69.304001 
 2.150000, 104.65, 68.608002 
 2.136000, 105.34, 68.961998 
 2.146000, 104.85, 69.106995 
1
11
 2.170000, 103.69, 69.619003 
 2.139000, 105.19, 70.218002 
 2.138000, 105.24, 69.153999 
 2.136000, 105.34, 69.175995 
 2.136000, 105.34, 68.501999 
 2.139000, 105.19, 69.806999 
 2.138000, 105.24, 69.032997 
 2.140000, 105.14, 69.040001 
 2.140000, 105.14, 70.365997 
 2.149000, 104.70, 68.891998 


data/Experiment/3lena_bw.pgm
0
11
 2.551000, 102.76, 71.609001 
 2.452000, 106.91, 71.631996 
 2.553000, 102.68, 73.173996 
 2.450000, 107.00, 69.989006 
 2.450000, 107.00, 71.420006 
 2.450000, 107.00, 71.058006 
 2.453000, 106.87, 71.514999 
 2.451000, 106.95, 71.862007 
 2.452000, 106.91, 71.885994 
 2.450000, 107.00, 69.742004 
1
11
 2.448000, 107.08, 72.431999 
 2.452000, 106.91, 72.157997 
 2.448000, 107.08, 70.855003 
 2.449000, 107.04, 71.607002 
 2.451000, 106.95, 72.252007 
 2.448000, 107.08, 69.973999 
 2.448000, 107.08, 71.956001 
 2.451000, 106.95, 70.085007 
 2.450000, 107.00, 71.498001 
 2.450000, 107.00, 71.576004 


data/Experiment/4zelda2.pgm
0
11
 3.898000, 106.39, 77.959999 
 4.940000, 83.95, 79.740997 
 3.900000, 106.34, 76.685997 
 3.997000, 103.76, 77.247002 
 3.900000, 106.34, 75.976997 
 3.910000, 106.07, 76.608994 
 4.044000, 102.55, 76.202003 
 3.899000, 106.37, 75.400002 
 4.043000, 102.58, 79.446999 
 4.634000, 89.50, 76.594994 
1
11
 3.900000, 106.34, 77.486000 
 3.899000, 106.37, 76.954994 
 4.687000, 88.48, 76.604004 
 4.045000, 102.53, 76.496002 
 3.903000, 106.26, 77.246002 
 3.898000, 106.39, 77.072998 
 3.899000, 106.37, 76.924995 
 4.717000, 87.92, 76.806000 
 3.899000, 106.37, 77.660995 
 3.898000, 106.39, 103.577995 


data/Experiment/5ultrasound.pgm
0
11
 4.932000, 108.34, 80.434998 
 6.055000, 88.24, 82.805000 
 4.933000, 108.31, 79.883003 
 4.932000, 108.34, 80.832001 
 5.047000, 105.87, 80.158005 
 4.958000, 107.77, 80.214996 
 5.658000, 94.44, 79.431000 
 5.051000, 105.78, 80.347000 
 4.935000, 108.27, 79.588005 
 5.677000, 94.12, 79.884995 
1
11
 5.050000, 105.80, 80.267998 
 5.038000, 106.06, 81.654999 
 4.935000, 108.27, 81.198006 
 4.956000, 107.81, 79.885002 
 4.930000, 108.38, 80.135002 
 5.691000, 93.89, 79.918999 
 4.932000, 108.34, 80.417999 
 4.955000, 107.83, 78.907997 
 5.724000, 93.35, 79.238998 
 5.068000, 105.43, 80.612000 


data/Experiment/6shoulderCR.pgm
0
11
 7.549000, 105.29, 88.707001 
 8.607000, 92.34, 89.508995 
 7.538000, 105.44, 89.411995 
 7.518000, 105.72, 89.466003 
 7.420000, 107.12, 89.857002 
 7.525000, 105.62, 89.789001 
 7.421000, 107.10, 88.681999 
 7.417000, 107.16, 89.038002 
 7.521000, 105.68, 90.524994 
 7.416000, 107.17, 89.338997 
1
11
 7.421000, 107.10, 90.264000 
 7.427000, 107.02, 90.457001 
 7.420000, 107.12, 89.756004 
 7.531000, 105.54, 90.306999 
 7.415000, 107.19, 87.941002 
 7.418000, 107.15, 88.487000 
 7.566000, 105.05, 90.419998 
 7.419000, 107.13, 88.030998 
 7.426000, 107.03, 88.655998 
 7.527000, 105.59, 88.822998 


data/Experiment/7airplaneU2.pgm
0
11
 9.589000, 109.35, 100.649002 
 10.771000, 97.35, 99.160995 
 10.605000, 98.88, 97.014999 
 9.693000, 108.18, 98.149002 
 9.686000, 108.26, 97.028999 
 9.729000, 107.78, 97.253998 
 9.729000, 107.78, 97.212006 
 9.737000, 107.69, 97.528000 
 9.689000, 108.22, 96.725998 
 10.609000, 98.84, 97.166000 
1
11
 9.690000, 108.21, 97.214996 
 9.744000, 107.61, 98.307999 
 10.633000, 98.62, 97.879997 
 9.685000, 108.27, 98.048004 
 10.646000, 98.49, 97.334000 
 10.610000, 98.83, 96.982002 
 10.690000, 98.09, 97.513000 
 9.686000, 108.26, 98.120003 
 10.506000, 99.81, 117.923996 
 10.392000, 100.90, 99.675003 


data/Experiment/8bone_scint.pgm
0
11
 21.190001, 99.37, 132.565994 
 19.768000, 106.51, 134.713989 
 19.774000, 106.48, 135.675003 
 19.738001, 106.68, 133.987000 
 20.344999, 103.49, 133.128006 
 20.586000, 102.28, 132.979996 
 19.726999, 106.74, 133.862991 
 19.750999, 106.61, 133.229004 
 20.539000, 102.52, 132.313995 
 19.743000, 106.65, 133.787003 
1
11
 19.740000, 106.67, 134.071991 
 19.735001, 106.69, 134.546997 
 20.559000, 102.42, 132.022995 
 19.740999, 106.66, 133.091003 
 19.736000, 106.69, 131.855988 
 20.587000, 102.28, 132.420990 
 19.725000, 106.75, 131.670990 
 19.757999, 106.57, 132.680008 
 20.549999, 102.46, 131.304993 
 19.754000, 106.59, 132.225006 


data/Experiment/9blackhole.pgm
0
11
 39.437000, 109.54, 201.531998 
 40.658001, 106.25, 202.792999 
 39.554001, 109.22, 204.804993 
 39.511002, 109.34, 201.033997 
 39.556999, 109.21, 201.131989 
 39.549000, 109.23, 203.039001 
 39.438000, 109.54, 203.338989 
 39.426998, 109.57, 204.291000 
 39.411999, 109.61, 203.940002 
 39.507999, 109.34, 203.154007 
1
11
 40.814999, 105.84, 201.371002 
 39.511002, 109.34, 211.205994 
 41.306999, 104.58, 228.756989 
 41.449001, 104.22, 202.737000 
 39.443001, 109.53, 201.071014 
 39.432999, 109.55, 200.089005 
 39.438999, 109.54, 200.291000 
 39.438000, 109.54, 201.621994 
 39.437000, 109.54, 201.150009 
 39.444000, 109.52, 201.684998 


data/Experiment/z10_skull.pgm
0
11
 61.474998, 105.69, 272.045990 
 59.667000, 108.89, 276.826996 
 59.696999, 108.84, 274.462006 
 59.687000, 108.86, 290.845001 
 59.641998, 108.94, 276.592010 
 59.699001, 108.83, 275.088989 
 59.667000, 108.89, 273.343994 
 59.675999, 108.88, 277.550018 
 59.709000, 108.82, 275.077026 
 59.699001, 108.83, 273.979004 
1
11
 59.720001, 108.80, 273.747986 
 59.712002, 108.81, 273.167999 
 59.706001, 108.82, 273.037018 
 59.726002, 108.78, 274.539978 
 59.729000, 108.78, 275.718994 
 59.720001, 108.80, 291.197998 
 59.689999, 108.85, 274.253998 
 59.714001, 108.81, 271.635010 
 59.674999, 108.88, 274.928009 
 59.674999, 108.88, 273.065002 


