 36.695999, 1.79 
 37.786999, 1.73 
 36.692001, 1.79 
 36.994999, 1.77 
 36.904999, 1.78 
 36.683998, 1.79 
 36.958000, 1.77 
 37.500000, 1.75 
 36.698002, 1.79 
 38.249001, 1.71 
 
 125.408997, 1.75 
 123.512001, 1.77 
 123.166000, 1.78 
 122.964996, 1.78 
 123.608002, 1.77 
 123.261002, 1.78 
 123.813004, 1.77 
 123.281998, 1.78 
 123.233002, 1.78 
 123.499001, 1.77 
 
 304.296997, 1.76 
 301.542999, 1.77 
 301.713013, 1.77 
 301.591003, 1.77 
 305.684998, 1.75 
 302.433014, 1.77 
 306.306000, 1.74 
 303.825989, 1.76 
 301.303986, 1.77 
 300.527008, 1.78 
 
 
 342.735992, 1.77 
 343.356995, 1.77 
 342.027008, 1.78 
 343.872009, 1.77 
 343.855011, 1.77 
 342.325012, 1.78 
 341.877014, 1.78 
 342.811005, 1.77 
 342.971008, 1.77 
 342.739990, 1.77 
 342.403992, 1.78 
 
 
