 98.136002, 0.67 
 98.938004, 0.66 
 97.653000, 0.67 
 98.926003, 0.66 
 98.001999, 0.67 
 98.858002, 0.66 
 98.336998, 0.67 
 98.309998, 0.67 
 97.867996, 0.67 
 99.551003, 0.66 
 
 332.084015, 0.66 
 332.923004, 0.66 
 334.458008, 0.65 
 348.778015, 0.63 
 338.265991, 0.65 
 334.311005, 0.66 
 331.890015, 0.66 
 332.078003, 0.66 
 332.553009, 0.66 
 331.984009, 0.66 
 
 822.422974, 0.65 
 828.106018, 0.65 
 832.768005, 0.64 
 829.273987, 0.64 
 827.754028, 0.65 
 828.568970, 0.64 
 822.924011, 0.65 
 827.927979, 0.65 
 826.655029, 0.65 
 833.666992, 0.64 
 
 
 932.187988, 0.65 
 937.848022, 0.65 
 942.640015, 0.65 
 985.614990, 0.62 
 1174.468994, 0.52 
 1000.276978, 0.61 
 985.664001, 0.62 
 987.046021, 0.62 
 975.018982, 0.62 
 944.346008, 0.64

