 4.381000, 14.96 
 7.635000, 8.58 
 4.541000, 14.43 
 4.465000, 14.68 
 4.395000, 14.91 
 4.393000, 14.92 
 4.392000, 14.92 
 4.589000, 14.28 
 4.383000, 14.95 
 4.419000, 14.83 

 14.969000, 14.63 
 14.677000, 14.92 
 14.761000, 14.84 
 14.668000, 14.93 
 15.025000, 14.58 
 15.136000, 14.47 
 15.155000, 14.45 
 14.739000, 14.86 
 14.620000, 14.98 
 16.308001, 13.43 
 
 36.140999, 14.78 
 35.794998, 14.93 
 35.715000, 14.96 
 36.124001, 14.79 
 36.429001, 14.67 
 36.015999, 14.84 
 36.069000, 14.81 
 35.717999, 14.96 
 36.222000, 14.75 
 36.021000, 14.83 
 
 41.112000, 14.79 
 40.686001, 14.95 
 41.028999, 14.82 
 40.643002, 14.96 
 40.667000, 14.96 
 40.946999, 14.85 
 42.631001, 14.27 
 40.591999, 14.98 
 42.078999, 14.45 
 40.823002, 14.90 
 
 
