data/Experiment/1_cameraman.pgm
0
9
 0.195000, 336.08, 65.195999 
 0.197000, 332.67, 66.394005 
 0.192000, 341.33, 65.279999 
 0.192000, 341.33, 64.945999 
 0.196000, 334.37, 64.045998 
 0.195000, 336.08, 64.615997 
 0.195000, 336.08, 64.442001 
 0.195000, 336.08, 64.926003 
 0.196000, 334.37, 66.599998 
 0.194000, 337.81, 65.973999 
1
9
 0.200000, 327.68, 63.723999 
 0.196000, 334.37, 64.720001 
 0.191000, 343.12, 64.615997 
 0.196000, 334.37, 64.589005 
 0.192000, 341.33, 65.014000 
 0.199000, 329.33, 64.214005 
 0.196000, 334.37, 65.134003 
 0.196000, 334.37, 64.993004 
 0.192000, 341.33, 64.258995 
 0.197000, 332.67, 64.416000 


data/Experiment/2bird2.pgm
0
9
 0.601000, 374.38, 68.923004 
 0.601000, 374.38, 70.356003 
 0.603000, 373.13, 69.533005 
 0.601000, 374.38, 70.511002 
 0.599000, 375.63, 69.653999 
 0.601000, 374.38, 71.071999 
 0.601000, 374.38, 70.670006 
 0.603000, 373.13, 70.024002 
 0.601000, 374.38, 69.890999 
 0.601000, 374.38, 68.630005 
1
9
 0.603000, 373.13, 69.654007 
 0.602000, 373.75, 71.082001 
 0.601000, 374.38, 69.195000 
 0.598000, 376.25, 69.820000 
 0.603000, 373.13, 69.321007 
 0.603000, 373.13, 71.255005 
 0.613000, 367.05, 69.503998 
 0.600000, 375.00, 69.733002 
 0.604000, 372.52, 69.099007 
 0.604000, 372.52, 69.907005 


data/Experiment/3lena_bw.pgm
0
9
 0.680000, 385.51, 71.425003 
 0.680000, 385.51, 72.684998 
 0.678000, 386.64, 70.769997 
 0.679000, 386.07, 71.884003 
 0.683000, 383.81, 70.821999 
 0.679000, 386.07, 71.845001 
 0.683000, 383.81, 71.378998 
 0.685000, 382.69, 71.732002 
 0.680000, 385.51, 73.131996 
 0.684000, 383.25, 70.958000 
1
9
 0.714000, 367.15, 73.408005 
 0.680000, 385.51, 70.825996 
 0.684000, 383.25, 71.667999 
 0.676000, 387.79, 71.271996 
 0.680000, 385.51, 70.695999 
 0.682000, 384.38, 82.473000 
 0.716000, 366.12, 73.669998 
 0.681000, 384.94, 70.594002 
 0.686000, 382.13, 71.690002 
 0.681000, 384.94, 69.893997 


data/Experiment/4zelda2.pgm
0
9
 1.080000, 384.00, 76.861000 
 1.084000, 382.58, 77.009003 
 1.081000, 383.64, 78.404999 
 1.082000, 383.29, 76.445999 
 1.082000, 383.29, 77.444000 
 1.080000, 384.00, 75.841995 
 1.079000, 384.36, 75.144997 
 1.089000, 380.83, 77.110001 
 1.080000, 384.00, 76.678001 
 1.081000, 383.64, 77.168999 
1
9
 1.082000, 383.29, 77.386002 
 1.203000, 344.74, 77.138000 
 1.084000, 382.58, 76.193001 
 1.082000, 383.29, 77.072998 
 1.083000, 382.94, 77.780998 
 1.082000, 383.29, 76.737000 
 1.079000, 384.36, 77.738998 
 1.084000, 382.58, 76.465004 
 1.081000, 383.64, 78.334999 
 1.084000, 382.58, 78.070999 


data/Experiment/5ultrasound.pgm
0
9
 1.360000, 392.88, 79.376999 
 1.359000, 393.17, 81.107002 
 1.359000, 393.17, 80.913002 
 1.355000, 394.33, 82.036995 
 1.362000, 392.30, 80.429001 
 1.365000, 391.44, 79.987000 
 1.356000, 394.04, 79.802994 
 1.351000, 395.50, 81.778999 
 1.357000, 393.75, 81.223999 
 1.356000, 394.04, 80.697998 
1
9
 1.358000, 393.46, 81.174995 
 1.356000, 394.04, 80.790001 
 1.476000, 362.00, 80.374001 
 1.356000, 394.04, 80.644997 
 1.461000, 365.72, 82.305000 
 1.353000, 394.91, 80.806000 
 1.462000, 365.47, 80.104004 
 1.356000, 394.04, 79.913994 
 1.356000, 394.04, 79.944000 
 1.356000, 394.04, 79.971001 


data/Experiment/6shoulderCR.pgm
0
9
 2.037000, 390.19, 88.026001 
 2.037000, 390.19, 88.299995 
 2.039000, 389.80, 88.772995 
 2.039000, 389.80, 89.816002 
 2.161000, 367.80, 90.308998 
 2.037000, 390.19, 92.268997 
 2.043000, 389.04, 89.396004 
 2.042000, 389.23, 90.300003 
 2.040000, 389.61, 90.702995 
 2.042000, 389.23, 90.720001 
1
9
 2.041000, 389.42, 91.358002 
 2.163000, 367.46, 90.019997 
 2.057000, 386.39, 89.164001 
 2.042000, 389.23, 88.641998 
 2.037000, 390.19, 88.854996 
 2.037000, 390.19, 88.887001 
 2.037000, 390.19, 88.745995 
 2.046000, 388.47, 88.601006 
 2.034000, 390.76, 88.194000 
 2.036000, 390.38, 88.654999 


data/Experiment/7airplaneU2.pgm
0
9
 2.623000, 399.76, 97.204002 
 2.620000, 400.22, 97.301994 
 2.726000, 384.66, 96.746002 
 2.729000, 384.23, 96.729996 
 2.739000, 382.83, 96.285004 
 2.730000, 384.09, 96.069000 
 2.734000, 383.53, 96.445000 
 2.625000, 399.46, 97.559998 
 2.616000, 400.83, 100.125000 
 2.892000, 362.58, 97.174004 
1
9
 2.619000, 400.37, 101.188995 
 2.628000, 399.00, 97.195999 
 2.851000, 367.79, 95.874001 
 2.729000, 384.23, 97.395996 
 3.723000, 281.65, 97.985001 
 2.621000, 400.07, 97.513000 
 2.728000, 384.38, 98.594002 
 2.734000, 383.53, 96.124001 
 2.618000, 400.53, 100.190002 
 2.618000, 400.53, 96.727005 


data/Experiment/8bone_scint.pgm
0
9
 5.331000, 394.97, 134.179001 
 5.339000, 394.38, 133.086990 
 5.341000, 394.23, 132.873001 
 5.339000, 394.38, 133.843002 
 5.356000, 393.13, 132.793991 
 5.366000, 392.39, 131.809006 
 5.346000, 393.86, 131.054001 
 5.335000, 394.67, 132.529999 
 5.344000, 394.01, 132.509003 
 5.354000, 393.27, 131.322998 
1
9
 5.350000, 393.57, 132.585999 
 5.349000, 393.64, 132.162003 
 5.342000, 394.16, 133.901001 
 5.344000, 394.01, 132.091003 
 5.352000, 393.42, 131.963989 
 5.357000, 393.05, 132.097000 
 5.335000, 394.67, 131.337997 
 5.337000, 394.53, 133.128998 
 5.339000, 394.38, 131.113998 
 5.340000, 394.30, 132.251007 


data/Experiment/9blackhole.pgm
0
9
 10.679000, 404.53, 202.067001 
 10.696000, 403.89, 202.249008 
 10.807000, 399.74, 204.018997 
 10.683000, 404.38, 205.800003 
 10.906000, 396.11, 202.950989 
 10.672000, 404.80, 202.986008 
 10.804000, 399.85, 203.403992 
 10.684000, 404.34, 201.011993 
 10.683000, 404.38, 204.494003 
 10.801000, 399.96, 205.259003 
1
9
 10.684000, 404.34, 203.733002 
 10.700000, 403.74, 205.865997 
 10.689000, 404.15, 201.051010 
 10.808000, 399.70, 205.318008 
 10.675000, 404.68, 203.856995 
 10.819000, 399.30, 204.225006 
 10.684000, 404.34, 201.323990 
 10.683000, 404.38, 205.833008 
 10.784000, 400.59, 202.844009 
 10.693000, 404.00, 206.391006 


data/Experiment/z10_skull.pgm
0
9
 17.388000, 373.66, 274.700989 
 16.188000, 401.36, 272.098022 
 16.167999, 401.86, 271.540009 
 16.188999, 401.34, 271.681000 
 16.181000, 401.54, 271.337006 
 16.191999, 401.26, 271.608002 
 16.194000, 401.22, 276.802002 
 16.209000, 400.84, 274.692017 
 16.288000, 398.90, 278.320007 
 16.191999, 401.26, 274.743011 
1
9
 16.306999, 398.44, 274.410980 
 16.193001, 401.24, 276.951996 
 16.285000, 398.97, 278.029999 
 16.167000, 401.89, 277.085022 
 16.191000, 401.29, 273.378998 
 16.172001, 401.76, 271.252014 
 16.292999, 398.78, 272.626007 
 16.209000, 400.84, 272.624023 
 16.292000, 398.80, 273.085999 
 16.283001, 399.02, 270.783997 


