data/Experiment/1_cameraman.pgm
0
3
 4.840000, 13.54, 59.153999 
 4.921000, 13.32, 49.681999 
 4.835000, 13.55, 49.267002 
 4.940000, 13.27, 49.839001 
 4.844000, 13.53, 48.527000 
 4.828000, 13.57, 51.066002 
 4.878000, 13.44, 48.415001 
 4.835000, 13.55, 49.708000 
 4.917000, 13.33, 48.022999 
 4.858000, 13.49, 50.822998 
9
 41.462002, 1.58, 48.414997 
 41.043999, 1.60, 49.206001 
 40.773998, 1.61, 48.736004 
 41.224998, 1.59, 48.300003 
 41.159000, 1.59, 49.170002 
 41.015999, 1.60, 48.586998 
 40.855999, 1.60, 48.337002 
 40.804001, 1.61, 48.237000 
 40.730999, 1.61, 48.543003 
 40.872002, 1.60, 48.591995 
11
 61.020000, 1.07, 49.421001 
 61.465000, 1.07, 48.424999 
 60.763000, 1.08, 48.085999 
 60.691002, 1.08, 48.308998 
 60.960999, 1.08, 48.172005 
 60.727001, 1.08, 48.049000 
 60.631001, 1.08, 48.064999 
 60.341999, 1.09, 48.798000 
 60.782001, 1.08, 48.310001 
 61.188999, 1.07, 48.441998 
15
 111.794998, 0.59, 49.860001 
 111.125000, 0.59, 47.964005 
 111.319000, 0.59, 47.348999 
 112.483002, 0.58, 47.656006 
 111.734001, 0.59, 47.728004 
 112.137001, 0.58, 48.316994 
 111.349998, 0.59, 47.777000 
 113.017998, 0.58, 47.999001 
 113.011002, 0.58, 47.867996 
 112.369003, 0.58, 47.780991 
1
3
 5.092000, 12.87, 48.181999 
 5.095000, 12.86, 51.261997 
 5.096000, 12.86, 48.166000 
 5.094000, 12.87, 50.925003 
 5.142000, 12.75, 48.227997 
 5.095000, 12.86, 49.743000 
 5.177000, 12.66, 48.570999 
 5.120000, 12.80, 51.664001 
 5.094000, 12.87, 48.816002 
 5.115000, 12.81, 51.002998 
9
 42.798000, 1.53, 47.581997 
 41.464001, 1.58, 49.483997 
 41.375000, 1.58, 48.389999 
 42.476002, 1.54, 49.283001 
 41.251999, 1.59, 50.512001 
 41.916000, 1.56, 48.546997 
 43.192001, 1.52, 48.026001 
 43.180000, 1.52, 48.542000 
 42.938000, 1.53, 48.327000 
 42.992001, 1.52, 48.271000 
11
 63.492001, 1.03, 50.045002 
 62.248001, 1.05, 48.116997 
 62.331001, 1.05, 50.029999 
 62.661999, 1.05, 49.281002 
 61.776001, 1.06, 49.455002 
 61.507999, 1.07, 48.375004 
 61.681000, 1.06, 69.940994 
 61.396999, 1.07, 48.674999 
 61.466000, 1.07, 49.202000 
 61.230999, 1.07, 49.412998 
15
 113.105003, 0.58, 52.053001 
 114.415001, 0.57, 49.325996 
 112.301003, 0.58, 48.933998 
 114.686996, 0.57, 49.052002 
 113.660004, 0.58, 48.966003 
 113.015999, 0.58, 48.583000 
 113.786003, 0.58, 47.631004 
 113.670998, 0.58, 49.640007 
 114.183998, 0.57, 48.861000 
 113.522003, 0.58, 49.108002 
2
3
 5.457000, 12.01, 49.125000 
 5.385000, 12.17, 49.416000 
 5.361000, 12.22, 48.452000 
 5.327000, 12.30, 50.610001 
 5.365000, 12.22, 48.050003 
 5.380000, 12.18, 49.326000 
 5.360000, 12.23, 47.682999 
 5.400000, 12.14, 49.505997 
 5.564000, 11.78, 47.916000 
 5.328000, 12.30, 50.521999 


data/Experiment/2bird2.pgm
0
3
 16.705999, 13.47, 54.318001 
 16.941000, 13.28, 54.629997 
 16.600000, 13.55, 53.015999 
 16.742001, 13.44, 57.420002 
 18.716999, 12.02, 55.821003 
 17.539000, 12.83, 56.316002 
 18.249001, 12.33, 55.001999 
 16.799000, 13.39, 53.592999 
 16.893000, 13.32, 52.887001 
 16.719999, 13.46, 54.071999 
9
 139.352005, 1.61, 52.949997 
 139.404007, 1.61, 52.439987 
 139.837997, 1.61, 52.871002 
 140.225998, 1.60, 52.681000 
 142.149002, 1.58, 53.755997 
 142.727005, 1.58, 54.184998 
 140.992004, 1.60, 52.876999 
 140.535995, 1.60, 53.723999 
 141.705002, 1.59, 54.143997 
 141.839996, 1.59, 52.738998 
11
 208.675003, 1.08, 53.841995 
 208.873001, 1.08, 52.680008 
 206.994995, 1.09, 52.561005 
 207.516998, 1.08, 52.924011 
 207.983002, 1.08, 52.934998 
 207.149002, 1.09, 53.719986 
 206.526001, 1.09, 53.200989 
 208.218994, 1.08, 52.300018 
 207.197006, 1.09, 53.490982 
 209.903000, 1.07, 52.887009 
15
 380.451996, 0.59, 53.091003 
 381.811005, 0.59, 53.000000 
 381.649994, 0.59, 52.559998 
 381.682007, 0.59, 52.565002 
 386.503998, 0.58, 54.028015 
 381.787994, 0.59, 53.048004 
 383.998993, 0.59, 53.774017 
 384.315002, 0.59, 53.285004 
 382.884003, 0.59, 53.093994 
 380.975006, 0.59, 53.131989 
1
3
 17.740000, 12.68, 53.939003 
 17.160000, 13.11, 55.088001 
 17.170000, 13.10, 52.845001 
 17.270000, 13.03, 53.851002 
 17.145000, 13.12, 52.952000 
 17.188000, 13.09, 52.796001 
 17.683001, 12.72, 53.434998 
 17.481001, 12.87, 56.361000 
 17.622999, 12.77, 53.623001 
 18.896999, 11.91, 59.845997 
9
 141.451996, 1.59, 55.217010 
 142.960007, 1.57, 53.459991 
 142.153000, 1.58, 55.167999 
 140.223999, 1.60, 52.802002 
 143.031006, 1.57, 53.196991 
 141.347000, 1.59, 53.141998 
 141.352005, 1.59, 53.065002 
 141.809998, 1.59, 52.638000 
 144.307999, 1.56, 53.548996 
 141.809998, 1.59, 53.264008 
11
 210.306000, 1.07, 52.929993 
 208.151001, 1.08, 53.471008 
 209.686996, 1.07, 53.741989 
 208.389008, 1.08, 52.824982 
 208.593994, 1.08, 54.173004 
 209.856003, 1.07, 54.608994 
 209.201996, 1.08, 54.208008 
 208.360001, 1.08, 53.986984 
 208.285995, 1.08, 53.352005 
 211.792007, 1.06, 53.475998 
15
 384.117004, 0.59, 53.868988 
 383.238007, 0.59, 53.625000 
 384.243988, 0.59, 53.880005 
 384.614014, 0.59, 52.763977 
 390.807007, 0.58, 54.437988 
 389.898010, 0.58, 53.963989 
 385.131012, 0.58, 53.848999 
 383.270996, 0.59, 54.069000 
 387.839996, 0.58, 58.019012 
 388.683990, 0.58, 58.449005 
2
3
 19.111000, 11.77, 55.290001 
 18.552000, 12.13, 54.294998 
 18.263000, 12.32, 52.870003 
 18.309000, 12.29, 55.185005 
 18.761999, 11.99, 54.116997 
 18.278000, 12.31, 55.230003 
 18.479000, 12.18, 55.040997 
 18.518000, 12.15, 55.145004 
 18.806000, 11.96, 53.594002 
 18.466999, 12.18, 54.154003 


data/Experiment/3lena_bw.pgm
0
3
 19.309999, 13.58, 54.285004 
 20.697001, 12.67, 56.307999 
 20.082001, 13.05, 56.108002 
 19.746000, 13.28, 55.028999 
 19.365000, 13.54, 54.104004 
 19.728001, 13.29, 55.060001 
 20.034000, 13.08, 54.822002 
 19.851000, 13.21, 55.550003 
 19.882999, 13.18, 56.912998 
 19.625000, 13.36, 56.179001 
9
 163.972000, 1.60, 54.712997 
 164.419006, 1.59, 54.253998 
 164.395004, 1.59, 53.869995 
 165.339996, 1.59, 54.361008 
 164.470993, 1.59, 54.616013 
 165.923996, 1.58, 54.417007 
 163.128006, 1.61, 54.121994 
 163.744995, 1.60, 54.093002 
 166.598007, 1.57, 54.031998 
 163.925003, 1.60, 55.453995 
11
 240.675995, 1.09, 53.960999 
 241.069000, 1.09, 54.239990 
 257.894012, 1.02, 54.897980 
 240.968994, 1.09, 54.080994 
 241.173004, 1.09, 54.582001 
 240.466003, 1.09, 53.660004 
 243.378998, 1.08, 55.901001 
 243.352997, 1.08, 54.402008 
 244.112000, 1.07, 55.186005 
 241.811996, 1.08, 54.436996 
15
 445.023987, 0.59, 55.723022 
 447.979004, 0.59, 55.286011 
 447.606995, 0.59, 54.502991 
 443.337006, 0.59, 54.559998 
 446.243011, 0.59, 54.222992 
 449.113007, 0.58, 54.384003 
 446.062988, 0.59, 54.340027 
 442.566986, 0.59, 54.038025 
 442.265015, 0.59, 54.152985 
 443.299988, 0.59, 53.917999 
1
3
 19.893999, 13.18, 54.744003 
 20.565001, 12.75, 56.570999 
 20.184000, 12.99, 54.611000 
 19.764999, 13.26, 54.855003 
 19.761000, 13.27, 57.228996 
 19.809000, 13.23, 54.910004 
 19.737000, 13.28, 54.351997 
 19.691000, 13.31, 54.523994 
 19.955999, 13.14, 53.549995 
 20.674000, 12.68, 56.608997 
9
 165.214996, 1.59, 56.787003 
 169.285995, 1.55, 55.822998 
 164.703995, 1.59, 55.737000 
 164.007004, 1.60, 53.504990 
 167.709000, 1.56, 54.067993 
 165.296005, 1.59, 54.513992 
 167.813995, 1.56, 54.662003 
 167.487000, 1.57, 55.233994 
 165.042007, 1.59, 54.783997 
 168.289993, 1.56, 54.073013 
11
 242.759995, 1.08, 55.029007 
 244.311005, 1.07, 55.235992 
 241.845993, 1.08, 53.841995 
 246.792007, 1.06, 56.016983 
 245.582001, 1.07, 55.286987 
 243.710999, 1.08, 55.739990 
 241.481003, 1.09, 55.387009 
 242.904007, 1.08, 55.379990 
 242.373001, 1.08, 53.923996 
 242.682007, 1.08, 55.190002 
15
 444.641998, 0.59, 54.692017 
 452.183014, 0.58, 53.857971 
 445.084991, 0.59, 54.882996 
 447.059998, 0.59, 55.605988 
 452.464996, 0.58, 56.343994 
 448.631989, 0.58, 55.042023 
 448.242004, 0.58, 55.536987 
 448.105988, 0.59, 55.330017 
 448.368011, 0.58, 55.484985 
 446.313995, 0.59, 54.968994 
2
3
 21.725000, 12.07, 55.533005 
 21.222000, 12.35, 55.316002 
 21.010000, 12.48, 55.988998 
 21.021999, 12.47, 55.912998 
 21.136999, 12.40, 55.940002 
 21.070000, 12.44, 57.738998 
 21.047001, 12.46, 53.569996 
 21.033001, 12.46, 54.883999 
 20.951000, 12.51, 53.966999 
 20.921000, 12.53, 54.936005 


data/Experiment/4zelda2.pgm
0
3
 30.909000, 13.42, 60.716999 
 31.468000, 13.18, 61.356995 
 31.323000, 13.24, 60.480003 
 32.270000, 12.85, 59.714001 
 31.534000, 13.15, 62.576000 
 32.589001, 12.73, 61.049000 
 31.224001, 13.28, 61.057999 
 30.906000, 13.42, 59.942001 
 30.980000, 13.39, 60.620998 
 30.899000, 13.42, 60.489998 
9
 257.596008, 1.61, 58.717987 
 256.497986, 1.62, 59.078003 
 258.871002, 1.60, 59.794006 
 255.516998, 1.62, 58.928009 
 256.190002, 1.62, 59.544006 
 257.457001, 1.61, 58.968994 
 255.854996, 1.62, 60.341019 
 256.674011, 1.62, 59.082977 
 258.640015, 1.60, 60.996979 
 259.084015, 1.60, 78.653992 
11
 379.806000, 1.09, 59.278015 
 379.673004, 1.09, 59.919983 
 381.553009, 1.09, 60.380005 
 381.815002, 1.09, 59.132996 
 382.488007, 1.08, 59.733002 
 379.196991, 1.09, 59.266022 
 378.649994, 1.10, 59.753998 
 379.604004, 1.09, 59.372986 
 379.135986, 1.09, 58.995026 
 378.622986, 1.10, 59.201019 
15
 702.984985, 0.59, 59.712036 
 702.927002, 0.59, 60.684021 
 703.367004, 0.59, 59.356995 
 701.872009, 0.59, 59.557007 
 699.026978, 0.59, 59.813049 
 699.278992, 0.59, 59.057983 
 701.182983, 0.59, 59.433044 
 708.151978, 0.59, 60.221008 
 705.570007, 0.59, 60.619995 
 702.294983, 0.59, 59.692017 
1
3
 31.412001, 13.20, 62.494995 
 30.976999, 13.39, 61.220001 
 30.879000, 13.43, 59.474998 
 30.993000, 13.38, 60.960003 
 30.789000, 13.47, 61.575996 
 31.221001, 13.28, 61.005997 
 31.268999, 13.26, 62.706001 
 30.920000, 13.41, 60.312004 
 31.062000, 13.35, 59.966000 
 30.961000, 13.39, 60.765999 
9
 261.278992, 1.59, 58.662994 
 261.994995, 1.58, 59.766998 
 259.826996, 1.60, 59.276001 
 260.756989, 1.59, 58.678009 
 261.223999, 1.59, 59.122009 
 261.362000, 1.59, 59.630005 
 259.670990, 1.60, 58.322021 
 262.476013, 1.58, 57.863983 
 261.096985, 1.59, 58.831024 
 260.730011, 1.59, 60.011993 
11
 383.910004, 1.08, 58.505981 
 382.585999, 1.08, 60.493011 
 383.490997, 1.08, 58.855011 
 387.359009, 1.07, 59.009979 
 386.088989, 1.07, 59.084015 
 383.756012, 1.08, 59.635986 
 383.987000, 1.08, 61.345001 
 384.010986, 1.08, 59.475006 
 387.416992, 1.07, 59.238007 
 385.807007, 1.07, 60.251007 
15
 703.630981, 0.59, 60.900024 
 704.330994, 0.59, 59.647034 
 716.406006, 0.58, 59.739990 
 702.405029, 0.59, 59.016968 
 701.729004, 0.59, 59.770996 
 702.823975, 0.59, 58.903015 
 702.494019, 0.59, 59.812012 
 702.557983, 0.59, 58.653015 
 701.526001, 0.59, 58.971008 
 700.684998, 0.59, 59.918030 
2
3
 34.249001, 12.11, 59.935997 
 33.958000, 12.21, 60.894997 
 33.775002, 12.28, 59.413002 
 33.916000, 12.23, 60.032997 
 33.938000, 12.22, 60.702999 
 33.597000, 12.34, 59.825996 
 33.639000, 12.33, 59.643997 
 33.745998, 12.29, 60.211002 
 34.839001, 11.90, 60.025997 
 34.917000, 11.88, 61.585999 


data/Experiment/5ultrasound.pgm
0
3
 40.904999, 13.06, 64.236000 
 40.764999, 13.11, 64.230003 
 40.331001, 13.25, 63.042000 
 40.661999, 13.14, 64.559998 
 40.542999, 13.18, 64.096001 
 40.213001, 13.29, 63.398998 
 40.578999, 13.17, 63.018002 
 42.254002, 12.65, 63.052998 
 40.820999, 13.09, 63.886002 
 41.844002, 12.77, 63.709000 
9
 329.476013, 1.62, 62.579987 
 331.950989, 1.61, 63.085022 
 330.765991, 1.62, 62.644012 
 330.277008, 1.62, 63.666992 
 329.255005, 1.62, 63.350983 
 331.817993, 1.61, 62.778015 
 330.040009, 1.62, 62.626984 
 329.881012, 1.62, 63.281982 
 330.957001, 1.61, 62.859009 
 330.580994, 1.62, 63.046997 
11
 488.434998, 1.09, 85.315979 
 499.148987, 1.07, 63.510010 
 496.394989, 1.08, 68.167023 
 489.710999, 1.09, 63.070007 
 488.615997, 1.09, 62.948029 
 490.636993, 1.09, 63.003998 
 492.186005, 1.09, 64.118988 
 496.440002, 1.08, 63.038025 
 492.359009, 1.09, 62.901001 
 491.105988, 1.09, 62.972992 
15
 903.200989, 0.59, 64.151001 
 902.200989, 0.59, 62.278015 
 908.468994, 0.59, 64.200989 
 901.739014, 0.59, 62.703979 
 902.942993, 0.59, 63.664001 
 901.689026, 0.59, 63.057983 
 901.607971, 0.59, 63.325012 
 900.981018, 0.59, 63.005981 
 903.203979, 0.59, 62.576050 
 904.051025, 0.59, 62.296997 
1
3
 41.242001, 12.96, 63.158001 
 41.020000, 13.03, 63.565998 
 40.763000, 13.11, 62.990997 
 41.319000, 12.93, 63.823997 
 41.124001, 12.99, 62.801003 
 41.262001, 12.95, 63.916000 
 40.987000, 13.04, 63.483002 
 41.102001, 13.00, 63.522999 
 41.223000, 12.96, 63.250999 
 42.195000, 12.66, 63.916000 
9
 329.781006, 1.62, 62.492981 
 333.058014, 1.60, 63.014984 
 332.442993, 1.61, 63.460999 
 331.657990, 1.61, 62.368011 
 332.454010, 1.61, 62.856995 
 333.432007, 1.60, 63.552979 
 331.669006, 1.61, 63.273987 
 333.695007, 1.60, 63.953003 
 332.484009, 1.61, 64.067993 
 332.782013, 1.61, 62.822998 
11
 490.138000, 1.09, 63.885010 
 494.299011, 1.08, 64.085999 
 490.553009, 1.09, 62.134979 
 491.919006, 1.09, 62.294983 
 491.278992, 1.09, 62.548035 
 489.644012, 1.09, 62.671967 
 489.817993, 1.09, 62.531006 
 489.636993, 1.09, 62.365021 
 489.846008, 1.09, 62.599976 
 490.322998, 1.09, 83.338989 
15
 898.823975, 0.59, 62.709045 
 901.687988, 0.59, 62.415039 
 899.669983, 0.59, 62.882996 
 900.719971, 0.59, 63.282043 
 911.000977, 0.59, 63.078003 
 902.395020, 0.59, 64.282959 
 907.461975, 0.59, 62.341003 
 904.588013, 0.59, 62.239014 
 900.762024, 0.59, 62.685974 
 900.200012, 0.59, 62.723999 
2
3
 43.519001, 12.28, 64.199997 
 41.792000, 12.79, 64.072998 
 42.424000, 12.59, 64.061005 
 42.146999, 12.68, 64.270004 
 41.967999, 12.73, 63.504002 
 41.769001, 12.79, 63.707996 
 42.840000, 12.47, 64.207001 
 41.984001, 12.73, 63.158997 
 41.791000, 12.79, 63.030998 
 41.765999, 12.79, 62.572998 


data/Experiment/6shoulderCR.pgm
0
3
 60.137001, 13.22, 72.040001 
 60.823002, 13.07, 72.818008 
 60.106998, 13.22, 71.973999 
 60.235001, 13.20, 70.513992 
 60.221001, 13.20, 70.805992 
 59.855000, 13.28, 71.869003 
 60.887001, 13.05, 71.431999 
 61.036999, 13.02, 72.821991 
 60.332001, 13.17, 70.574997 
 61.403999, 12.94, 70.853996 
9
 490.234009, 1.62, 72.516968 
 489.585999, 1.62, 69.981018 
 492.290985, 1.61, 70.634003 
 489.881989, 1.62, 71.183990 
 492.639008, 1.61, 71.884003 
 489.005005, 1.63, 70.424988 
 490.697998, 1.62, 70.346008 
 490.108002, 1.62, 71.475006 
 494.471985, 1.61, 71.493042 
 489.062012, 1.63, 70.356995 
11
 729.745972, 1.09, 71.609009 
 728.767029, 1.09, 72.334961 
 732.880981, 1.08, 71.835999 
 730.335999, 1.09, 71.138000 
 731.841003, 1.09, 71.593018 
 731.299988, 1.09, 72.981995 
 726.804993, 1.09, 69.544006 
 725.643005, 1.10, 71.273987 
 726.307007, 1.09, 69.825012 
 732.197021, 1.09, 72.820984 
15
 1355.219971, 0.59, 71.841064 
 1361.366943, 0.58, 73.440063 
 1350.842041, 0.59, 71.652954 
 1358.055054, 0.59, 72.112915 
 1349.029053, 0.59, 71.971924 
 1350.654053, 0.59, 72.638916 
 1353.885010, 0.59, 73.524048 
 1357.307983, 0.59, 73.034058 
 1352.894043, 0.59, 71.713013 
 1355.270020, 0.59, 71.869019 
1
3
 61.731998, 12.88, 72.014999 
 61.537998, 12.92, 71.534012 
 60.945999, 13.04, 70.733002 
 60.279999, 13.19, 70.962006 
 60.478001, 13.14, 70.610001 
 61.004002, 13.03, 71.908997 
 59.902000, 13.27, 72.265999 
 60.195000, 13.20, 70.301994 
 60.301998, 13.18, 71.481995 
 61.592999, 12.90, 91.410004 
9
 496.770996, 1.60, 70.117981 
 497.382996, 1.60, 71.234985 
 498.937012, 1.59, 71.899963 
 498.153015, 1.60, 71.927979 
 494.796997, 1.61, 70.856018 
 500.727997, 1.59, 71.824005 
 494.877014, 1.61, 70.566956 
 497.809998, 1.60, 70.627014 
 495.574005, 1.60, 72.056000 
 494.665985, 1.61, 70.383026 
11
 740.263000, 1.07, 72.114990 
 733.335999, 1.08, 70.622986 
 733.640991, 1.08, 72.010010 
 739.671021, 1.07, 71.967957 
 733.348022, 1.08, 70.802979 
 733.010010, 1.08, 71.356995 
 735.784973, 1.08, 70.931030 
 732.062012, 1.09, 70.984009 
 731.692017, 1.09, 69.993958 
 733.814026, 1.08, 72.159973 
15
 1355.243042, 0.59, 72.843994 
 1356.859985, 0.59, 72.046997 
 1353.219971, 0.59, 72.789062 
 1358.899048, 0.58, 78.121948 
 1351.187012, 0.59, 71.649048 
 1356.225952, 0.59, 71.633057 
 1353.159058, 0.59, 71.875977 
 1351.265015, 0.59, 71.542969 
 1364.567017, 0.58, 71.917969 
 1363.067993, 0.58, 73.557007 
2
3
 67.801003, 11.72, 70.896004 
 64.723999, 12.28, 70.542999 
 66.274002, 11.99, 70.901993 
 65.313004, 12.17, 70.830994 
 65.677002, 12.10, 71.785995 
 65.265999, 12.18, 70.429008 
 65.203003, 12.19, 73.166992 
 65.547997, 12.13, 70.948006 
 65.278000, 12.18, 70.205002 
 64.778999, 12.27, 70.306007 


data/Experiment/7airplaneU2.pgm
0
3
 78.497002, 13.36, 78.987999 
 80.120003, 13.09, 80.008995 
 78.292000, 13.39, 80.321007 
 78.625000, 13.34, 78.300003 
 79.388000, 13.21, 78.106995 
 79.042999, 13.27, 77.768005 
 78.369003, 13.38, 78.117996 
 78.685997, 13.33, 77.564003 
 79.079002, 13.26, 79.368996 
 78.875999, 13.29, 77.696999 
9
 646.325012, 1.62, 78.393005 
 647.757996, 1.62, 78.604980 
 647.653992, 1.62, 78.177979 
 650.437988, 1.61, 77.952026 
 650.187988, 1.61, 76.929993 
 648.443970, 1.62, 79.107056 
 649.552002, 1.61, 79.645996 
 646.788025, 1.62, 77.627991 
 647.960999, 1.62, 77.828003 
 650.710999, 1.61, 77.888000 
11
 962.262024, 1.09, 77.260925 
 963.726013, 1.09, 81.154968 
 961.947021, 1.09, 80.016968 
 974.952026, 1.08, 81.205933 
 965.807007, 1.09, 81.007935 
 964.137024, 1.09, 88.963928 
 965.585999, 1.09, 90.297058 
 963.343994, 1.09, 87.192993 
 969.867004, 1.08, 80.622009 
 963.731995, 1.09, 78.806946 
15
 1802.021973, 0.58, 81.439087 
 1789.380981, 0.59, 78.308960 
 1787.634033, 0.59, 79.296997 
 1795.447021, 0.58, 77.915039 
 1829.979004, 0.57, 78.235962 
 1862.458984, 0.56, 82.094971 
 1808.244995, 0.58, 80.026978 
 1820.411987, 0.58, 83.108032 
 1882.026001, 0.56, 91.964966 
 1866.066040, 0.56, 80.755981 
1
3
 85.446999, 12.27, 80.743004 
 91.933998, 11.41, 82.336006 
 88.295998, 11.88, 82.968010 
 87.074997, 12.04, 80.979004 
 84.586998, 12.40, 80.668999 
 87.772003, 11.95, 80.552002 
 86.115997, 12.18, 82.165009 
 88.873001, 11.80, 80.585999 
 84.442001, 12.42, 79.190002 
 86.420998, 12.13, 82.041008 
9
 669.614014, 1.57, 78.880981 
 696.794983, 1.50, 83.104004 
 675.476990, 1.55, 83.173035 
 670.330017, 1.56, 79.963989 
 697.383972, 1.50, 79.490051 
 661.364014, 1.59, 79.320007 
 669.763977, 1.57, 80.425049 
 654.804993, 1.60, 76.296997 
 652.401978, 1.61, 76.039001 
 653.801025, 1.60, 77.711975 
11
 962.979004, 1.09, 80.103027 
 969.445984, 1.08, 79.554993 
 964.512024, 1.09, 90.712952 
 967.215027, 1.08, 87.783020 
 976.916016, 1.07, 80.609985 
 975.895020, 1.07, 80.333008 
 964.534973, 1.09, 84.131042 
 969.323975, 1.08, 80.460083 
 974.280029, 1.08, 79.532959 
 965.919983, 1.09, 79.700989 
15
 1816.484985, 0.58, 81.026001 
 1820.036987, 0.58, 77.532959 
 1798.631958, 0.58, 77.013062 
 1797.208008, 0.58, 77.507935 
 1795.088013, 0.58, 78.483032 
 1795.421997, 0.58, 77.009033 
 1792.921997, 0.58, 76.816040 
 1824.720947, 0.57, 78.689087 
 1809.376953, 0.58, 78.033081 
 1836.703979, 0.57, 77.535034 
2
3
 86.942001, 12.06, 78.028000 
 86.750000, 12.09, 77.968994 
 90.168999, 11.63, 80.599007 
 87.339996, 12.01, 78.091003 
 89.361000, 11.73, 83.428993 
 86.653999, 12.10, 81.644997 
 86.761002, 12.09, 76.755997 
 86.512001, 12.12, 77.355995 
 87.103996, 12.04, 78.110008 
 88.920998, 11.79, 79.179008 


data/Experiment/8bone_scint.pgm
0
3
 166.751999, 12.63, 112.490005 
 156.757004, 13.43, 110.796005 
 155.335999, 13.56, 110.062012 
 155.281006, 13.56, 108.153992 
 155.169006, 13.57, 110.186005 
 155.380005, 13.55, 107.971985 
 155.501999, 13.54, 108.270004 
 155.871002, 13.51, 109.160004 
 154.634995, 13.62, 107.970016 
 155.393005, 13.55, 113.669983 
9
 1316.656006, 1.60, 110.505005 
 1313.650024, 1.60, 113.204956 
 1304.115967, 1.61, 111.473022 
 1303.609985, 1.62, 111.044067 
 1303.090942, 1.62, 115.210083 
 1300.593018, 1.62, 110.548950 
 1303.468018, 1.62, 109.645996 
 1305.979980, 1.61, 111.176025 
 1314.376953, 1.60, 111.420044 
 1301.770996, 1.62, 116.088989 
11
 1940.491943, 1.09, 110.510986 
 1957.110962, 1.08, 114.906128 
 1946.014038, 1.08, 108.778931 
 1938.150024, 1.09, 110.202026 
 1930.416016, 1.09, 109.452026 
 1934.291992, 1.09, 108.437012 
 1940.568970, 1.09, 110.047974 
 1933.720947, 1.09, 111.210083 
 1935.141968, 1.09, 109.828979 
 1932.522949, 1.09, 108.820068 
15
 3549.641113, 0.59, 107.877930 
 3561.788086, 0.59, 108.923828 
 3556.364990, 0.59, 108.281982 
 3556.193115, 0.59, 108.423828 
 3556.294922, 0.59, 109.097168 
 3553.114990, 0.59, 108.310059 
 3556.446045, 0.59, 108.661865 
 3578.458008, 0.59, 110.339111 
 3598.967041, 0.59, 115.108887 
 3580.959961, 0.59, 109.781982 
1
3
 159.179001, 13.23, 109.396011 
 162.445999, 12.96, 114.353012 
 164.979004, 12.76, 110.548004 
 163.214005, 12.90, 118.742996 
 163.748001, 12.86, 110.972000 
 159.154007, 13.23, 109.568985 
 159.733002, 13.18, 109.722992 
 164.664001, 12.79, 110.278992 
 158.162003, 13.31, 108.663986 
 157.356995, 13.38, 108.028992 
9
 1321.321045, 1.59, 110.125000 
 1328.822021, 1.58, 111.385010 
 1316.553955, 1.60, 110.012085 
 1327.026978, 1.59, 112.106079 
 1322.432983, 1.59, 111.159058 
 1326.744019, 1.59, 111.312012 
 1327.121948, 1.59, 109.472046 
 1319.534058, 1.60, 111.050903 
 1313.017944, 1.60, 111.406006 
 1319.836060, 1.60, 113.296997 
11
 1950.714966, 1.08, 109.587036 
 1954.005005, 1.08, 120.644897 
 1960.072021, 1.07, 114.317871 
 1984.711060, 1.06, 113.449829 
 1984.614014, 1.06, 110.867920 
 1952.816040, 1.08, 110.131958 
 1964.781006, 1.07, 109.835938 
 1940.458008, 1.09, 110.545898 
 1942.224976, 1.08, 109.833130 
 1955.212036, 1.08, 111.463013 
15
 3644.029053, 0.58, 108.404053 
 3589.072998, 0.59, 109.446045 
 3606.216064, 0.58, 109.412842 
 3585.552002, 0.59, 111.284912 
 3598.287109, 0.59, 110.380859 
 3604.254883, 0.58, 109.605225 
 3611.701904, 0.58, 110.345215 
 3605.350098, 0.58, 111.777832 
 3581.396973, 0.59, 111.268066 
 3585.885010, 0.59, 108.697998 
2
3
 170.244003, 12.37, 110.151993 
 169.427002, 12.43, 109.546997 
 174.949005, 12.04, 108.670990 
 170.876999, 12.32, 108.903000 
 173.824997, 12.11, 108.892014 
 169.013000, 12.46, 109.350006 
 169.548004, 12.42, 108.380981 
 169.809998, 12.40, 109.903992 
 170.250000, 12.37, 108.932007 
 169.143005, 12.45, 108.412994 


data/Experiment/9blackhole.pgm
0
3
 327.852997, 13.18, 182.667999 
 319.079010, 13.54, 171.072998 
 319.190002, 13.53, 172.320007 
 315.790009, 13.68, 170.156982 
 315.351013, 13.70, 176.151978 
 318.774994, 13.55, 171.032013 
 319.312988, 13.53, 170.236023 
 319.092010, 13.54, 170.667999 
 319.010010, 13.54, 170.942993 
 317.557007, 13.60, 171.768982 
9
 2665.271973, 1.62, 169.635986 
 2674.806885, 1.62, 170.843018 
 2665.068115, 1.62, 171.198975 
 2660.419922, 1.62, 175.156982 
 2686.371094, 1.61, 175.635986 
 2674.053955, 1.62, 173.100098 
 2671.757080, 1.62, 174.291016 
 2667.985107, 1.62, 175.877930 
 2669.952881, 1.62, 174.005127 
 2683.729004, 1.61, 174.287109 
11
 3986.406006, 1.08, 174.514893 
 3963.180908, 1.09, 176.853271 
 3962.775879, 1.09, 174.297363 
 3953.063965, 1.09, 178.036133 
 3960.667969, 1.09, 174.184082 
 3987.937988, 1.08, 173.183105 
 3991.287109, 1.08, 172.959961 
 4029.968018, 1.07, 172.048096 
 4018.919922, 1.07, 171.455078 
 3961.612061, 1.09, 169.495850 
15
 7310.899902, 0.59, 170.003906 
 7277.557129, 0.59, 170.830078 
 7389.461914, 0.58, 173.478027 
 7351.193848, 0.59, 172.965332 
 7335.091797, 0.59, 170.541016 
 7301.347168, 0.59, 170.182617 
 7302.009766, 0.59, 170.115234 
 7307.042969, 0.59, 172.367188 
 7297.233887, 0.59, 171.020020 
 7320.875000, 0.59, 170.591797 
1
3
 323.230011, 13.37, 174.171997 
 317.626007, 13.60, 173.311981 
 316.891998, 13.63, 172.842987 
 317.726013, 13.60, 169.751984 
 316.796997, 13.64, 175.149017 
 319.125000, 13.54, 170.019012 
 318.976013, 13.54, 170.168976 
 318.979004, 13.54, 169.135010 
 318.618011, 13.56, 170.928986 
 318.338013, 13.57, 176.162994 
9
 2670.306885, 1.62, 175.575195 
 2668.226074, 1.62, 170.641846 
 2685.417969, 1.61, 175.658936 
 2694.118896, 1.60, 175.080078 
 2675.327881, 1.61, 175.373047 
 2666.894043, 1.62, 175.065918 
 2690.334961, 1.61, 174.006104 
 2673.221924, 1.62, 169.690186 
 2681.685059, 1.61, 171.780029 
 2694.868896, 1.60, 171.452148 
11
 3994.601074, 1.08, 171.234863 
 3968.945068, 1.09, 173.917725 
 3980.659912, 1.09, 171.214111 
 3951.918945, 1.09, 171.925293 
 3953.850098, 1.09, 171.085938 
 3961.775879, 1.09, 170.780273 
 4020.269043, 1.07, 172.945801 
 4011.471924, 1.08, 175.534912 
 3974.082031, 1.09, 174.674805 
 4015.037109, 1.08, 178.993652 
15
 7375.749023, 0.59, 171.447754 
 7356.874023, 0.59, 177.500000 
 7470.795898, 0.58, 180.946289 
 7322.499023, 0.59, 169.974121 
 7280.401855, 0.59, 169.846191 
 7283.030762, 0.59, 169.635254 
 7381.368164, 0.59, 169.262695 
 7311.583984, 0.59, 170.640137 
 7280.039062, 0.59, 169.816895 
 7383.067871, 0.59, 174.123047 
2
3
 322.182007, 13.41, 177.403992 
 319.872986, 13.51, 175.746002 
 321.415985, 13.44, 175.205017 
 322.826996, 13.38, 173.132019 
 320.833008, 13.46, 181.179993 
 322.464996, 13.40, 171.972992 
 320.141998, 13.49, 172.942017 
 320.631989, 13.47, 174.097015 
 322.878998, 13.38, 171.916016 
 320.738007, 13.47, 175.039001 


data/Experiment/z10_skull.pgm
0
3
 475.182007, 13.67, 232.708008 
 479.097992, 13.56, 232.837982 
 476.053986, 13.65, 236.433014 
 476.247009, 13.64, 236.888977 
 487.907013, 13.32, 239.761017 
 500.704010, 12.98, 248.399994 
 478.920013, 13.57, 239.191010 
 482.721985, 13.46, 240.276001 
 475.937012, 13.65, 232.677979 
 476.813995, 13.63, 231.556976 
9
 4004.384033, 1.62, 231.590088 
 3997.170898, 1.63, 234.966309 
 4003.562012, 1.62, 234.319824 
 4033.018066, 1.61, 236.009766 
 4019.144043, 1.62, 237.711914 
 4082.315918, 1.59, 236.326172 
 4029.263916, 1.61, 235.123291 
 3995.247070, 1.63, 232.355957 
 4000.145996, 1.62, 232.208984 
 4008.629883, 1.62, 235.427246 
11
 6001.008789, 1.08, 237.130371 
 5919.976074, 1.10, 232.594727 
 5919.085938, 1.10, 232.397949 
 5930.763184, 1.10, 232.354980 
 5921.457031, 1.10, 233.694824 
 5916.701172, 1.10, 233.675781 
 5917.404785, 1.10, 234.319336 
 5936.299805, 1.09, 232.926270 
 6112.746094, 1.06, 236.227051 
 5918.715820, 1.10, 233.108398 
15
 11441.174805, 0.57, 234.317383 
 11623.956055, 0.56, 238.493164 
 11114.557617, 0.58, 240.352539 
 11205.030273, 0.58, 235.398438 
 11177.503906, 0.58, 237.067383 
 11003.217773, 0.59, 232.824219 
 10970.852539, 0.59, 232.666992 
 11306.087891, 0.57, 231.401367 
 11158.316406, 0.58, 238.598633 
 11297.269531, 0.58, 245.108398 
1
3
 528.700989, 12.29, 381.113037 
 488.250000, 13.31, 249.773010 
 503.014008, 12.92, 247.529999 
 482.131012, 13.48, 252.256989 
 487.596008, 13.33, 237.487000 
 491.726013, 13.21, 233.896973 
 474.717010, 13.69, 232.181000 
 487.477997, 13.33, 237.764008 
 485.919006, 13.37, 237.143982 
 487.269989, 13.33, 245.522003 
9
 4140.728027, 1.57, 241.992188 
 4046.425049, 1.61, 238.619873 
 4240.907227, 1.53, 235.289551 
 4106.978027, 1.58, 238.520020 
 4160.168945, 1.56, 238.039062 
 4048.443115, 1.60, 235.927979 
 4054.081055, 1.60, 237.901855 
 4141.339844, 1.57, 231.515137 
 4053.476074, 1.60, 235.570801 
 4082.050049, 1.59, 236.325928 
11
 6154.473145, 1.06, 234.981934 
 6200.147949, 1.05, 234.184082 
 6050.911133, 1.07, 231.777832 
 5940.596191, 1.09, 231.259766 
 6074.175781, 1.07, 231.225098 
 6052.984863, 1.07, 231.941895 
 5942.837891, 1.09, 233.657227 
 5953.912109, 1.09, 231.793945 
 5946.073242, 1.09, 231.268555 
 5986.152832, 1.09, 233.760254 
15
 10986.123047, 0.59, 234.714844 
 10989.589844, 0.59, 233.016602 
 10949.347656, 0.59, 232.010742 
 10942.972656, 0.59, 231.221680 
 10947.600586, 0.59, 231.000977 
 10953.957031, 0.59, 233.246094 
 11049.625977, 0.59, 239.222656 
 11010.765625, 0.59, 232.787109 
 10958.291992, 0.59, 232.781250 
 10948.618164, 0.59, 231.334961 
2
3
 505.484985, 12.85, 237.233032 
 505.221008, 12.86, 232.557983 
 504.609009, 12.88, 231.701965 
 504.480011, 12.88, 231.585968 
 504.819000, 12.87, 232.175995 
 505.359009, 12.86, 232.458984 
 505.069000, 12.86, 231.295990 
 505.149994, 12.86, 233.024994 
 505.489014, 12.85, 232.492981 
 505.169006, 12.86, 230.874023 


