data/Experiment/1_cameraman.pgm
0
9
 0.439000, 149.28, 68.281998 
 0.440000, 148.95, 66.023994 
 0.451000, 145.31, 63.528000 
 0.439000, 149.28, 64.782997 
 0.439000, 149.28, 64.794998 
 0.441000, 148.61, 64.725998 
 0.439000, 149.28, 62.782001 
 0.440000, 148.95, 64.267998 
 0.438000, 149.63, 63.237000 
 0.440000, 148.95, 64.337997 
1
9
 0.441000, 148.61, 63.292999 
 0.440000, 148.95, 64.211998 
 0.440000, 148.95, 63.475002 
 0.440000, 148.95, 64.403999 
 0.438000, 149.63, 64.070000 
 0.438000, 149.63, 65.199997 
 0.441000, 148.61, 63.418999 
 0.440000, 148.95, 65.906998 
 0.441000, 148.61, 63.731995 
 0.438000, 149.63, 65.177994 


data/Experiment/2bird2.pgm
0
9
 1.464000, 153.69, 68.961006 
 1.470000, 153.06, 71.504997 
 1.465000, 153.58, 69.587006 
 1.463000, 153.79, 69.728004 
 1.468000, 153.27, 69.949997 
 1.465000, 153.58, 69.615005 
 1.467000, 153.37, 67.921997 
 1.597000, 140.89, 70.907997 
 1.469000, 153.17, 68.747002 
 1.466000, 153.48, 70.185997 
1
9
 1.464000, 153.69, 69.028000 
 1.467000, 153.37, 69.897995 
 1.462000, 153.90, 70.037003 
 1.462000, 153.90, 69.907005 
 1.461000, 154.00, 68.710999 
 1.469000, 153.17, 69.331001 
 1.462000, 153.90, 68.594002 
 1.462000, 153.90, 69.152000 
 1.466000, 153.48, 68.730995 
 1.461000, 154.00, 69.439003 


data/Experiment/3lena_bw.pgm
0
9
 1.675000, 156.50, 70.306000 
 1.691000, 155.02, 76.952995 
 1.678000, 156.22, 71.612000 
 1.674000, 156.60, 71.034996 
 1.674000, 156.60, 71.778000 
 1.676000, 156.41, 70.295998 
 1.679000, 156.13, 71.623001 
 1.674000, 156.60, 70.931999 
 1.829000, 143.33, 71.587997 
 1.677000, 156.32, 72.219002 
1
9
 1.675000, 156.50, 72.277000 
 1.825000, 143.64, 72.041000 
 1.681000, 155.95, 72.222000 
 1.816000, 144.35, 70.642998 
 1.681000, 155.95, 71.526001 
 1.683000, 155.76, 71.362000 
 1.682000, 155.85, 70.325005 
 1.680000, 156.04, 71.042999 
 1.682000, 155.85, 71.776001 
 1.684000, 155.67, 72.829002 


data/Experiment/4zelda2.pgm
0
9
 2.669000, 155.38, 75.473999 
 2.771000, 149.66, 77.986008 
 3.259000, 127.25, 77.009995 
 2.669000, 155.38, 77.200005 
 2.774000, 149.50, 75.733002 
 2.672000, 155.21, 76.070000 
 3.266000, 126.98, 75.666000 
 2.666000, 155.56, 76.585999 
 2.768000, 149.83, 76.867004 
 2.666000, 155.56, 75.994003 
1
9
 2.673000, 155.15, 75.976006 
 2.668000, 155.44, 77.439003 
 2.827000, 146.70, 77.181000 
 2.666000, 155.56, 75.570000 
 2.667000, 155.50, 78.122002 
 2.697000, 153.77, 75.939003 
 3.268000, 126.90, 75.653999 
 2.666000, 155.56, 76.040001 
 2.792000, 148.54, 77.084999 
 2.668000, 155.44, 76.471001 


data/Experiment/5ultrasound.pgm
0
9
 3.376000, 158.27, 80.761002 
 3.377000, 158.22, 80.392998 
 3.376000, 158.27, 82.493004 
 4.111000, 129.97, 80.681999 
 3.369000, 158.60, 80.580994 
 3.376000, 158.27, 80.085999 
 3.372000, 158.46, 81.771996 
 3.477000, 153.67, 82.157005 
 3.377000, 158.22, 83.346001 
 3.964000, 134.79, 79.147003 
1
9
 3.480000, 153.54, 80.770996 
 3.380000, 158.08, 79.945999 
 3.371000, 158.50, 106.499001 
 4.073000, 131.18, 81.075005 
 3.374000, 158.36, 80.445000 
 3.377000, 158.22, 80.348999 
 3.499000, 152.71, 79.582001 
 3.963000, 134.83, 81.065002 
 3.974000, 134.45, 81.065002 
 3.376000, 158.27, 81.863998 


data/Experiment/6shoulderCR.pgm
0
9
 5.077000, 156.55, 89.239998 
 5.185000, 153.29, 89.740005 
 5.072000, 156.71, 89.489998 
 5.079000, 156.49, 93.053001 
 5.189000, 153.17, 90.905998 
 5.075000, 156.61, 90.933006 
 5.075000, 156.61, 89.587006 
 5.071000, 156.74, 89.926003 
 5.173000, 153.65, 90.468002 
 5.071000, 156.74, 89.512001 
1
9
 5.072000, 156.71, 88.471001 
 5.073000, 156.67, 89.394005 
 5.072000, 156.71, 88.637001 
 5.175000, 153.59, 88.112999 
 5.177000, 153.53, 88.235001 
 5.076000, 156.58, 90.811005 
 5.073000, 156.67, 89.400002 
 5.080000, 156.46, 89.459999 
 5.072000, 156.71, 88.889000 
 5.076000, 156.58, 88.733994 


data/Experiment/7airplaneU2.pgm
0
9
 6.550000, 160.09, 97.339996 
 7.547000, 138.94, 98.542999 
 6.580000, 159.36, 99.632996 
 6.555000, 159.97, 97.360001 
 6.659000, 157.47, 98.167000 
 6.648000, 157.73, 98.808998 
 6.548000, 160.14, 97.501007 
 6.582000, 159.31, 96.443001 
 6.552000, 160.04, 96.983002 
 6.657000, 157.51, 97.768005 
1
9
 6.683000, 156.90, 99.080002 
 6.553000, 160.01, 98.151001 
 6.547000, 160.16, 96.835007 
 6.551000, 160.06, 97.507996 
 6.657000, 157.51, 96.706001 
 6.654000, 157.59, 98.015999 
 6.553000, 160.01, 98.462997 
 6.551000, 160.06, 98.352997 
 6.548000, 160.14, 97.708000 
 6.551000, 160.06, 98.642998 


data/Experiment/8bone_scint.pgm
0
9
 13.404000, 157.09, 136.865997 
 13.393000, 157.22, 135.591995 
 13.506000, 155.90, 132.288010 
 13.498000, 155.99, 133.444992 
 14.124000, 149.08, 133.603012 
 13.509000, 155.87, 133.545990 
 13.535000, 155.57, 131.914001 
 14.135000, 148.96, 133.125000 
 13.507000, 155.89, 132.783997 
 13.509000, 155.87, 134.173004 
1
9
 14.138000, 148.93, 131.804993 
 13.530000, 155.62, 134.039001 
 13.509000, 155.87, 132.125000 
 14.142000, 148.89, 132.815994 
 13.509000, 155.87, 132.259995 
 13.507000, 155.89, 133.011002 
 13.406000, 157.06, 131.655991 
 14.230000, 147.97, 130.513000 
 13.500000, 155.97, 131.350998 
 13.510000, 155.85, 133.218002 


data/Experiment/9blackhole.pgm
0
9
 26.879000, 160.72, 204.274002 
 26.995001, 160.03, 214.812012 
 28.749001, 150.27, 208.454010 
 28.056000, 153.98, 203.934998 
 26.990000, 160.06, 202.302994 
 26.889999, 160.65, 213.175995 
 27.802999, 155.38, 212.001999 
 28.054001, 153.99, 201.960999 
 26.910000, 160.54, 202.554993 
 27.010000, 159.94, 201.311005 
1
9
 28.035999, 154.09, 228.289993 
 27.924000, 154.71, 201.943008 
 26.889999, 160.65, 202.514008 
 27.002001, 159.99, 203.014008 
 26.993999, 160.04, 202.722000 
 26.921000, 160.47, 202.587997 
 27.004999, 159.97, 206.141998 
 26.888000, 160.67, 202.205002 
 27.002001, 159.99, 201.695007 
 27.018000, 159.89, 202.003998 


data/Experiment/z10_skull.pgm
0
9
 42.373001, 153.34, 274.242004 
 40.722000, 159.55, 274.802979 
 40.701000, 159.63, 273.181000 
 40.720001, 159.56, 274.071991 
 40.738998, 159.49, 273.932007 
 40.726002, 159.54, 273.923981 
 40.702999, 159.63, 274.721985 
 40.702000, 159.63, 275.851013 
 40.698002, 159.65, 272.654999 
 40.703999, 159.62, 312.259003 
1
9
 40.787998, 159.29, 272.910004 
 40.692001, 159.67, 274.643005 
 40.700001, 159.64, 273.504974 
 40.698002, 159.65, 275.148010 
 40.692001, 159.67, 273.715027 
 40.698002, 159.65, 276.463989 
 40.683998, 159.70, 273.820007 
 40.691002, 159.67, 274.368988 
 40.726002, 159.54, 273.634979 
 40.705002, 159.62, 277.744019 


